{
  "__data_type": "UTI ",
  "AddCost": {
    "type": "dword",
    "value": 797
  },
  "BaseItem": {
    "type": "int",
    "value": 29
  },
  "Charges": {
    "type": "byte",
    "value": 0
  },
  "Comment": {
    "type": "cexostring",
    "value": ""
  },
  "Cost": {
    "type": "dword",
    "value": 800
  },
  "Cursed": {
    "type": "byte",
    "value": 0
  },
  "DescIdentified": {
    "type": "cexolocstring",
    "value": {
      "0": "Armor with 6 base AC that provides a +5 bonus to Intimidate.\n\nSkill: Craft Armor\nDifficulty Class: 10\nMaterials required:\n-Iron bar x3\n\nIf you have the required components and you or one of your companions have the necessary skill sufficiently trained, you can use this recipe to create this item.",
      "10": "Zbroja o bazowej KP 6 zapewniaj¹ca premiê +5 do Zastraszania.\n\nUmiejêtnoœæ: Tworzenie pancerza\nStopieñ Trudnoœci: 10\nWymagane materia³y:\n-Sztabka ¿elaza x3\n\nJeœli posiadasz wymagane materia³y i ty lub któryœ z twoich towarzyszy posiadacie wymagan¹ umiejêtnoœæ na wystarczaj¹cym poziomie, mo¿esz u¿yæ tego schematu, by wytworzyæ przedmiot."
    }
  },
  "Description": {
    "type": "cexolocstring",
    "value": {}
  },
  "Identified": {
    "type": "byte",
    "value": 1
  },
  "LocalizedName": {
    "type": "cexolocstring",
    "value": {
      "0": "Recipe: Thug's Attire",
      "10": "Schemat: Zbroja Zbójcy"
    }
  },
  "ModelPart1": {
    "type": "byte",
    "value": 52
  },
  "PaletteID": {
    "type": "byte",
    "value": 64
  },
  "Plot": {
    "type": "byte",
    "value": 0
  },
  "PropertiesList": {
    "type": "list",
    "value": [
      {
        "__struct_id": 0,
        "ChanceAppear": {
          "type": "byte",
          "value": 100
        },
        "CostTable": {
          "type": "byte",
          "value": 3
        },
        "CostValue": {
          "type": "word",
          "value": 13
        },
        "Param1": {
          "type": "byte",
          "value": 255
        },
        "Param1Value": {
          "type": "byte",
          "value": 0
        },
        "PropertyName": {
          "type": "word",
          "value": 15
        },
        "Subtype": {
          "type": "word",
          "value": 335
        }
      }
    ]
  },
  "StackSize": {
    "type": "word",
    "value": 1
  },
  "Stolen": {
    "type": "byte",
    "value": 0
  },
  "Tag": {
    "type": "cexostring",
    "value": "it_recarm10_02a"
  },
  "TemplateResRef": {
    "type": "resref",
    "value": "it_recarm10_02a"
  },
  "VarTable": {
    "type": "list",
    "value": [
      {
        "__struct_id": 0,
        "Name": {
          "type": "cexostring",
          "value": "COMPONENT_1"
        },
        "Type": {
          "type": "dword",
          "value": 3
        },
        "Value": {
          "type": "cexostring",
          "value": "it_metal1"
        }
      },
      {
        "__struct_id": 0,
        "Name": {
          "type": "cexostring",
          "value": "COMPONENT_1_NUM"
        },
        "Type": {
          "type": "dword",
          "value": 1
        },
        "Value": {
          "type": "int",
          "value": 3
        }
      },
      {
        "__struct_id": 0,
        "Name": {
          "type": "cexostring",
          "value": "CRAFT_DC"
        },
        "Type": {
          "type": "dword",
          "value": 1
        },
        "Value": {
          "type": "int",
          "value": 10
        }
      },
      {
        "__struct_id": 0,
        "Name": {
          "type": "cexostring",
          "value": "CRAFT_SKILL"
        },
        "Type": {
          "type": "dword",
          "value": 1
        },
        "Value": {
          "type": "int",
          "value": 25
        }
      },
      {
        "__struct_id": 0,
        "Name": {
          "type": "cexostring",
          "value": "CRAFT_RESREF"
        },
        "Type": {
          "type": "dword",
          "value": 3
        },
        "Value": {
          "type": "cexostring",
          "value": "it_armor10_02a"
        }
      }
    ]
  }
}
