{
  "__data_type": "UTI ",
  "AddCost": {
    "type": "dword",
    "value": 720
  },
  "BaseItem": {
    "type": "int",
    "value": 29
  },
  "Charges": {
    "type": "byte",
    "value": 0
  },
  "Comment": {
    "type": "cexostring",
    "value": ""
  },
  "Cost": {
    "type": "dword",
    "value": 723
  },
  "Cursed": {
    "type": "byte",
    "value": 0
  },
  "DescIdentified": {
    "type": "cexolocstring",
    "value": {
      "0": "Dagger that provides a +1 enhancement bonus against humanoid creatures.\n\nSkill: Craft Weapon\nDifficulty Class: 11\nMaterials required:\n-Adamantine bar x3\n\nIf you have the required components and you or one of your companions have the necessary skill sufficiently trained, you can use this recipe to create this item.",
      "10": "Sztylet zapewniaj¹cy premiê +1 za ulepszenie w walce przeciwko stworzeniom humanoidalnym.\n\nUmiejêtnoœæ: Tworzenie broni\nStopieñ Trudnoœci: 11\nWymagane materia³y:\n-Sztabka adamantu x3\n\nJeœli posiadasz wymagane materia³y i ty lub któryœ z twoich towarzyszy posiadacie wymagan¹ umiejêtnoœæ na wystarczaj¹cym poziomie, mo¿esz u¿yæ tego schematu, by wytworzyæ przedmiot."
    }
  },
  "Description": {
    "type": "cexolocstring",
    "value": {}
  },
  "Identified": {
    "type": "byte",
    "value": 1
  },
  "LocalizedName": {
    "type": "cexolocstring",
    "value": {
      "0": "Recipe: Throat Slitter",
      "10": "Schemat: Podrzynacz"
    }
  },
  "ModelPart1": {
    "type": "byte",
    "value": 52
  },
  "PaletteID": {
    "type": "byte",
    "value": 64
  },
  "Plot": {
    "type": "byte",
    "value": 0
  },
  "PropertiesList": {
    "type": "list",
    "value": [
      {
        "__struct_id": 0,
        "ChanceAppear": {
          "type": "byte",
          "value": 100
        },
        "CostTable": {
          "type": "byte",
          "value": 3
        },
        "CostValue": {
          "type": "word",
          "value": 13
        },
        "Param1": {
          "type": "byte",
          "value": 255
        },
        "Param1Value": {
          "type": "byte",
          "value": 0
        },
        "PropertyName": {
          "type": "word",
          "value": 15
        },
        "Subtype": {
          "type": "word",
          "value": 335
        }
      }
    ]
  },
  "StackSize": {
    "type": "word",
    "value": 1
  },
  "Stolen": {
    "type": "byte",
    "value": 0
  },
  "Tag": {
    "type": "cexostring",
    "value": "it_recdagger02a"
  },
  "TemplateResRef": {
    "type": "resref",
    "value": "it_recdagger02a"
  },
  "VarTable": {
    "type": "list",
    "value": [
      {
        "__struct_id": 0,
        "Name": {
          "type": "cexostring",
          "value": "COMPONENT_1"
        },
        "Type": {
          "type": "dword",
          "value": 3
        },
        "Value": {
          "type": "cexostring",
          "value": "it_metal2"
        }
      },
      {
        "__struct_id": 0,
        "Name": {
          "type": "cexostring",
          "value": "COMPONENT_1_NUM"
        },
        "Type": {
          "type": "dword",
          "value": 1
        },
        "Value": {
          "type": "int",
          "value": 3
        }
      },
      {
        "__struct_id": 0,
        "Name": {
          "type": "cexostring",
          "value": "CRAFT_DC"
        },
        "Type": {
          "type": "dword",
          "value": 1
        },
        "Value": {
          "type": "int",
          "value": 11
        }
      },
      {
        "__struct_id": 0,
        "Name": {
          "type": "cexostring",
          "value": "CRAFT_SKILL"
        },
        "Type": {
          "type": "dword",
          "value": 1
        },
        "Value": {
          "type": "int",
          "value": 26
        }
      },
      {
        "__struct_id": 0,
        "Name": {
          "type": "cexostring",
          "value": "CRAFT_RESREF"
        },
        "Type": {
          "type": "dword",
          "value": 3
        },
        "Value": {
          "type": "cexostring",
          "value": "it_dagger02a"
        }
      }
    ]
  }
}
