{
  "__data_type": "ARE ",
  "ChanceLightning": {
    "type": "int",
    "value": 0
  },
  "ChanceRain": {
    "type": "int",
    "value": 0
  },
  "ChanceSnow": {
    "type": "int",
    "value": 0
  },
  "Comments": {
    "type": "cexostring",
    "value": ""
  },
  "Creator_ID": {
    "type": "int",
    "value": -1
  },
  "DayNightCycle": {
    "type": "byte",
    "value": 1
  },
  "Expansion_List": {
    "type": "list",
    "value": []
  },
  "Flags": {
    "type": "dword",
    "value": 4
  },
  "FogClipDist": {
    "type": "float",
    "value": 45.0
  },
  "Height": {
    "type": "int",
    "value": 8
  },
  "ID": {
    "type": "int",
    "value": -1
  },
  "IsNight": {
    "type": "byte",
    "value": 0
  },
  "LightingScheme": {
    "type": "byte",
    "value": 0
  },
  "LoadScreenID": {
    "type": "word",
    "value": 180
  },
  "ModListenCheck": {
    "type": "int",
    "value": 0
  },
  "ModSpotCheck": {
    "type": "int",
    "value": 0
  },
  "MoonAmbientColor": {
    "type": "dword",
    "value": 0
  },
  "MoonDiffuseColor": {
    "type": "dword",
    "value": 13132900
  },
  "MoonFogAmount": {
    "type": "byte",
    "value": 0
  },
  "MoonFogColor": {
    "type": "dword",
    "value": 6566450
  },
  "MoonShadows": {
    "type": "byte",
    "value": 1
  },
  "Name": {
    "type": "cexolocstring",
    "value": {
      "0": "humvil_05_05"
    }
  },
  "NoRest": {
    "type": "byte",
    "value": 1
  },
  "OnEnter": {
    "type": "resref",
    "value": ""
  },
  "OnExit": {
    "type": "resref",
    "value": ""
  },
  "OnHeartbeat": {
    "type": "resref",
    "value": ""
  },
  "OnUserDefined": {
    "type": "resref",
    "value": ""
  },
  "PlayerVsPlayer": {
    "type": "byte",
    "value": 3
  },
  "ResRef": {
    "type": "resref",
    "value": "humvil_05_05"
  },
  "ShadowOpacity": {
    "type": "byte",
    "value": 50
  },
  "SkyBox": {
    "type": "byte",
    "value": 0
  },
  "SunAmbientColor": {
    "type": "dword",
    "value": 6566450
  },
  "SunDiffuseColor": {
    "type": "dword",
    "value": 16777215
  },
  "SunFogAmount": {
    "type": "byte",
    "value": 0
  },
  "SunFogColor": {
    "type": "dword",
    "value": 9535080
  },
  "SunShadows": {
    "type": "byte",
    "value": 1
  },
  "Tag": {
    "type": "cexostring",
    "value": "humvil_05_05"
  },
  "Tile_List": {
    "type": "list",
    "value": [
      {
        "__struct_id": 1,
        "Tile_AnimLoop1": {
          "type": "byte",
          "value": 1
        },
        "Tile_AnimLoop2": {
          "type": "byte",
          "value": 1
        },
        "Tile_AnimLoop3": {
          "type": "byte",
          "value": 1
        },
        "Tile_Height": {
          "type": "int",
          "value": 1
        },
        "Tile_ID": {
          "type": "int",
          "value": 9
        },
        "Tile_MainLight1": {
          "type": "byte",
          "value": 0
        },
        "Tile_MainLight2": {
          "type": "byte",
          "value": 0
        },
        "Tile_Orientation": {
          "type": "int",
          "value": 2
        },
        "Tile_SrcLight1": {
          "type": "byte",
          "value": 0
        },
        "Tile_SrcLight2": {
          "type": "byte",
          "value": 0
        }
      },
      {
        "__struct_id": 1,
        "Tile_AnimLoop1": {
          "type": "byte",
          "value": 1
        },
        "Tile_AnimLoop2": {
          "type": "byte",
          "value": 1
        },
        "Tile_AnimLoop3": {
          "type": "byte",
          "value": 1
        },
        "Tile_Height": {
          "type": "int",
          "value": 0
        },
        "Tile_ID": {
          "type": "int",
          "value": 111
        },
        "Tile_MainLight1": {
          "type": "byte",
          "value": 0
        },
        "Tile_MainLight2": {
          "type": "byte",
          "value": 0
        },
        "Tile_Orientation": {
          "type": "int",
          "value": 2
        },
        "Tile_SrcLight1": {
          "type": "byte",
          "value": 0
        },
        "Tile_SrcLight2": {
          "type": "byte",
          "value": 0
        }
      },
      {
        "__struct_id": 1,
        "Tile_AnimLoop1": {
          "type": "byte",
          "value": 1
        },
        "Tile_AnimLoop2": {
          "type": "byte",
          "value": 1
        },
        "Tile_AnimLoop3": {
          "type": "byte",
          "value": 1
        },
        "Tile_Height": {
          "type": "int",
          "value": 0
        },
        "Tile_ID": {
          "type": "int",
          "value": 1014
        },
        "Tile_MainLight1": {
          "type": "byte",
          "value": 0
        },
        "Tile_MainLight2": {
          "type": "byte",
          "value": 0
        },
        "Tile_Orientation": {
          "type": "int",
          "value": 0
        },
        "Tile_SrcLight1": {
          "type": "byte",
          "value": 0
        },
        "Tile_SrcLight2": {
          "type": "byte",
          "value": 0
        }
      },
      {
        "__struct_id": 1,
        "Tile_AnimLoop1": {
          "type": "byte",
          "value": 1
        },
        "Tile_AnimLoop2": {
          "type": "byte",
          "value": 1
        },
        "Tile_AnimLoop3": {
          "type": "byte",
          "value": 1
        },
        "Tile_Height": {
          "type": "int",
          "value": 0
        },
        "Tile_ID": {
          "type": "int",
          "value": 12
        },
        "Tile_MainLight1": {
          "type": "byte",
          "value": 0
        },
        "Tile_MainLight2": {
          "type": "byte",
          "value": 0
        },
        "Tile_Orientation": {
          "type": "int",
          "value": 3
        },
        "Tile_SrcLight1": {
          "type": "byte",
          "value": 0
        },
        "Tile_SrcLight2": {
          "type": "byte",
          "value": 0
        }
      },
      {
        "__struct_id": 1,
        "Tile_AnimLoop1": {
          "type": "byte",
          "value": 1
        },
        "Tile_AnimLoop2": {
          "type": "byte",
          "value": 1
        },
        "Tile_AnimLoop3": {
          "type": "byte",
          "value": 1
        },
        "Tile_Height": {
          "type": "int",
          "value": 0
        },
        "Tile_ID": {
          "type": "int",
          "value": 115
        },
        "Tile_MainLight1": {
          "type": "byte",
          "value": 0
        },
        "Tile_MainLight2": {
          "type": "byte",
          "value": 0
        },
        "Tile_Orientation": {
          "type": "int",
          "value": 2
        },
        "Tile_SrcLight1": {
          "type": "byte",
          "value": 0
        },
        "Tile_SrcLight2": {
          "type": "byte",
          "value": 0
        }
      },
      {
        "__struct_id": 1,
        "Tile_AnimLoop1": {
          "type": "byte",
          "value": 1
        },
        "Tile_AnimLoop2": {
          "type": "byte",
          "value": 1
        },
        "Tile_AnimLoop3": {
          "type": "byte",
          "value": 1
        },
        "Tile_Height": {
          "type": "int",
          "value": 0
        },
        "Tile_ID": {
          "type": "int",
          "value": 121
        },
        "Tile_MainLight1": {
          "type": "byte",
          "value": 0
        },
        "Tile_MainLight2": {
          "type": "byte",
          "value": 0
        },
        "Tile_Orientation": {
          "type": "int",
          "value": 3
        },
        "Tile_SrcLight1": {
          "type": "byte",
          "value": 0
        },
        "Tile_SrcLight2": {
          "type": "byte",
          "value": 0
        }
      },
      {
        "__struct_id": 1,
        "Tile_AnimLoop1": {
          "type": "byte",
          "value": 1
        },
        "Tile_AnimLoop2": {
          "type": "byte",
          "value": 1
        },
        "Tile_AnimLoop3": {
          "type": "byte",
          "value": 1
        },
        "Tile_Height": {
          "type": "int",
          "value": 0
        },
        "Tile_ID": {
          "type": "int",
          "value": 111
        },
        "Tile_MainLight1": {
          "type": "byte",
          "value": 0
        },
        "Tile_MainLight2": {
          "type": "byte",
          "value": 0
        },
        "Tile_Orientation": {
          "type": "int",
          "value": 3
        },
        "Tile_SrcLight1": {
          "type": "byte",
          "value": 0
        },
        "Tile_SrcLight2": {
          "type": "byte",
          "value": 0
        }
      },
      {
        "__struct_id": 1,
        "Tile_AnimLoop1": {
          "type": "byte",
          "value": 1
        },
        "Tile_AnimLoop2": {
          "type": "byte",
          "value": 1
        },
        "Tile_AnimLoop3": {
          "type": "byte",
          "value": 1
        },
        "Tile_Height": {
          "type": "int",
          "value": 0
        },
        "Tile_ID": {
          "type": "int",
          "value": 109
        },
        "Tile_MainLight1": {
          "type": "byte",
          "value": 0
        },
        "Tile_MainLight2": {
          "type": "byte",
          "value": 0
        },
        "Tile_Orientation": {
          "type": "int",
          "value": 3
        },
        "Tile_SrcLight1": {
          "type": "byte",
          "value": 0
        },
        "Tile_SrcLight2": {
          "type": "byte",
          "value": 0
        }
      },
      {
        "__struct_id": 1,
        "Tile_AnimLoop1": {
          "type": "byte",
          "value": 1
        },
        "Tile_AnimLoop2": {
          "type": "byte",
          "value": 1
        },
        "Tile_AnimLoop3": {
          "type": "byte",
          "value": 1
        },
        "Tile_Height": {
          "type": "int",
          "value": 0
        },
        "Tile_ID": {
          "type": "int",
          "value": 247
        },
        "Tile_MainLight1": {
          "type": "byte",
          "value": 0
        },
        "Tile_MainLight2": {
          "type": "byte",
          "value": 0
        },
        "Tile_Orientation": {
          "type": "int",
          "value": 2
        },
        "Tile_SrcLight1": {
          "type": "byte",
          "value": 0
        },
        "Tile_SrcLight2": {
          "type": "byte",
          "value": 0
        }
      },
      {
        "__struct_id": 1,
        "Tile_AnimLoop1": {
          "type": "byte",
          "value": 1
        },
        "Tile_AnimLoop2": {
          "type": "byte",
          "value": 1
        },
        "Tile_AnimLoop3": {
          "type": "byte",
          "value": 1
        },
        "Tile_Height": {
          "type": "int",
          "value": 0
        },
        "Tile_ID": {
          "type": "int",
          "value": 117
        },
        "Tile_MainLight1": {
          "type": "byte",
          "value": 0
        },
        "Tile_MainLight2": {
          "type": "byte",
          "value": 0
        },
        "Tile_Orientation": {
          "type": "int",
          "value": 1
        },
        "Tile_SrcLight1": {
          "type": "byte",
          "value": 0
        },
        "Tile_SrcLight2": {
          "type": "byte",
          "value": 0
        }
      },
      {
        "__struct_id": 1,
        "Tile_AnimLoop1": {
          "type": "byte",
          "value": 1
        },
        "Tile_AnimLoop2": {
          "type": "byte",
          "value": 1
        },
        "Tile_AnimLoop3": {
          "type": "byte",
          "value": 1
        },
        "Tile_Height": {
          "type": "int",
          "value": 0
        },
        "Tile_ID": {
          "type": "int",
          "value": 1012
        },
        "Tile_MainLight1": {
          "type": "byte",
          "value": 0
        },
        "Tile_MainLight2": {
          "type": "byte",
          "value": 0
        },
        "Tile_Orientation": {
          "type": "int",
          "value": 2
        },
        "Tile_SrcLight1": {
          "type": "byte",
          "value": 0
        },
        "Tile_SrcLight2": {
          "type": "byte",
          "value": 0
        }
      },
      {
        "__struct_id": 1,
        "Tile_AnimLoop1": {
          "type": "byte",
          "value": 1
        },
        "Tile_AnimLoop2": {
          "type": "byte",
          "value": 1
        },
        "Tile_AnimLoop3": {
          "type": "byte",
          "value": 1
        },
        "Tile_Height": {
          "type": "int",
          "value": 0
        },
        "Tile_ID": {
          "type": "int",
          "value": 888
        },
        "Tile_MainLight1": {
          "type": "byte",
          "value": 0
        },
        "Tile_MainLight2": {
          "type": "byte",
          "value": 0
        },
        "Tile_Orientation": {
          "type": "int",
          "value": 2
        },
        "Tile_SrcLight1": {
          "type": "byte",
          "value": 0
        },
        "Tile_SrcLight2": {
          "type": "byte",
          "value": 0
        }
      },
      {
        "__struct_id": 1,
        "Tile_AnimLoop1": {
          "type": "byte",
          "value": 1
        },
        "Tile_AnimLoop2": {
          "type": "byte",
          "value": 1
        },
        "Tile_AnimLoop3": {
          "type": "byte",
          "value": 1
        },
        "Tile_Height": {
          "type": "int",
          "value": 0
        },
        "Tile_ID": {
          "type": "int",
          "value": 14
        },
        "Tile_MainLight1": {
          "type": "byte",
          "value": 0
        },
        "Tile_MainLight2": {
          "type": "byte",
          "value": 0
        },
        "Tile_Orientation": {
          "type": "int",
          "value": 1
        },
        "Tile_SrcLight1": {
          "type": "byte",
          "value": 0
        },
        "Tile_SrcLight2": {
          "type": "byte",
          "value": 0
        }
      },
      {
        "__struct_id": 1,
        "Tile_AnimLoop1": {
          "type": "byte",
          "value": 1
        },
        "Tile_AnimLoop2": {
          "type": "byte",
          "value": 1
        },
        "Tile_AnimLoop3": {
          "type": "byte",
          "value": 1
        },
        "Tile_Height": {
          "type": "int",
          "value": 0
        },
        "Tile_ID": {
          "type": "int",
          "value": 353
        },
        "Tile_MainLight1": {
          "type": "byte",
          "value": 0
        },
        "Tile_MainLight2": {
          "type": "byte",
          "value": 0
        },
        "Tile_Orientation": {
          "type": "int",
          "value": 0
        },
        "Tile_SrcLight1": {
          "type": "byte",
          "value": 0
        },
        "Tile_SrcLight2": {
          "type": "byte",
          "value": 0
        }
      },
      {
        "__struct_id": 1,
        "Tile_AnimLoop1": {
          "type": "byte",
          "value": 1
        },
        "Tile_AnimLoop2": {
          "type": "byte",
          "value": 1
        },
        "Tile_AnimLoop3": {
          "type": "byte",
          "value": 1
        },
        "Tile_Height": {
          "type": "int",
          "value": 0
        },
        "Tile_ID": {
          "type": "int",
          "value": 354
        },
        "Tile_MainLight1": {
          "type": "byte",
          "value": 0
        },
        "Tile_MainLight2": {
          "type": "byte",
          "value": 0
        },
        "Tile_Orientation": {
          "type": "int",
          "value": 0
        },
        "Tile_SrcLight1": {
          "type": "byte",
          "value": 0
        },
        "Tile_SrcLight2": {
          "type": "byte",
          "value": 0
        }
      },
      {
        "__struct_id": 1,
        "Tile_AnimLoop1": {
          "type": "byte",
          "value": 1
        },
        "Tile_AnimLoop2": {
          "type": "byte",
          "value": 1
        },
        "Tile_AnimLoop3": {
          "type": "byte",
          "value": 1
        },
        "Tile_Height": {
          "type": "int",
          "value": 0
        },
        "Tile_ID": {
          "type": "int",
          "value": 118
        },
        "Tile_MainLight1": {
          "type": "byte",
          "value": 0
        },
        "Tile_MainLight2": {
          "type": "byte",
          "value": 0
        },
        "Tile_Orientation": {
          "type": "int",
          "value": 2
        },
        "Tile_SrcLight1": {
          "type": "byte",
          "value": 0
        },
        "Tile_SrcLight2": {
          "type": "byte",
          "value": 0
        }
      },
      {
        "__struct_id": 1,
        "Tile_AnimLoop1": {
          "type": "byte",
          "value": 1
        },
        "Tile_AnimLoop2": {
          "type": "byte",
          "value": 1
        },
        "Tile_AnimLoop3": {
          "type": "byte",
          "value": 1
        },
        "Tile_Height": {
          "type": "int",
          "value": 0
        },
        "Tile_ID": {
          "type": "int",
          "value": 115
        },
        "Tile_MainLight1": {
          "type": "byte",
          "value": 0
        },
        "Tile_MainLight2": {
          "type": "byte",
          "value": 0
        },
        "Tile_Orientation": {
          "type": "int",
          "value": 1
        },
        "Tile_SrcLight1": {
          "type": "byte",
          "value": 0
        },
        "Tile_SrcLight2": {
          "type": "byte",
          "value": 0
        }
      },
      {
        "__struct_id": 1,
        "Tile_AnimLoop1": {
          "type": "byte",
          "value": 1
        },
        "Tile_AnimLoop2": {
          "type": "byte",
          "value": 1
        },
        "Tile_AnimLoop3": {
          "type": "byte",
          "value": 1
        },
        "Tile_Height": {
          "type": "int",
          "value": 0
        },
        "Tile_ID": {
          "type": "int",
          "value": 9
        },
        "Tile_MainLight1": {
          "type": "byte",
          "value": 0
        },
        "Tile_MainLight2": {
          "type": "byte",
          "value": 0
        },
        "Tile_Orientation": {
          "type": "int",
          "value": 3
        },
        "Tile_SrcLight1": {
          "type": "byte",
          "value": 0
        },
        "Tile_SrcLight2": {
          "type": "byte",
          "value": 0
        }
      },
      {
        "__struct_id": 1,
        "Tile_AnimLoop1": {
          "type": "byte",
          "value": 1
        },
        "Tile_AnimLoop2": {
          "type": "byte",
          "value": 1
        },
        "Tile_AnimLoop3": {
          "type": "byte",
          "value": 1
        },
        "Tile_Height": {
          "type": "int",
          "value": 0
        },
        "Tile_ID": {
          "type": "int",
          "value": 1013
        },
        "Tile_MainLight1": {
          "type": "byte",
          "value": 0
        },
        "Tile_MainLight2": {
          "type": "byte",
          "value": 0
        },
        "Tile_Orientation": {
          "type": "int",
          "value": 0
        },
        "Tile_SrcLight1": {
          "type": "byte",
          "value": 0
        },
        "Tile_SrcLight2": {
          "type": "byte",
          "value": 0
        }
      },
      {
        "__struct_id": 1,
        "Tile_AnimLoop1": {
          "type": "byte",
          "value": 1
        },
        "Tile_AnimLoop2": {
          "type": "byte",
          "value": 1
        },
        "Tile_AnimLoop3": {
          "type": "byte",
          "value": 1
        },
        "Tile_Height": {
          "type": "int",
          "value": 0
        },
        "Tile_ID": {
          "type": "int",
          "value": 887
        },
        "Tile_MainLight1": {
          "type": "byte",
          "value": 0
        },
        "Tile_MainLight2": {
          "type": "byte",
          "value": 0
        },
        "Tile_Orientation": {
          "type": "int",
          "value": 2
        },
        "Tile_SrcLight1": {
          "type": "byte",
          "value": 0
        },
        "Tile_SrcLight2": {
          "type": "byte",
          "value": 0
        }
      },
      {
        "__struct_id": 1,
        "Tile_AnimLoop1": {
          "type": "byte",
          "value": 1
        },
        "Tile_AnimLoop2": {
          "type": "byte",
          "value": 1
        },
        "Tile_AnimLoop3": {
          "type": "byte",
          "value": 1
        },
        "Tile_Height": {
          "type": "int",
          "value": 0
        },
        "Tile_ID": {
          "type": "int",
          "value": 878
        },
        "Tile_MainLight1": {
          "type": "byte",
          "value": 0
        },
        "Tile_MainLight2": {
          "type": "byte",
          "value": 0
        },
        "Tile_Orientation": {
          "type": "int",
          "value": 1
        },
        "Tile_SrcLight1": {
          "type": "byte",
          "value": 0
        },
        "Tile_SrcLight2": {
          "type": "byte",
          "value": 0
        }
      },
      {
        "__struct_id": 1,
        "Tile_AnimLoop1": {
          "type": "byte",
          "value": 1
        },
        "Tile_AnimLoop2": {
          "type": "byte",
          "value": 1
        },
        "Tile_AnimLoop3": {
          "type": "byte",
          "value": 1
        },
        "Tile_Height": {
          "type": "int",
          "value": 0
        },
        "Tile_ID": {
          "type": "int",
          "value": 355
        },
        "Tile_MainLight1": {
          "type": "byte",
          "value": 0
        },
        "Tile_MainLight2": {
          "type": "byte",
          "value": 0
        },
        "Tile_Orientation": {
          "type": "int",
          "value": 0
        },
        "Tile_SrcLight1": {
          "type": "byte",
          "value": 0
        },
        "Tile_SrcLight2": {
          "type": "byte",
          "value": 0
        }
      },
      {
        "__struct_id": 1,
        "Tile_AnimLoop1": {
          "type": "byte",
          "value": 1
        },
        "Tile_AnimLoop2": {
          "type": "byte",
          "value": 1
        },
        "Tile_AnimLoop3": {
          "type": "byte",
          "value": 1
        },
        "Tile_Height": {
          "type": "int",
          "value": 0
        },
        "Tile_ID": {
          "type": "int",
          "value": 356
        },
        "Tile_MainLight1": {
          "type": "byte",
          "value": 0
        },
        "Tile_MainLight2": {
          "type": "byte",
          "value": 0
        },
        "Tile_Orientation": {
          "type": "int",
          "value": 0
        },
        "Tile_SrcLight1": {
          "type": "byte",
          "value": 0
        },
        "Tile_SrcLight2": {
          "type": "byte",
          "value": 0
        }
      },
      {
        "__struct_id": 1,
        "Tile_AnimLoop1": {
          "type": "byte",
          "value": 1
        },
        "Tile_AnimLoop2": {
          "type": "byte",
          "value": 1
        },
        "Tile_AnimLoop3": {
          "type": "byte",
          "value": 1
        },
        "Tile_Height": {
          "type": "int",
          "value": 0
        },
        "Tile_ID": {
          "type": "int",
          "value": 9
        },
        "Tile_MainLight1": {
          "type": "byte",
          "value": 0
        },
        "Tile_MainLight2": {
          "type": "byte",
          "value": 0
        },
        "Tile_Orientation": {
          "type": "int",
          "value": 3
        },
        "Tile_SrcLight1": {
          "type": "byte",
          "value": 0
        },
        "Tile_SrcLight2": {
          "type": "byte",
          "value": 0
        }
      },
      {
        "__struct_id": 1,
        "Tile_AnimLoop1": {
          "type": "byte",
          "value": 1
        },
        "Tile_AnimLoop2": {
          "type": "byte",
          "value": 1
        },
        "Tile_AnimLoop3": {
          "type": "byte",
          "value": 1
        },
        "Tile_Height": {
          "type": "int",
          "value": 0
        },
        "Tile_ID": {
          "type": "int",
          "value": 337
        },
        "Tile_MainLight1": {
          "type": "byte",
          "value": 0
        },
        "Tile_MainLight2": {
          "type": "byte",
          "value": 0
        },
        "Tile_Orientation": {
          "type": "int",
          "value": 1
        },
        "Tile_SrcLight1": {
          "type": "byte",
          "value": 0
        },
        "Tile_SrcLight2": {
          "type": "byte",
          "value": 0
        }
      },
      {
        "__struct_id": 1,
        "Tile_AnimLoop1": {
          "type": "byte",
          "value": 1
        },
        "Tile_AnimLoop2": {
          "type": "byte",
          "value": 1
        },
        "Tile_AnimLoop3": {
          "type": "byte",
          "value": 1
        },
        "Tile_Height": {
          "type": "int",
          "value": 0
        },
        "Tile_ID": {
          "type": "int",
          "value": 909
        },
        "Tile_MainLight1": {
          "type": "byte",
          "value": 0
        },
        "Tile_MainLight2": {
          "type": "byte",
          "value": 0
        },
        "Tile_Orientation": {
          "type": "int",
          "value": 0
        },
        "Tile_SrcLight1": {
          "type": "byte",
          "value": 0
        },
        "Tile_SrcLight2": {
          "type": "byte",
          "value": 0
        }
      },
      {
        "__struct_id": 1,
        "Tile_AnimLoop1": {
          "type": "byte",
          "value": 1
        },
        "Tile_AnimLoop2": {
          "type": "byte",
          "value": 1
        },
        "Tile_AnimLoop3": {
          "type": "byte",
          "value": 1
        },
        "Tile_Height": {
          "type": "int",
          "value": 0
        },
        "Tile_ID": {
          "type": "int",
          "value": 1010
        },
        "Tile_MainLight1": {
          "type": "byte",
          "value": 0
        },
        "Tile_MainLight2": {
          "type": "byte",
          "value": 0
        },
        "Tile_Orientation": {
          "type": "int",
          "value": 1
        },
        "Tile_SrcLight1": {
          "type": "byte",
          "value": 0
        },
        "Tile_SrcLight2": {
          "type": "byte",
          "value": 0
        }
      },
      {
        "__struct_id": 1,
        "Tile_AnimLoop1": {
          "type": "byte",
          "value": 1
        },
        "Tile_AnimLoop2": {
          "type": "byte",
          "value": 1
        },
        "Tile_AnimLoop3": {
          "type": "byte",
          "value": 1
        },
        "Tile_Height": {
          "type": "int",
          "value": 0
        },
        "Tile_ID": {
          "type": "int",
          "value": 1013
        },
        "Tile_MainLight1": {
          "type": "byte",
          "value": 0
        },
        "Tile_MainLight2": {
          "type": "byte",
          "value": 0
        },
        "Tile_Orientation": {
          "type": "int",
          "value": 1
        },
        "Tile_SrcLight1": {
          "type": "byte",
          "value": 0
        },
        "Tile_SrcLight2": {
          "type": "byte",
          "value": 0
        }
      },
      {
        "__struct_id": 1,
        "Tile_AnimLoop1": {
          "type": "byte",
          "value": 1
        },
        "Tile_AnimLoop2": {
          "type": "byte",
          "value": 1
        },
        "Tile_AnimLoop3": {
          "type": "byte",
          "value": 1
        },
        "Tile_Height": {
          "type": "int",
          "value": 0
        },
        "Tile_ID": {
          "type": "int",
          "value": 1010
        },
        "Tile_MainLight1": {
          "type": "byte",
          "value": 0
        },
        "Tile_MainLight2": {
          "type": "byte",
          "value": 0
        },
        "Tile_Orientation": {
          "type": "int",
          "value": 3
        },
        "Tile_SrcLight1": {
          "type": "byte",
          "value": 0
        },
        "Tile_SrcLight2": {
          "type": "byte",
          "value": 0
        }
      },
      {
        "__struct_id": 1,
        "Tile_AnimLoop1": {
          "type": "byte",
          "value": 1
        },
        "Tile_AnimLoop2": {
          "type": "byte",
          "value": 1
        },
        "Tile_AnimLoop3": {
          "type": "byte",
          "value": 1
        },
        "Tile_Height": {
          "type": "int",
          "value": 0
        },
        "Tile_ID": {
          "type": "int",
          "value": 353
        },
        "Tile_MainLight1": {
          "type": "byte",
          "value": 0
        },
        "Tile_MainLight2": {
          "type": "byte",
          "value": 0
        },
        "Tile_Orientation": {
          "type": "int",
          "value": 0
        },
        "Tile_SrcLight1": {
          "type": "byte",
          "value": 0
        },
        "Tile_SrcLight2": {
          "type": "byte",
          "value": 0
        }
      },
      {
        "__struct_id": 1,
        "Tile_AnimLoop1": {
          "type": "byte",
          "value": 1
        },
        "Tile_AnimLoop2": {
          "type": "byte",
          "value": 1
        },
        "Tile_AnimLoop3": {
          "type": "byte",
          "value": 1
        },
        "Tile_Height": {
          "type": "int",
          "value": 0
        },
        "Tile_ID": {
          "type": "int",
          "value": 354
        },
        "Tile_MainLight1": {
          "type": "byte",
          "value": 0
        },
        "Tile_MainLight2": {
          "type": "byte",
          "value": 0
        },
        "Tile_Orientation": {
          "type": "int",
          "value": 0
        },
        "Tile_SrcLight1": {
          "type": "byte",
          "value": 0
        },
        "Tile_SrcLight2": {
          "type": "byte",
          "value": 0
        }
      },
      {
        "__struct_id": 1,
        "Tile_AnimLoop1": {
          "type": "byte",
          "value": 1
        },
        "Tile_AnimLoop2": {
          "type": "byte",
          "value": 1
        },
        "Tile_AnimLoop3": {
          "type": "byte",
          "value": 1
        },
        "Tile_Height": {
          "type": "int",
          "value": 0
        },
        "Tile_ID": {
          "type": "int",
          "value": 347
        },
        "Tile_MainLight1": {
          "type": "byte",
          "value": 0
        },
        "Tile_MainLight2": {
          "type": "byte",
          "value": 0
        },
        "Tile_Orientation": {
          "type": "int",
          "value": 0
        },
        "Tile_SrcLight1": {
          "type": "byte",
          "value": 0
        },
        "Tile_SrcLight2": {
          "type": "byte",
          "value": 0
        }
      },
      {
        "__struct_id": 1,
        "Tile_AnimLoop1": {
          "type": "byte",
          "value": 1
        },
        "Tile_AnimLoop2": {
          "type": "byte",
          "value": 1
        },
        "Tile_AnimLoop3": {
          "type": "byte",
          "value": 1
        },
        "Tile_Height": {
          "type": "int",
          "value": 0
        },
        "Tile_ID": {
          "type": "int",
          "value": 16
        },
        "Tile_MainLight1": {
          "type": "byte",
          "value": 0
        },
        "Tile_MainLight2": {
          "type": "byte",
          "value": 0
        },
        "Tile_Orientation": {
          "type": "int",
          "value": 1
        },
        "Tile_SrcLight1": {
          "type": "byte",
          "value": 0
        },
        "Tile_SrcLight2": {
          "type": "byte",
          "value": 0
        }
      },
      {
        "__struct_id": 1,
        "Tile_AnimLoop1": {
          "type": "byte",
          "value": 1
        },
        "Tile_AnimLoop2": {
          "type": "byte",
          "value": 1
        },
        "Tile_AnimLoop3": {
          "type": "byte",
          "value": 1
        },
        "Tile_Height": {
          "type": "int",
          "value": 0
        },
        "Tile_ID": {
          "type": "int",
          "value": 13
        },
        "Tile_MainLight1": {
          "type": "byte",
          "value": 0
        },
        "Tile_MainLight2": {
          "type": "byte",
          "value": 0
        },
        "Tile_Orientation": {
          "type": "int",
          "value": 0
        },
        "Tile_SrcLight1": {
          "type": "byte",
          "value": 0
        },
        "Tile_SrcLight2": {
          "type": "byte",
          "value": 0
        }
      },
      {
        "__struct_id": 1,
        "Tile_AnimLoop1": {
          "type": "byte",
          "value": 1
        },
        "Tile_AnimLoop2": {
          "type": "byte",
          "value": 1
        },
        "Tile_AnimLoop3": {
          "type": "byte",
          "value": 1
        },
        "Tile_Height": {
          "type": "int",
          "value": 0
        },
        "Tile_ID": {
          "type": "int",
          "value": 9
        },
        "Tile_MainLight1": {
          "type": "byte",
          "value": 0
        },
        "Tile_MainLight2": {
          "type": "byte",
          "value": 0
        },
        "Tile_Orientation": {
          "type": "int",
          "value": 0
        },
        "Tile_SrcLight1": {
          "type": "byte",
          "value": 0
        },
        "Tile_SrcLight2": {
          "type": "byte",
          "value": 0
        }
      },
      {
        "__struct_id": 1,
        "Tile_AnimLoop1": {
          "type": "byte",
          "value": 1
        },
        "Tile_AnimLoop2": {
          "type": "byte",
          "value": 1
        },
        "Tile_AnimLoop3": {
          "type": "byte",
          "value": 1
        },
        "Tile_Height": {
          "type": "int",
          "value": 0
        },
        "Tile_ID": {
          "type": "int",
          "value": 1215
        },
        "Tile_MainLight1": {
          "type": "byte",
          "value": 0
        },
        "Tile_MainLight2": {
          "type": "byte",
          "value": 0
        },
        "Tile_Orientation": {
          "type": "int",
          "value": 0
        },
        "Tile_SrcLight1": {
          "type": "byte",
          "value": 0
        },
        "Tile_SrcLight2": {
          "type": "byte",
          "value": 0
        }
      },
      {
        "__struct_id": 1,
        "Tile_AnimLoop1": {
          "type": "byte",
          "value": 1
        },
        "Tile_AnimLoop2": {
          "type": "byte",
          "value": 1
        },
        "Tile_AnimLoop3": {
          "type": "byte",
          "value": 1
        },
        "Tile_Height": {
          "type": "int",
          "value": 0
        },
        "Tile_ID": {
          "type": "int",
          "value": 1011
        },
        "Tile_MainLight1": {
          "type": "byte",
          "value": 0
        },
        "Tile_MainLight2": {
          "type": "byte",
          "value": 0
        },
        "Tile_Orientation": {
          "type": "int",
          "value": 2
        },
        "Tile_SrcLight1": {
          "type": "byte",
          "value": 0
        },
        "Tile_SrcLight2": {
          "type": "byte",
          "value": 0
        }
      },
      {
        "__struct_id": 1,
        "Tile_AnimLoop1": {
          "type": "byte",
          "value": 1
        },
        "Tile_AnimLoop2": {
          "type": "byte",
          "value": 1
        },
        "Tile_AnimLoop3": {
          "type": "byte",
          "value": 1
        },
        "Tile_Height": {
          "type": "int",
          "value": 0
        },
        "Tile_ID": {
          "type": "int",
          "value": 355
        },
        "Tile_MainLight1": {
          "type": "byte",
          "value": 0
        },
        "Tile_MainLight2": {
          "type": "byte",
          "value": 0
        },
        "Tile_Orientation": {
          "type": "int",
          "value": 0
        },
        "Tile_SrcLight1": {
          "type": "byte",
          "value": 0
        },
        "Tile_SrcLight2": {
          "type": "byte",
          "value": 0
        }
      },
      {
        "__struct_id": 1,
        "Tile_AnimLoop1": {
          "type": "byte",
          "value": 1
        },
        "Tile_AnimLoop2": {
          "type": "byte",
          "value": 1
        },
        "Tile_AnimLoop3": {
          "type": "byte",
          "value": 1
        },
        "Tile_Height": {
          "type": "int",
          "value": 0
        },
        "Tile_ID": {
          "type": "int",
          "value": 356
        },
        "Tile_MainLight1": {
          "type": "byte",
          "value": 0
        },
        "Tile_MainLight2": {
          "type": "byte",
          "value": 0
        },
        "Tile_Orientation": {
          "type": "int",
          "value": 0
        },
        "Tile_SrcLight1": {
          "type": "byte",
          "value": 0
        },
        "Tile_SrcLight2": {
          "type": "byte",
          "value": 0
        }
      },
      {
        "__struct_id": 1,
        "Tile_AnimLoop1": {
          "type": "byte",
          "value": 1
        },
        "Tile_AnimLoop2": {
          "type": "byte",
          "value": 1
        },
        "Tile_AnimLoop3": {
          "type": "byte",
          "value": 1
        },
        "Tile_Height": {
          "type": "int",
          "value": 0
        },
        "Tile_ID": {
          "type": "int",
          "value": 17
        },
        "Tile_MainLight1": {
          "type": "byte",
          "value": 0
        },
        "Tile_MainLight2": {
          "type": "byte",
          "value": 0
        },
        "Tile_Orientation": {
          "type": "int",
          "value": 3
        },
        "Tile_SrcLight1": {
          "type": "byte",
          "value": 0
        },
        "Tile_SrcLight2": {
          "type": "byte",
          "value": 0
        }
      },
      {
        "__struct_id": 1,
        "Tile_AnimLoop1": {
          "type": "byte",
          "value": 1
        },
        "Tile_AnimLoop2": {
          "type": "byte",
          "value": 1
        },
        "Tile_AnimLoop3": {
          "type": "byte",
          "value": 1
        },
        "Tile_Height": {
          "type": "int",
          "value": 0
        },
        "Tile_ID": {
          "type": "int",
          "value": 13
        },
        "Tile_MainLight1": {
          "type": "byte",
          "value": 0
        },
        "Tile_MainLight2": {
          "type": "byte",
          "value": 0
        },
        "Tile_Orientation": {
          "type": "int",
          "value": 2
        },
        "Tile_SrcLight1": {
          "type": "byte",
          "value": 0
        },
        "Tile_SrcLight2": {
          "type": "byte",
          "value": 0
        }
      },
      {
        "__struct_id": 1,
        "Tile_AnimLoop1": {
          "type": "byte",
          "value": 1
        },
        "Tile_AnimLoop2": {
          "type": "byte",
          "value": 1
        },
        "Tile_AnimLoop3": {
          "type": "byte",
          "value": 1
        },
        "Tile_Height": {
          "type": "int",
          "value": 0
        },
        "Tile_ID": {
          "type": "int",
          "value": 1020
        },
        "Tile_MainLight1": {
          "type": "byte",
          "value": 0
        },
        "Tile_MainLight2": {
          "type": "byte",
          "value": 0
        },
        "Tile_Orientation": {
          "type": "int",
          "value": 3
        },
        "Tile_SrcLight1": {
          "type": "byte",
          "value": 0
        },
        "Tile_SrcLight2": {
          "type": "byte",
          "value": 0
        }
      },
      {
        "__struct_id": 1,
        "Tile_AnimLoop1": {
          "type": "byte",
          "value": 1
        },
        "Tile_AnimLoop2": {
          "type": "byte",
          "value": 1
        },
        "Tile_AnimLoop3": {
          "type": "byte",
          "value": 1
        },
        "Tile_Height": {
          "type": "int",
          "value": 0
        },
        "Tile_ID": {
          "type": "int",
          "value": 1016
        },
        "Tile_MainLight1": {
          "type": "byte",
          "value": 0
        },
        "Tile_MainLight2": {
          "type": "byte",
          "value": 0
        },
        "Tile_Orientation": {
          "type": "int",
          "value": 3
        },
        "Tile_SrcLight1": {
          "type": "byte",
          "value": 0
        },
        "Tile_SrcLight2": {
          "type": "byte",
          "value": 0
        }
      },
      {
        "__struct_id": 1,
        "Tile_AnimLoop1": {
          "type": "byte",
          "value": 1
        },
        "Tile_AnimLoop2": {
          "type": "byte",
          "value": 1
        },
        "Tile_AnimLoop3": {
          "type": "byte",
          "value": 1
        },
        "Tile_Height": {
          "type": "int",
          "value": 0
        },
        "Tile_ID": {
          "type": "int",
          "value": 1012
        },
        "Tile_MainLight1": {
          "type": "byte",
          "value": 0
        },
        "Tile_MainLight2": {
          "type": "byte",
          "value": 0
        },
        "Tile_Orientation": {
          "type": "int",
          "value": 3
        },
        "Tile_SrcLight1": {
          "type": "byte",
          "value": 0
        },
        "Tile_SrcLight2": {
          "type": "byte",
          "value": 0
        }
      },
      {
        "__struct_id": 1,
        "Tile_AnimLoop1": {
          "type": "byte",
          "value": 1
        },
        "Tile_AnimLoop2": {
          "type": "byte",
          "value": 1
        },
        "Tile_AnimLoop3": {
          "type": "byte",
          "value": 1
        },
        "Tile_Height": {
          "type": "int",
          "value": 0
        },
        "Tile_ID": {
          "type": "int",
          "value": 1019
        },
        "Tile_MainLight1": {
          "type": "byte",
          "value": 0
        },
        "Tile_MainLight2": {
          "type": "byte",
          "value": 0
        },
        "Tile_Orientation": {
          "type": "int",
          "value": 1
        },
        "Tile_SrcLight1": {
          "type": "byte",
          "value": 0
        },
        "Tile_SrcLight2": {
          "type": "byte",
          "value": 0
        }
      },
      {
        "__struct_id": 1,
        "Tile_AnimLoop1": {
          "type": "byte",
          "value": 1
        },
        "Tile_AnimLoop2": {
          "type": "byte",
          "value": 1
        },
        "Tile_AnimLoop3": {
          "type": "byte",
          "value": 1
        },
        "Tile_Height": {
          "type": "int",
          "value": 0
        },
        "Tile_ID": {
          "type": "int",
          "value": 1011
        },
        "Tile_MainLight1": {
          "type": "byte",
          "value": 0
        },
        "Tile_MainLight2": {
          "type": "byte",
          "value": 0
        },
        "Tile_Orientation": {
          "type": "int",
          "value": 3
        },
        "Tile_SrcLight1": {
          "type": "byte",
          "value": 0
        },
        "Tile_SrcLight2": {
          "type": "byte",
          "value": 0
        }
      },
      {
        "__struct_id": 1,
        "Tile_AnimLoop1": {
          "type": "byte",
          "value": 1
        },
        "Tile_AnimLoop2": {
          "type": "byte",
          "value": 1
        },
        "Tile_AnimLoop3": {
          "type": "byte",
          "value": 1
        },
        "Tile_Height": {
          "type": "int",
          "value": 0
        },
        "Tile_ID": {
          "type": "int",
          "value": 1021
        },
        "Tile_MainLight1": {
          "type": "byte",
          "value": 0
        },
        "Tile_MainLight2": {
          "type": "byte",
          "value": 0
        },
        "Tile_Orientation": {
          "type": "int",
          "value": 1
        },
        "Tile_SrcLight1": {
          "type": "byte",
          "value": 0
        },
        "Tile_SrcLight2": {
          "type": "byte",
          "value": 0
        }
      },
      {
        "__struct_id": 1,
        "Tile_AnimLoop1": {
          "type": "byte",
          "value": 1
        },
        "Tile_AnimLoop2": {
          "type": "byte",
          "value": 1
        },
        "Tile_AnimLoop3": {
          "type": "byte",
          "value": 1
        },
        "Tile_Height": {
          "type": "int",
          "value": 0
        },
        "Tile_ID": {
          "type": "int",
          "value": 8
        },
        "Tile_MainLight1": {
          "type": "byte",
          "value": 0
        },
        "Tile_MainLight2": {
          "type": "byte",
          "value": 0
        },
        "Tile_Orientation": {
          "type": "int",
          "value": 1
        },
        "Tile_SrcLight1": {
          "type": "byte",
          "value": 0
        },
        "Tile_SrcLight2": {
          "type": "byte",
          "value": 0
        }
      },
      {
        "__struct_id": 1,
        "Tile_AnimLoop1": {
          "type": "byte",
          "value": 1
        },
        "Tile_AnimLoop2": {
          "type": "byte",
          "value": 1
        },
        "Tile_AnimLoop3": {
          "type": "byte",
          "value": 1
        },
        "Tile_Height": {
          "type": "int",
          "value": 0
        },
        "Tile_ID": {
          "type": "int",
          "value": 910
        },
        "Tile_MainLight1": {
          "type": "byte",
          "value": 0
        },
        "Tile_MainLight2": {
          "type": "byte",
          "value": 0
        },
        "Tile_Orientation": {
          "type": "int",
          "value": 0
        },
        "Tile_SrcLight1": {
          "type": "byte",
          "value": 0
        },
        "Tile_SrcLight2": {
          "type": "byte",
          "value": 0
        }
      },
      {
        "__struct_id": 1,
        "Tile_AnimLoop1": {
          "type": "byte",
          "value": 1
        },
        "Tile_AnimLoop2": {
          "type": "byte",
          "value": 1
        },
        "Tile_AnimLoop3": {
          "type": "byte",
          "value": 1
        },
        "Tile_Height": {
          "type": "int",
          "value": 0
        },
        "Tile_ID": {
          "type": "int",
          "value": 911
        },
        "Tile_MainLight1": {
          "type": "byte",
          "value": 0
        },
        "Tile_MainLight2": {
          "type": "byte",
          "value": 0
        },
        "Tile_Orientation": {
          "type": "int",
          "value": 0
        },
        "Tile_SrcLight1": {
          "type": "byte",
          "value": 0
        },
        "Tile_SrcLight2": {
          "type": "byte",
          "value": 0
        }
      },
      {
        "__struct_id": 1,
        "Tile_AnimLoop1": {
          "type": "byte",
          "value": 1
        },
        "Tile_AnimLoop2": {
          "type": "byte",
          "value": 1
        },
        "Tile_AnimLoop3": {
          "type": "byte",
          "value": 1
        },
        "Tile_Height": {
          "type": "int",
          "value": 0
        },
        "Tile_ID": {
          "type": "int",
          "value": 846
        },
        "Tile_MainLight1": {
          "type": "byte",
          "value": 0
        },
        "Tile_MainLight2": {
          "type": "byte",
          "value": 0
        },
        "Tile_Orientation": {
          "type": "int",
          "value": 1
        },
        "Tile_SrcLight1": {
          "type": "byte",
          "value": 0
        },
        "Tile_SrcLight2": {
          "type": "byte",
          "value": 0
        }
      },
      {
        "__struct_id": 1,
        "Tile_AnimLoop1": {
          "type": "byte",
          "value": 1
        },
        "Tile_AnimLoop2": {
          "type": "byte",
          "value": 1
        },
        "Tile_AnimLoop3": {
          "type": "byte",
          "value": 1
        },
        "Tile_Height": {
          "type": "int",
          "value": 0
        },
        "Tile_ID": {
          "type": "int",
          "value": 845
        },
        "Tile_MainLight1": {
          "type": "byte",
          "value": 0
        },
        "Tile_MainLight2": {
          "type": "byte",
          "value": 0
        },
        "Tile_Orientation": {
          "type": "int",
          "value": 1
        },
        "Tile_SrcLight1": {
          "type": "byte",
          "value": 0
        },
        "Tile_SrcLight2": {
          "type": "byte",
          "value": 0
        }
      },
      {
        "__struct_id": 1,
        "Tile_AnimLoop1": {
          "type": "byte",
          "value": 1
        },
        "Tile_AnimLoop2": {
          "type": "byte",
          "value": 1
        },
        "Tile_AnimLoop3": {
          "type": "byte",
          "value": 1
        },
        "Tile_Height": {
          "type": "int",
          "value": 0
        },
        "Tile_ID": {
          "type": "int",
          "value": 1016
        },
        "Tile_MainLight1": {
          "type": "byte",
          "value": 0
        },
        "Tile_MainLight2": {
          "type": "byte",
          "value": 0
        },
        "Tile_Orientation": {
          "type": "int",
          "value": 0
        },
        "Tile_SrcLight1": {
          "type": "byte",
          "value": 0
        },
        "Tile_SrcLight2": {
          "type": "byte",
          "value": 0
        }
      },
      {
        "__struct_id": 1,
        "Tile_AnimLoop1": {
          "type": "byte",
          "value": 1
        },
        "Tile_AnimLoop2": {
          "type": "byte",
          "value": 1
        },
        "Tile_AnimLoop3": {
          "type": "byte",
          "value": 1
        },
        "Tile_Height": {
          "type": "int",
          "value": 0
        },
        "Tile_ID": {
          "type": "int",
          "value": 359
        },
        "Tile_MainLight1": {
          "type": "byte",
          "value": 0
        },
        "Tile_MainLight2": {
          "type": "byte",
          "value": 0
        },
        "Tile_Orientation": {
          "type": "int",
          "value": 0
        },
        "Tile_SrcLight1": {
          "type": "byte",
          "value": 0
        },
        "Tile_SrcLight2": {
          "type": "byte",
          "value": 0
        }
      },
      {
        "__struct_id": 1,
        "Tile_AnimLoop1": {
          "type": "byte",
          "value": 1
        },
        "Tile_AnimLoop2": {
          "type": "byte",
          "value": 1
        },
        "Tile_AnimLoop3": {
          "type": "byte",
          "value": 1
        },
        "Tile_Height": {
          "type": "int",
          "value": 0
        },
        "Tile_ID": {
          "type": "int",
          "value": 908
        },
        "Tile_MainLight1": {
          "type": "byte",
          "value": 0
        },
        "Tile_MainLight2": {
          "type": "byte",
          "value": 0
        },
        "Tile_Orientation": {
          "type": "int",
          "value": 2
        },
        "Tile_SrcLight1": {
          "type": "byte",
          "value": 0
        },
        "Tile_SrcLight2": {
          "type": "byte",
          "value": 0
        }
      },
      {
        "__struct_id": 1,
        "Tile_AnimLoop1": {
          "type": "byte",
          "value": 1
        },
        "Tile_AnimLoop2": {
          "type": "byte",
          "value": 1
        },
        "Tile_AnimLoop3": {
          "type": "byte",
          "value": 1
        },
        "Tile_Height": {
          "type": "int",
          "value": 0
        },
        "Tile_ID": {
          "type": "int",
          "value": 907
        },
        "Tile_MainLight1": {
          "type": "byte",
          "value": 0
        },
        "Tile_MainLight2": {
          "type": "byte",
          "value": 0
        },
        "Tile_Orientation": {
          "type": "int",
          "value": 2
        },
        "Tile_SrcLight1": {
          "type": "byte",
          "value": 0
        },
        "Tile_SrcLight2": {
          "type": "byte",
          "value": 0
        }
      },
      {
        "__struct_id": 1,
        "Tile_AnimLoop1": {
          "type": "byte",
          "value": 1
        },
        "Tile_AnimLoop2": {
          "type": "byte",
          "value": 1
        },
        "Tile_AnimLoop3": {
          "type": "byte",
          "value": 1
        },
        "Tile_Height": {
          "type": "int",
          "value": 0
        },
        "Tile_ID": {
          "type": "int",
          "value": 24
        },
        "Tile_MainLight1": {
          "type": "byte",
          "value": 0
        },
        "Tile_MainLight2": {
          "type": "byte",
          "value": 0
        },
        "Tile_Orientation": {
          "type": "int",
          "value": 1
        },
        "Tile_SrcLight1": {
          "type": "byte",
          "value": 0
        },
        "Tile_SrcLight2": {
          "type": "byte",
          "value": 0
        }
      },
      {
        "__struct_id": 1,
        "Tile_AnimLoop1": {
          "type": "byte",
          "value": 1
        },
        "Tile_AnimLoop2": {
          "type": "byte",
          "value": 1
        },
        "Tile_AnimLoop3": {
          "type": "byte",
          "value": 1
        },
        "Tile_Height": {
          "type": "int",
          "value": 0
        },
        "Tile_ID": {
          "type": "int",
          "value": 23
        },
        "Tile_MainLight1": {
          "type": "byte",
          "value": 0
        },
        "Tile_MainLight2": {
          "type": "byte",
          "value": 0
        },
        "Tile_Orientation": {
          "type": "int",
          "value": 1
        },
        "Tile_SrcLight1": {
          "type": "byte",
          "value": 0
        },
        "Tile_SrcLight2": {
          "type": "byte",
          "value": 0
        }
      },
      {
        "__struct_id": 1,
        "Tile_AnimLoop1": {
          "type": "byte",
          "value": 1
        },
        "Tile_AnimLoop2": {
          "type": "byte",
          "value": 1
        },
        "Tile_AnimLoop3": {
          "type": "byte",
          "value": 1
        },
        "Tile_Height": {
          "type": "int",
          "value": 0
        },
        "Tile_ID": {
          "type": "int",
          "value": 23
        },
        "Tile_MainLight1": {
          "type": "byte",
          "value": 0
        },
        "Tile_MainLight2": {
          "type": "byte",
          "value": 0
        },
        "Tile_Orientation": {
          "type": "int",
          "value": 1
        },
        "Tile_SrcLight1": {
          "type": "byte",
          "value": 0
        },
        "Tile_SrcLight2": {
          "type": "byte",
          "value": 0
        }
      },
      {
        "__struct_id": 1,
        "Tile_AnimLoop1": {
          "type": "byte",
          "value": 1
        },
        "Tile_AnimLoop2": {
          "type": "byte",
          "value": 1
        },
        "Tile_AnimLoop3": {
          "type": "byte",
          "value": 1
        },
        "Tile_Height": {
          "type": "int",
          "value": 0
        },
        "Tile_ID": {
          "type": "int",
          "value": 27
        },
        "Tile_MainLight1": {
          "type": "byte",
          "value": 0
        },
        "Tile_MainLight2": {
          "type": "byte",
          "value": 0
        },
        "Tile_Orientation": {
          "type": "int",
          "value": 0
        },
        "Tile_SrcLight1": {
          "type": "byte",
          "value": 0
        },
        "Tile_SrcLight2": {
          "type": "byte",
          "value": 0
        }
      },
      {
        "__struct_id": 1,
        "Tile_AnimLoop1": {
          "type": "byte",
          "value": 1
        },
        "Tile_AnimLoop2": {
          "type": "byte",
          "value": 1
        },
        "Tile_AnimLoop3": {
          "type": "byte",
          "value": 1
        },
        "Tile_Height": {
          "type": "int",
          "value": 0
        },
        "Tile_ID": {
          "type": "int",
          "value": 1015
        },
        "Tile_MainLight1": {
          "type": "byte",
          "value": 0
        },
        "Tile_MainLight2": {
          "type": "byte",
          "value": 0
        },
        "Tile_Orientation": {
          "type": "int",
          "value": 2
        },
        "Tile_SrcLight1": {
          "type": "byte",
          "value": 0
        },
        "Tile_SrcLight2": {
          "type": "byte",
          "value": 0
        }
      },
      {
        "__struct_id": 1,
        "Tile_AnimLoop1": {
          "type": "byte",
          "value": 1
        },
        "Tile_AnimLoop2": {
          "type": "byte",
          "value": 1
        },
        "Tile_AnimLoop3": {
          "type": "byte",
          "value": 1
        },
        "Tile_Height": {
          "type": "int",
          "value": 0
        },
        "Tile_ID": {
          "type": "int",
          "value": 878
        },
        "Tile_MainLight1": {
          "type": "byte",
          "value": 0
        },
        "Tile_MainLight2": {
          "type": "byte",
          "value": 0
        },
        "Tile_Orientation": {
          "type": "int",
          "value": 0
        },
        "Tile_SrcLight1": {
          "type": "byte",
          "value": 0
        },
        "Tile_SrcLight2": {
          "type": "byte",
          "value": 0
        }
      },
      {
        "__struct_id": 1,
        "Tile_AnimLoop1": {
          "type": "byte",
          "value": 1
        },
        "Tile_AnimLoop2": {
          "type": "byte",
          "value": 1
        },
        "Tile_AnimLoop3": {
          "type": "byte",
          "value": 1
        },
        "Tile_Height": {
          "type": "int",
          "value": 0
        },
        "Tile_ID": {
          "type": "int",
          "value": 906
        },
        "Tile_MainLight1": {
          "type": "byte",
          "value": 0
        },
        "Tile_MainLight2": {
          "type": "byte",
          "value": 0
        },
        "Tile_Orientation": {
          "type": "int",
          "value": 2
        },
        "Tile_SrcLight1": {
          "type": "byte",
          "value": 0
        },
        "Tile_SrcLight2": {
          "type": "byte",
          "value": 0
        }
      },
      {
        "__struct_id": 1,
        "Tile_AnimLoop1": {
          "type": "byte",
          "value": 1
        },
        "Tile_AnimLoop2": {
          "type": "byte",
          "value": 1
        },
        "Tile_AnimLoop3": {
          "type": "byte",
          "value": 1
        },
        "Tile_Height": {
          "type": "int",
          "value": 0
        },
        "Tile_ID": {
          "type": "int",
          "value": 905
        },
        "Tile_MainLight1": {
          "type": "byte",
          "value": 0
        },
        "Tile_MainLight2": {
          "type": "byte",
          "value": 0
        },
        "Tile_Orientation": {
          "type": "int",
          "value": 2
        },
        "Tile_SrcLight1": {
          "type": "byte",
          "value": 0
        },
        "Tile_SrcLight2": {
          "type": "byte",
          "value": 0
        }
      }
    ]
  },
  "Tileset": {
    "type": "resref",
    "value": "trm02"
  },
  "Width": {
    "type": "int",
    "value": 8
  },
  "WindPower": {
    "type": "int",
    "value": 0
  }
}
