{
  "__data_type": "UTM ",
  "BlackMarket": {
    "type": "byte",
    "value": 0
  },
  "BM_MarkDown": {
    "type": "int",
    "value": 25
  },
  "Comment": {
    "type": "cexostring",
    "value": ""
  },
  "ID": {
    "type": "byte",
    "value": 0
  },
  "IdentifyPrice": {
    "type": "int",
    "value": -1
  },
  "LocName": {
    "type": "cexolocstring",
    "value": {
      "0": "sto_wizscroll9"
    }
  },
  "MarkDown": {
    "type": "int",
    "value": 100
  },
  "MarkUp": {
    "type": "int",
    "value": 100
  },
  "MaxBuyPrice": {
    "type": "int",
    "value": -1
  },
  "OnOpenStore": {
    "type": "resref",
    "value": "sho_wizscrollsop"
  },
  "OnStoreClosed": {
    "type": "resref",
    "value": "sho_wizscrollscl"
  },
  "ResRef": {
    "type": "resref",
    "value": "sto_wizscroll9"
  },
  "StoreGold": {
    "type": "int",
    "value": -1
  },
  "StoreList": {
    "type": "list",
    "value": [
      {
        "__struct_id": 0
      },
      {
        "__struct_id": 4
      },
      {
        "__struct_id": 2,
        "ItemList": {
          "type": "list",
          "value": [
            {
              "__struct_id": 0,
              "InventoryRes": {
                "type": "resref",
                "value": "x1_it_sparscr901"
              },
              "Repos_PosX": {
                "type": "word",
                "value": 0
              },
              "Repos_Posy": {
                "type": "word",
                "value": 0
              }
            },
            {
              "__struct_id": 1,
              "InventoryRes": {
                "type": "resref",
                "value": "x2_it_sparscr901"
              },
              "Repos_PosX": {
                "type": "word",
                "value": 1
              },
              "Repos_Posy": {
                "type": "word",
                "value": 0
              }
            },
            {
              "__struct_id": 2,
              "InventoryRes": {
                "type": "resref",
                "value": "nw_it_sparscr905"
              },
              "Repos_PosX": {
                "type": "word",
                "value": 2
              },
              "Repos_Posy": {
                "type": "word",
                "value": 0
              }
            },
            {
              "__struct_id": 3,
              "InventoryRes": {
                "type": "resref",
                "value": "nw_it_sparscr908"
              },
              "Repos_PosX": {
                "type": "word",
                "value": 3
              },
              "Repos_Posy": {
                "type": "word",
                "value": 0
              }
            },
            {
              "__struct_id": 4,
              "InventoryRes": {
                "type": "resref",
                "value": "nw_it_sparscr902"
              },
              "Repos_PosX": {
                "type": "word",
                "value": 4
              },
              "Repos_Posy": {
                "type": "word",
                "value": 0
              }
            },
            {
              "__struct_id": 5,
              "InventoryRes": {
                "type": "resref",
                "value": "nw_it_sparscr912"
              },
              "Repos_PosX": {
                "type": "word",
                "value": 5
              },
              "Repos_Posy": {
                "type": "word",
                "value": 0
              }
            },
            {
              "__struct_id": 6,
              "InventoryRes": {
                "type": "resref",
                "value": "nw_it_sparscr906"
              },
              "Repos_PosX": {
                "type": "word",
                "value": 6
              },
              "Repos_Posy": {
                "type": "word",
                "value": 0
              }
            },
            {
              "__struct_id": 7,
              "InventoryRes": {
                "type": "resref",
                "value": "nw_it_sparscr901"
              },
              "Repos_PosX": {
                "type": "word",
                "value": 7
              },
              "Repos_Posy": {
                "type": "word",
                "value": 0
              }
            },
            {
              "__struct_id": 8,
              "InventoryRes": {
                "type": "resref",
                "value": "nw_it_sparscr903"
              },
              "Repos_PosX": {
                "type": "word",
                "value": 8
              },
              "Repos_Posy": {
                "type": "word",
                "value": 0
              }
            },
            {
              "__struct_id": 9,
              "InventoryRes": {
                "type": "resref",
                "value": "nw_it_sparscr910"
              },
              "Repos_PosX": {
                "type": "word",
                "value": 9
              },
              "Repos_Posy": {
                "type": "word",
                "value": 0
              }
            },
            {
              "__struct_id": 10,
              "InventoryRes": {
                "type": "resref",
                "value": "nw_it_sparscr904"
              },
              "Repos_PosX": {
                "type": "word",
                "value": 0
              },
              "Repos_Posy": {
                "type": "word",
                "value": 1
              }
            },
            {
              "__struct_id": 11,
              "InventoryRes": {
                "type": "resref",
                "value": "nw_it_sparscr911"
              },
              "Repos_PosX": {
                "type": "word",
                "value": 1
              },
              "Repos_Posy": {
                "type": "word",
                "value": 1
              }
            },
            {
              "__struct_id": 12,
              "InventoryRes": {
                "type": "resref",
                "value": "nw_it_sparscr909"
              },
              "Repos_PosX": {
                "type": "word",
                "value": 2
              },
              "Repos_Posy": {
                "type": "word",
                "value": 1
              }
            },
            {
              "__struct_id": 13,
              "InventoryRes": {
                "type": "resref",
                "value": "nw_it_sparscr907"
              },
              "Repos_PosX": {
                "type": "word",
                "value": 3
              },
              "Repos_Posy": {
                "type": "word",
                "value": 1
              }
            }
          ]
        }
      },
      {
        "__struct_id": 3
      },
      {
        "__struct_id": 1
      }
    ]
  },
  "Tag": {
    "type": "cexostring",
    "value": "sto_wizscroll9"
  },
  "WillNotBuy": {
    "type": "list",
    "value": [
      {
        "__struct_id": 97869,
        "BaseItem": {
          "type": "int",
          "value": 75
        }
      }
    ]
  },
  "WillOnlyBuy": {
    "type": "list",
    "value": []
  }
}
