{
  "__data_type": "UTI ",
  "AddCost": {
    "type": "dword",
    "value": 0
  },
  "BaseItem": {
    "type": "int",
    "value": 29
  },
  "Charges": {
    "type": "byte",
    "value": 0
  },
  "Comment": {
    "type": "cexostring",
    "value": ""
  },
  "Cost": {
    "type": "dword",
    "value": 0
  },
  "Cursed": {
    "type": "byte",
    "value": 0
  },
  "DescIdentified": {
    "type": "cexolocstring",
    "value": {
      "0": "These letters are probably important to the recipient from whom they were stolen. Why would bandits steal love letters of all things?",
      "10": "Te listy s¹ prawdopodobnie wa¿ne dla w³aœciciela, któremu je skradziono. Dlaczego bandyci kradn¹ listy mi³osne?"
    }
  },
  "Description": {
    "type": "cexolocstring",
    "value": {}
  },
  "Identified": {
    "type": "byte",
    "value": 1
  },
  "LocalizedName": {
    "type": "cexolocstring",
    "value": {
      "0": "Love letters",
      "10": "Listy mi³osne"
    }
  },
  "ModelPart1": {
    "type": "byte",
    "value": 61
  },
  "PaletteID": {
    "type": "byte",
    "value": 54
  },
  "Plot": {
    "type": "byte",
    "value": 1
  },
  "PropertiesList": {
    "type": "list",
    "value": []
  },
  "StackSize": {
    "type": "word",
    "value": 1
  },
  "Stolen": {
    "type": "byte",
    "value": 0
  },
  "Tag": {
    "type": "cexostring",
    "value": "it_loveletters"
  },
  "TemplateResRef": {
    "type": "resref",
    "value": "it_loveletters"
  }
}
