{
  "__data_type": "GIC ",
  "Creature List": {
    "type": "list",
    "value": []
  },
  "Door List": {
    "type": "list",
    "value": []
  },
  "Encounter List": {
    "type": "list",
    "value": []
  },
  "List": {
    "type": "list",
    "value": []
  },
  "Placeable List": {
    "type": "list",
    "value": [
      {
        "__struct_id": 9,
        "Comment": {
          "type": "cexostring",
          "value": "Battering Ram"
        }
      },
      {
        "__struct_id": 9,
        "Comment": {
          "type": "cexostring",
          "value": "Battering Ram"
        }
      },
      {
        "__struct_id": 9,
        "Comment": {
          "type": "cexostring",
          "value": "Battering Ram"
        }
      },
      {
        "__struct_id": 9,
        "Comment": {
          "type": "cexostring",
          "value": "Battering Ram"
        }
      },
      {
        "__struct_id": 9,
        "Comment": {
          "type": "cexostring",
          "value": "Battering Ram"
        }
      },
      {
        "__struct_id": 9,
        "Comment": {
          "type": "cexostring",
          "value": "Battering Ram"
        }
      },
      {
        "__struct_id": 9,
        "Comment": {
          "type": "cexostring",
          "value": "Battering Ram"
        }
      },
      {
        "__struct_id": 9,
        "Comment": {
          "type": "cexostring",
          "value": "Battering Ram"
        }
      },
      {
        "__struct_id": 9,
        "Comment": {
          "type": "cexostring",
          "value": "Battering Ram"
        }
      },
      {
        "__struct_id": 9,
        "Comment": {
          "type": "cexostring",
          "value": "Battering Ram"
        }
      },
      {
        "__struct_id": 9,
        "Comment": {
          "type": "cexostring",
          "value": "Battering Ram"
        }
      },
      {
        "__struct_id": 9,
        "Comment": {
          "type": "cexostring",
          "value": "Impaling Spear w/ Human Corpse"
        }
      },
      {
        "__struct_id": 9,
        "Comment": {
          "type": "cexostring",
          "value": "Impaling Spear w/ Human Corpse"
        }
      },
      {
        "__struct_id": 9,
        "Comment": {
          "type": "cexostring",
          "value": "Impaling Spear w/ Human Head"
        }
      },
      {
        "__struct_id": 9,
        "Comment": {
          "type": "cexostring",
          "value": ""
        }
      },
      {
        "__struct_id": 9,
        "Comment": {
          "type": "cexostring",
          "value": "Impaling Spear w/ Human Corpse"
        }
      },
      {
        "__struct_id": 9,
        "Comment": {
          "type": "cexostring",
          "value": "Spear / Sword-filled Corpse"
        }
      },
      {
        "__struct_id": 9,
        "Comment": {
          "type": "cexostring",
          "value": "Spear / Sword-filled Corpse"
        }
      },
      {
        "__struct_id": 9,
        "Comment": {
          "type": "cexostring",
          "value": "Weathering / Scorch Mark"
        }
      },
      {
        "__struct_id": 9,
        "Comment": {
          "type": "cexostring",
          "value": "Rubble (Battlefield)"
        }
      },
      {
        "__struct_id": 9,
        "Comment": {
          "type": "cexostring",
          "value": "Campfire - with Spit"
        }
      },
      {
        "__struct_id": 9,
        "Comment": {
          "type": "cexostring",
          "value": "Sphinx Statue"
        }
      },
      {
        "__struct_id": 9,
        "Comment": {
          "type": "cexostring",
          "value": "Sphinx Statue"
        }
      },
      {
        "__struct_id": 9,
        "Comment": {
          "type": "cexostring",
          "value": "Full Wagon"
        }
      },
      {
        "__struct_id": 9,
        "Comment": {
          "type": "cexostring",
          "value": "Water Trough"
        }
      },
      {
        "__struct_id": 9,
        "Comment": {
          "type": "cexostring",
          "value": ""
        }
      },
      {
        "__struct_id": 9,
        "Comment": {
          "type": "cexostring",
          "value": "Bolts of Cloth"
        }
      },
      {
        "__struct_id": 9,
        "Comment": {
          "type": "cexostring",
          "value": "Sacks of Flour, Grain, etc."
        }
      },
      {
        "__struct_id": 9,
        "Comment": {
          "type": "cexostring",
          "value": "Shield Rack"
        }
      },
      {
        "__struct_id": 9,
        "Comment": {
          "type": "cexostring",
          "value": "Sphinx Statue"
        }
      },
      {
        "__struct_id": 9,
        "Comment": {
          "type": "cexostring",
          "value": ""
        }
      },
      {
        "__struct_id": 9,
        "Comment": {
          "type": "cexostring",
          "value": "Combat Dummy"
        }
      }
    ]
  },
  "SoundList": {
    "type": "list",
    "value": [
      {
        "__struct_id": 6,
        "Comment": {
          "type": "cexostring",
          "value": ""
        },
        "PlayInToolset": {
          "type": "byte",
          "value": 1
        }
      }
    ]
  },
  "StoreList": {
    "type": "list",
    "value": []
  },
  "TriggerList": {
    "type": "list",
    "value": [
      {
        "__struct_id": 1,
        "Comment": {
          "type": "cexostring",
          "value": ""
        }
      },
      {
        "__struct_id": 1,
        "Comment": {
          "type": "cexostring",
          "value": ""
        }
      },
      {
        "__struct_id": 1,
        "Comment": {
          "type": "cexostring",
          "value": ""
        }
      },
      {
        "__struct_id": 1,
        "Comment": {
          "type": "cexostring",
          "value": ""
        }
      }
    ]
  },
  "WaypointList": {
    "type": "list",
    "value": [
      {
        "__struct_id": 5,
        "Comment": {
          "type": "cexostring",
          "value": ""
        }
      },
      {
        "__struct_id": 5,
        "Comment": {
          "type": "cexostring",
          "value": "This is the default waypoint you may place to set a patrol path for a creature or NPC.\r\n1. Create the creature and either use its current Tag or fill in a new one.\r\n2. Place or make sure the WalkWayPoints() is within the body of the On Spawn script for the creature.\r\n3. Place a series of waypoints along the route you wish the creature to walk.\r\n4. Select all of the newly created waypoints and right click. Choose the Create Set option.\r\n5. The waypoint set will have a set name of \"WP_\" + NPC Tag. Thus if an NPC with the Tag \"Guard\" will have a waypoint set called \"WP_Guard\". Note that Tags are case sensitive."
        }
      },
      {
        "__struct_id": 5,
        "Comment": {
          "type": "cexostring",
          "value": "This is the default waypoint you may place to set a patrol path for a creature or NPC.\r\n1. Create the creature and either use its current Tag or fill in a new one.\r\n2. Place or make sure the WalkWayPoints() is within the body of the On Spawn script for the creature.\r\n3. Place a series of waypoints along the route you wish the creature to walk.\r\n4. Select all of the newly created waypoints and right click. Choose the Create Set option.\r\n5. The waypoint set will have a set name of \"WP_\" + NPC Tag. Thus if an NPC with the Tag \"Guard\" will have a waypoint set called \"WP_Guard\". Note that Tags are case sensitive."
        }
      },
      {
        "__struct_id": 5,
        "Comment": {
          "type": "cexostring",
          "value": "This is the default waypoint you may place to set a patrol path for a creature or NPC.\r\n1. Create the creature and either use its current Tag or fill in a new one.\r\n2. Place or make sure the WalkWayPoints() is within the body of the On Spawn script for the creature.\r\n3. Place a series of waypoints along the route you wish the creature to walk.\r\n4. Select all of the newly created waypoints and right click. Choose the Create Set option.\r\n5. The waypoint set will have a set name of \"WP_\" + NPC Tag. Thus if an NPC with the Tag \"Guard\" will have a waypoint set called \"WP_Guard\". Note that Tags are case sensitive."
        }
      },
      {
        "__struct_id": 5,
        "Comment": {
          "type": "cexostring",
          "value": "This is the default waypoint you may place to set a patrol path for a creature or NPC.\r\n1. Create the creature and either use its current Tag or fill in a new one.\r\n2. Place or make sure the WalkWayPoints() is within the body of the On Spawn script for the creature.\r\n3. Place a series of waypoints along the route you wish the creature to walk.\r\n4. Select all of the newly created waypoints and right click. Choose the Create Set option.\r\n5. The waypoint set will have a set name of \"WP_\" + NPC Tag. Thus if an NPC with the Tag \"Guard\" will have a waypoint set called \"WP_Guard\". Note that Tags are case sensitive."
        }
      },
      {
        "__struct_id": 5,
        "Comment": {
          "type": "cexostring",
          "value": "This is the default waypoint you may place to set a patrol path for a creature or NPC.\r\n1. Create the creature and either use its current Tag or fill in a new one.\r\n2. Place or make sure the WalkWayPoints() is within the body of the On Spawn script for the creature.\r\n3. Place a series of waypoints along the route you wish the creature to walk.\r\n4. Select all of the newly created waypoints and right click. Choose the Create Set option.\r\n5. The waypoint set will have a set name of \"WP_\" + NPC Tag. Thus if an NPC with the Tag \"Guard\" will have a waypoint set called \"WP_Guard\". Note that Tags are case sensitive."
        }
      },
      {
        "__struct_id": 5,
        "Comment": {
          "type": "cexostring",
          "value": "This is the default waypoint you may place to set a patrol path for a creature or NPC.\r\n1. Create the creature and either use its current Tag or fill in a new one.\r\n2. Place or make sure the WalkWayPoints() is within the body of the On Spawn script for the creature.\r\n3. Place a series of waypoints along the route you wish the creature to walk.\r\n4. Select all of the newly created waypoints and right click. Choose the Create Set option.\r\n5. The waypoint set will have a set name of \"WP_\" + NPC Tag. Thus if an NPC with the Tag \"Guard\" will have a waypoint set called \"WP_Guard\". Note that Tags are case sensitive."
        }
      },
      {
        "__struct_id": 5,
        "Comment": {
          "type": "cexostring",
          "value": "This is the default waypoint you may place to set a patrol path for a creature or NPC.\r\n1. Create the creature and either use its current Tag or fill in a new one.\r\n2. Place or make sure the WalkWayPoints() is within the body of the On Spawn script for the creature.\r\n3. Place a series of waypoints along the route you wish the creature to walk.\r\n4. Select all of the newly created waypoints and right click. Choose the Create Set option.\r\n5. The waypoint set will have a set name of \"WP_\" + NPC Tag. Thus if an NPC with the Tag \"Guard\" will have a waypoint set called \"WP_Guard\". Note that Tags are case sensitive."
        }
      },
      {
        "__struct_id": 5,
        "Comment": {
          "type": "cexostring",
          "value": ""
        }
      },
      {
        "__struct_id": 5,
        "Comment": {
          "type": "cexostring",
          "value": ""
        }
      },
      {
        "__struct_id": 5,
        "Comment": {
          "type": "cexostring",
          "value": ""
        }
      },
      {
        "__struct_id": 5,
        "Comment": {
          "type": "cexostring",
          "value": ""
        }
      },
      {
        "__struct_id": 5,
        "Comment": {
          "type": "cexostring",
          "value": ""
        }
      },
      {
        "__struct_id": 5,
        "Comment": {
          "type": "cexostring",
          "value": ""
        }
      },
      {
        "__struct_id": 5,
        "Comment": {
          "type": "cexostring",
          "value": ""
        }
      },
      {
        "__struct_id": 5,
        "Comment": {
          "type": "cexostring",
          "value": ""
        }
      },
      {
        "__struct_id": 5,
        "Comment": {
          "type": "cexostring",
          "value": ""
        }
      },
      {
        "__struct_id": 5,
        "Comment": {
          "type": "cexostring",
          "value": ""
        }
      },
      {
        "__struct_id": 5,
        "Comment": {
          "type": "cexostring",
          "value": ""
        }
      },
      {
        "__struct_id": 5,
        "Comment": {
          "type": "cexostring",
          "value": ""
        }
      },
      {
        "__struct_id": 5,
        "Comment": {
          "type": "cexostring",
          "value": ""
        }
      },
      {
        "__struct_id": 5,
        "Comment": {
          "type": "cexostring",
          "value": ""
        }
      },
      {
        "__struct_id": 5,
        "Comment": {
          "type": "cexostring",
          "value": ""
        }
      }
    ]
  }
}
