{
  "__data_type": "UTT ",
  "AutoRemoveKey": {
    "type": "byte",
    "value": 0
  },
  "Comment": {
    "type": "cexostring",
    "value": ""
  },
  "Cursor": {
    "type": "byte",
    "value": 1
  },
  "DisarmDC": {
    "type": "byte",
    "value": 10
  },
  "Faction": {
    "type": "dword",
    "value": 1
  },
  "HighlightHeight": {
    "type": "float",
    "value": 3.0
  },
  "KeyName": {
    "type": "cexostring",
    "value": ""
  },
  "LinkedTo": {
    "type": "cexostring",
    "value": ""
  },
  "LinkedToFlags": {
    "type": "byte",
    "value": 2
  },
  "LoadScreenID": {
    "type": "word",
    "value": 0
  },
  "LocalizedName": {
    "type": "cexolocstring",
    "value": {
      "0": "Area Transition - North"
    }
  },
  "OnClick": {
    "type": "resref",
    "value": "tri_tilechange"
  },
  "OnDisarm": {
    "type": "resref",
    "value": ""
  },
  "OnTrapTriggered": {
    "type": "resref",
    "value": ""
  },
  "PaletteID": {
    "type": "byte",
    "value": 5
  },
  "PortraitId": {
    "type": "word",
    "value": 0
  },
  "ScriptHeartbeat": {
    "type": "resref",
    "value": ""
  },
  "ScriptOnEnter": {
    "type": "resref",
    "value": "tri_tilechange"
  },
  "ScriptOnExit": {
    "type": "resref",
    "value": ""
  },
  "ScriptUserDefine": {
    "type": "resref",
    "value": ""
  },
  "Tag": {
    "type": "cexostring",
    "value": "tri_go_north"
  },
  "TemplateResRef": {
    "type": "resref",
    "value": "tri_go_north"
  },
  "TrapDetectable": {
    "type": "byte",
    "value": 1
  },
  "TrapDetectDC": {
    "type": "byte",
    "value": 10
  },
  "TrapDisarmable": {
    "type": "byte",
    "value": 1
  },
  "TrapFlag": {
    "type": "byte",
    "value": 0
  },
  "TrapOneShot": {
    "type": "byte",
    "value": 1
  },
  "TrapType": {
    "type": "byte",
    "value": 0
  },
  "Type": {
    "type": "int",
    "value": 1
  },
  "VarTable": {
    "type": "list",
    "value": [
      {
        "__struct_id": 0,
        "Name": {
          "type": "cexostring",
          "value": "TRANSITION_DIRECTION"
        },
        "Type": {
          "type": "dword",
          "value": 1
        },
        "Value": {
          "type": "int",
          "value": 1
        }
      }
    ]
  }
}
