{
  "__data_type": "UTC ",
  "Appearance_Type": {
    "type": "word",
    "value": 525
  },
  "BodyBag": {
    "type": "byte",
    "value": 0
  },
  "Cha": {
    "type": "byte",
    "value": 6
  },
  "ChallengeRating": {
    "type": "float",
    "value": 2.0
  },
  "ClassList": {
    "type": "list",
    "value": [
      {
        "__struct_id": 2,
        "Class": {
          "type": "int",
          "value": 12
        },
        "ClassLevel": {
          "type": "short",
          "value": 1
        }
      }
    ]
  },
  "Comment": {
    "type": "cexostring",
    "value": ""
  },
  "Con": {
    "type": "byte",
    "value": 15
  },
  "Conversation": {
    "type": "resref",
    "value": "horse"
  },
  "CRAdjust": {
    "type": "int",
    "value": 0
  },
  "CurrentHitPoints": {
    "type": "short",
    "value": 18
  },
  "DecayTime": {
    "type": "dword",
    "value": 5000
  },
  "Deity": {
    "type": "cexostring",
    "value": ""
  },
  "Description": {
    "id": 111457,
    "type": "cexolocstring",
    "value": {}
  },
  "Dex": {
    "type": "byte",
    "value": 17
  },
  "Disarmable": {
    "type": "byte",
    "value": 0
  },
  "Equip_ItemList": {
    "type": "list",
    "value": []
  },
  "FactionID": {
    "type": "word",
    "value": 5
  },
  "FeatList": {
    "type": "list",
    "value": []
  },
  "FirstName": {
    "id": 111456,
    "type": "cexolocstring",
    "value": {
      "0": "War Horse",
      "10": "Opancerzony koñ"
    }
  },
  "fortbonus": {
    "type": "short",
    "value": 2
  },
  "Gender": {
    "type": "byte",
    "value": 0
  },
  "GoodEvil": {
    "type": "byte",
    "value": 50
  },
  "HitPoints": {
    "type": "short",
    "value": 18
  },
  "Int": {
    "type": "byte",
    "value": 3
  },
  "Interruptable": {
    "type": "byte",
    "value": 1
  },
  "IsImmortal": {
    "type": "byte",
    "value": 0
  },
  "IsPC": {
    "type": "byte",
    "value": 0
  },
  "LastName": {
    "type": "cexolocstring",
    "value": {}
  },
  "LawfulChaotic": {
    "type": "byte",
    "value": 50
  },
  "Lootable": {
    "type": "byte",
    "value": 0
  },
  "MaxHitPoints": {
    "type": "short",
    "value": 20
  },
  "NaturalAC": {
    "type": "byte",
    "value": 5
  },
  "NoPermDeath": {
    "type": "byte",
    "value": 1
  },
  "PaletteID": {
    "type": "byte",
    "value": 9
  },
  "PerceptionRange": {
    "type": "byte",
    "value": 11
  },
  "Phenotype": {
    "type": "int",
    "value": 0
  },
  "Plot": {
    "type": "byte",
    "value": 0
  },
  "PortraitId": {
    "type": "word",
    "value": 1285
  },
  "Race": {
    "type": "byte",
    "value": 8
  },
  "refbonus": {
    "type": "short",
    "value": 0
  },
  "ScriptAttacked": {
    "type": "resref",
    "value": "evn_creattacked"
  },
  "ScriptDamaged": {
    "type": "resref",
    "value": "evn_credamage"
  },
  "ScriptDeath": {
    "type": "resref",
    "value": "evn_credeath"
  },
  "ScriptDialogue": {
    "type": "resref",
    "value": "evn_creconvo"
  },
  "ScriptDisturbed": {
    "type": "resref",
    "value": "evn_credisturbed"
  },
  "ScriptEndRound": {
    "type": "resref",
    "value": "evn_creroundend"
  },
  "ScriptHeartbeat": {
    "type": "resref",
    "value": "evn_crehb"
  },
  "ScriptOnBlocked": {
    "type": "resref",
    "value": "evn_creblocked"
  },
  "ScriptOnNotice": {
    "type": "resref",
    "value": "evn_crepercept"
  },
  "ScriptRested": {
    "type": "resref",
    "value": "evn_crerested"
  },
  "ScriptSpawn": {
    "type": "resref",
    "value": "evn_crespawn"
  },
  "ScriptSpellAt": {
    "type": "resref",
    "value": "evn_crecastat"
  },
  "ScriptUserDefine": {
    "type": "resref",
    "value": "evn_creuserdef"
  },
  "SkillList": {
    "type": "list",
    "value": [
      {
        "__struct_id": 0,
        "Rank": {
          "type": "byte",
          "value": 0
        }
      },
      {
        "__struct_id": 0,
        "Rank": {
          "type": "byte",
          "value": 0
        }
      },
      {
        "__struct_id": 0,
        "Rank": {
          "type": "byte",
          "value": 0
        }
      },
      {
        "__struct_id": 0,
        "Rank": {
          "type": "byte",
          "value": 0
        }
      },
      {
        "__struct_id": 0,
        "Rank": {
          "type": "byte",
          "value": 0
        }
      },
      {
        "__struct_id": 0,
        "Rank": {
          "type": "byte",
          "value": 0
        }
      },
      {
        "__struct_id": 0,
        "Rank": {
          "type": "byte",
          "value": 0
        }
      },
      {
        "__struct_id": 0,
        "Rank": {
          "type": "byte",
          "value": 0
        }
      },
      {
        "__struct_id": 0,
        "Rank": {
          "type": "byte",
          "value": 0
        }
      },
      {
        "__struct_id": 0,
        "Rank": {
          "type": "byte",
          "value": 0
        }
      },
      {
        "__struct_id": 0,
        "Rank": {
          "type": "byte",
          "value": 4
        }
      },
      {
        "__struct_id": 0,
        "Rank": {
          "type": "byte",
          "value": 0
        }
      },
      {
        "__struct_id": 0,
        "Rank": {
          "type": "byte",
          "value": 0
        }
      },
      {
        "__struct_id": 0,
        "Rank": {
          "type": "byte",
          "value": 0
        }
      },
      {
        "__struct_id": 0,
        "Rank": {
          "type": "byte",
          "value": 0
        }
      },
      {
        "__struct_id": 0,
        "Rank": {
          "type": "byte",
          "value": 0
        }
      },
      {
        "__struct_id": 0,
        "Rank": {
          "type": "byte",
          "value": 0
        }
      },
      {
        "__struct_id": 0,
        "Rank": {
          "type": "byte",
          "value": 0
        }
      },
      {
        "__struct_id": 0,
        "Rank": {
          "type": "byte",
          "value": 0
        }
      },
      {
        "__struct_id": 0,
        "Rank": {
          "type": "byte",
          "value": 0
        }
      },
      {
        "__struct_id": 0,
        "Rank": {
          "type": "byte",
          "value": 0
        }
      },
      {
        "__struct_id": 0,
        "Rank": {
          "type": "byte",
          "value": 0
        }
      },
      {
        "__struct_id": 0,
        "Rank": {
          "type": "byte",
          "value": 0
        }
      },
      {
        "__struct_id": 0,
        "Rank": {
          "type": "byte",
          "value": 0
        }
      },
      {
        "__struct_id": 0,
        "Rank": {
          "type": "byte",
          "value": 0
        }
      },
      {
        "__struct_id": 0,
        "Rank": {
          "type": "byte",
          "value": 0
        }
      },
      {
        "__struct_id": 0,
        "Rank": {
          "type": "byte",
          "value": 0
        }
      },
      {
        "__struct_id": 0,
        "Rank": {
          "type": "byte",
          "value": 0
        }
      }
    ]
  },
  "SoundSetFile": {
    "type": "word",
    "value": 259
  },
  "SpecAbilityList": {
    "type": "list",
    "value": []
  },
  "StartingPackage": {
    "type": "byte",
    "value": 74
  },
  "Str": {
    "type": "byte",
    "value": 13
  },
  "Subrace": {
    "type": "cexostring",
    "value": ""
  },
  "Tag": {
    "type": "cexostring",
    "value": "cre_warhorse4"
  },
  "Tail_New": {
    "type": "dword",
    "value": 0
  },
  "TemplateList": {
    "type": "list",
    "value": []
  },
  "TemplateResRef": {
    "type": "resref",
    "value": "cre_warhorse4"
  },
  "VarTable": {
    "type": "list",
    "value": [
      {
        "__struct_id": 0,
        "Name": {
          "type": "cexostring",
          "value": "X2_SPECIAL_COMBAT_AI_SCRIPT"
        },
        "Type": {
          "type": "dword",
          "value": 3
        },
        "Value": {
          "type": "cexostring",
          "value": "dla_ai_lighthors"
        }
      },
      {
        "__struct_id": 0,
        "Name": {
          "type": "cexostring",
          "value": "StandardSummon"
        },
        "Type": {
          "type": "dword",
          "value": 1
        },
        "Value": {
          "type": "int",
          "value": 1
        }
      },
      {
        "__struct_id": 0,
        "Name": {
          "type": "cexostring",
          "value": "OnSpawn"
        },
        "Type": {
          "type": "dword",
          "value": 3
        },
        "Value": {
          "type": "cexostring",
          "value": "cre_horsespawn"
        }
      },
      {
        "__struct_id": 0,
        "Name": {
          "type": "cexostring",
          "value": "NamePl"
        },
        "Type": {
          "type": "dword",
          "value": 3
        },
        "Value": {
          "type": "cexostring",
          "value": "Opancerzony koñ"
        }
      },
      {
        "__struct_id": 0,
        "Name": {
          "type": "cexostring",
          "value": "ExtraAC"
        },
        "Type": {
          "type": "dword",
          "value": 1
        },
        "Value": {
          "type": "int",
          "value": 1
        }
      },
      {
        "__struct_id": 0,
        "Name": {
          "type": "cexostring",
          "value": "X3_HORSE_PREMOUNT_SCRIPT"
        },
        "Type": {
          "type": "dword",
          "value": 3
        },
        "Value": {
          "type": "cexostring",
          "value": "exe_premount"
        }
      }
    ]
  },
  "WalkRate": {
    "type": "int",
    "value": 5
  },
  "willbonus": {
    "type": "short",
    "value": 0
  },
  "Wings_New": {
    "type": "dword",
    "value": 0
  },
  "Wis": {
    "type": "byte",
    "value": 12
  }
}
