{
  "__data_type": "ARE ",
  "ChanceLightning": {
    "type": "int",
    "value": 0
  },
  "ChanceRain": {
    "type": "int",
    "value": 0
  },
  "ChanceSnow": {
    "type": "int",
    "value": 0
  },
  "Comments": {
    "type": "cexostring",
    "value": ""
  },
  "Creator_ID": {
    "type": "int",
    "value": -1
  },
  "DayNightCycle": {
    "type": "byte",
    "value": 1
  },
  "Expansion_List": {
    "type": "list",
    "value": []
  },
  "Flags": {
    "type": "dword",
    "value": 4
  },
  "FogClipDist": {
    "type": "float",
    "value": 45.0
  },
  "Height": {
    "type": "int",
    "value": 8
  },
  "ID": {
    "type": "int",
    "value": -1
  },
  "IsNight": {
    "type": "byte",
    "value": 0
  },
  "LightingScheme": {
    "type": "byte",
    "value": 0
  },
  "LoadScreenID": {
    "type": "word",
    "value": 180
  },
  "ModListenCheck": {
    "type": "int",
    "value": 0
  },
  "ModSpotCheck": {
    "type": "int",
    "value": 0
  },
  "MoonAmbientColor": {
    "type": "dword",
    "value": 0
  },
  "MoonDiffuseColor": {
    "type": "dword",
    "value": 13132900
  },
  "MoonFogAmount": {
    "type": "byte",
    "value": 0
  },
  "MoonFogColor": {
    "type": "dword",
    "value": 6566450
  },
  "MoonShadows": {
    "type": "byte",
    "value": 1
  },
  "Name": {
    "type": "cexolocstring",
    "value": {
      "0": "humvil_04_05"
    }
  },
  "NoRest": {
    "type": "byte",
    "value": 1
  },
  "OnEnter": {
    "type": "resref",
    "value": ""
  },
  "OnExit": {
    "type": "resref",
    "value": ""
  },
  "OnHeartbeat": {
    "type": "resref",
    "value": ""
  },
  "OnUserDefined": {
    "type": "resref",
    "value": ""
  },
  "PlayerVsPlayer": {
    "type": "byte",
    "value": 3
  },
  "ResRef": {
    "type": "resref",
    "value": "humvil_04_05"
  },
  "ShadowOpacity": {
    "type": "byte",
    "value": 50
  },
  "SkyBox": {
    "type": "byte",
    "value": 0
  },
  "SunAmbientColor": {
    "type": "dword",
    "value": 6566450
  },
  "SunDiffuseColor": {
    "type": "dword",
    "value": 16777215
  },
  "SunFogAmount": {
    "type": "byte",
    "value": 0
  },
  "SunFogColor": {
    "type": "dword",
    "value": 9535080
  },
  "SunShadows": {
    "type": "byte",
    "value": 1
  },
  "Tag": {
    "type": "cexostring",
    "value": "humvil_04_05"
  },
  "Tile_List": {
    "type": "list",
    "value": [
      {
        "__struct_id": 1,
        "Tile_AnimLoop1": {
          "type": "byte",
          "value": 1
        },
        "Tile_AnimLoop2": {
          "type": "byte",
          "value": 1
        },
        "Tile_AnimLoop3": {
          "type": "byte",
          "value": 1
        },
        "Tile_Height": {
          "type": "int",
          "value": 1
        },
        "Tile_ID": {
          "type": "int",
          "value": 122
        },
        "Tile_MainLight1": {
          "type": "byte",
          "value": 0
        },
        "Tile_MainLight2": {
          "type": "byte",
          "value": 0
        },
        "Tile_Orientation": {
          "type": "int",
          "value": 2
        },
        "Tile_SrcLight1": {
          "type": "byte",
          "value": 0
        },
        "Tile_SrcLight2": {
          "type": "byte",
          "value": 0
        }
      },
      {
        "__struct_id": 1,
        "Tile_AnimLoop1": {
          "type": "byte",
          "value": 1
        },
        "Tile_AnimLoop2": {
          "type": "byte",
          "value": 1
        },
        "Tile_AnimLoop3": {
          "type": "byte",
          "value": 1
        },
        "Tile_Height": {
          "type": "int",
          "value": 1
        },
        "Tile_ID": {
          "type": "int",
          "value": 117
        },
        "Tile_MainLight1": {
          "type": "byte",
          "value": 0
        },
        "Tile_MainLight2": {
          "type": "byte",
          "value": 0
        },
        "Tile_Orientation": {
          "type": "int",
          "value": 1
        },
        "Tile_SrcLight1": {
          "type": "byte",
          "value": 0
        },
        "Tile_SrcLight2": {
          "type": "byte",
          "value": 0
        }
      },
      {
        "__struct_id": 1,
        "Tile_AnimLoop1": {
          "type": "byte",
          "value": 1
        },
        "Tile_AnimLoop2": {
          "type": "byte",
          "value": 1
        },
        "Tile_AnimLoop3": {
          "type": "byte",
          "value": 1
        },
        "Tile_Height": {
          "type": "int",
          "value": 0
        },
        "Tile_ID": {
          "type": "int",
          "value": 121
        },
        "Tile_MainLight1": {
          "type": "byte",
          "value": 0
        },
        "Tile_MainLight2": {
          "type": "byte",
          "value": 0
        },
        "Tile_Orientation": {
          "type": "int",
          "value": 2
        },
        "Tile_SrcLight1": {
          "type": "byte",
          "value": 0
        },
        "Tile_SrcLight2": {
          "type": "byte",
          "value": 0
        }
      },
      {
        "__struct_id": 1,
        "Tile_AnimLoop1": {
          "type": "byte",
          "value": 1
        },
        "Tile_AnimLoop2": {
          "type": "byte",
          "value": 1
        },
        "Tile_AnimLoop3": {
          "type": "byte",
          "value": 1
        },
        "Tile_Height": {
          "type": "int",
          "value": 0
        },
        "Tile_ID": {
          "type": "int",
          "value": 898
        },
        "Tile_MainLight1": {
          "type": "byte",
          "value": 0
        },
        "Tile_MainLight2": {
          "type": "byte",
          "value": 0
        },
        "Tile_Orientation": {
          "type": "int",
          "value": 0
        },
        "Tile_SrcLight1": {
          "type": "byte",
          "value": 0
        },
        "Tile_SrcLight2": {
          "type": "byte",
          "value": 0
        }
      },
      {
        "__struct_id": 1,
        "Tile_AnimLoop1": {
          "type": "byte",
          "value": 1
        },
        "Tile_AnimLoop2": {
          "type": "byte",
          "value": 1
        },
        "Tile_AnimLoop3": {
          "type": "byte",
          "value": 1
        },
        "Tile_Height": {
          "type": "int",
          "value": 0
        },
        "Tile_ID": {
          "type": "int",
          "value": 1012
        },
        "Tile_MainLight1": {
          "type": "byte",
          "value": 0
        },
        "Tile_MainLight2": {
          "type": "byte",
          "value": 0
        },
        "Tile_Orientation": {
          "type": "int",
          "value": 0
        },
        "Tile_SrcLight1": {
          "type": "byte",
          "value": 0
        },
        "Tile_SrcLight2": {
          "type": "byte",
          "value": 0
        }
      },
      {
        "__struct_id": 1,
        "Tile_AnimLoop1": {
          "type": "byte",
          "value": 1
        },
        "Tile_AnimLoop2": {
          "type": "byte",
          "value": 1
        },
        "Tile_AnimLoop3": {
          "type": "byte",
          "value": 1
        },
        "Tile_Height": {
          "type": "int",
          "value": 0
        },
        "Tile_ID": {
          "type": "int",
          "value": 28
        },
        "Tile_MainLight1": {
          "type": "byte",
          "value": 0
        },
        "Tile_MainLight2": {
          "type": "byte",
          "value": 0
        },
        "Tile_Orientation": {
          "type": "int",
          "value": 2
        },
        "Tile_SrcLight1": {
          "type": "byte",
          "value": 0
        },
        "Tile_SrcLight2": {
          "type": "byte",
          "value": 0
        }
      },
      {
        "__struct_id": 1,
        "Tile_AnimLoop1": {
          "type": "byte",
          "value": 1
        },
        "Tile_AnimLoop2": {
          "type": "byte",
          "value": 1
        },
        "Tile_AnimLoop3": {
          "type": "byte",
          "value": 1
        },
        "Tile_Height": {
          "type": "int",
          "value": 0
        },
        "Tile_ID": {
          "type": "int",
          "value": 21
        },
        "Tile_MainLight1": {
          "type": "byte",
          "value": 0
        },
        "Tile_MainLight2": {
          "type": "byte",
          "value": 0
        },
        "Tile_Orientation": {
          "type": "int",
          "value": 3
        },
        "Tile_SrcLight1": {
          "type": "byte",
          "value": 0
        },
        "Tile_SrcLight2": {
          "type": "byte",
          "value": 0
        }
      },
      {
        "__struct_id": 1,
        "Tile_AnimLoop1": {
          "type": "byte",
          "value": 1
        },
        "Tile_AnimLoop2": {
          "type": "byte",
          "value": 1
        },
        "Tile_AnimLoop3": {
          "type": "byte",
          "value": 1
        },
        "Tile_Height": {
          "type": "int",
          "value": 0
        },
        "Tile_ID": {
          "type": "int",
          "value": 33
        },
        "Tile_MainLight1": {
          "type": "byte",
          "value": 0
        },
        "Tile_MainLight2": {
          "type": "byte",
          "value": 0
        },
        "Tile_Orientation": {
          "type": "int",
          "value": 0
        },
        "Tile_SrcLight1": {
          "type": "byte",
          "value": 0
        },
        "Tile_SrcLight2": {
          "type": "byte",
          "value": 0
        }
      },
      {
        "__struct_id": 1,
        "Tile_AnimLoop1": {
          "type": "byte",
          "value": 1
        },
        "Tile_AnimLoop2": {
          "type": "byte",
          "value": 1
        },
        "Tile_AnimLoop3": {
          "type": "byte",
          "value": 1
        },
        "Tile_Height": {
          "type": "int",
          "value": 0
        },
        "Tile_ID": {
          "type": "int",
          "value": 122
        },
        "Tile_MainLight1": {
          "type": "byte",
          "value": 0
        },
        "Tile_MainLight2": {
          "type": "byte",
          "value": 0
        },
        "Tile_Orientation": {
          "type": "int",
          "value": 2
        },
        "Tile_SrcLight1": {
          "type": "byte",
          "value": 0
        },
        "Tile_SrcLight2": {
          "type": "byte",
          "value": 0
        }
      },
      {
        "__struct_id": 1,
        "Tile_AnimLoop1": {
          "type": "byte",
          "value": 1
        },
        "Tile_AnimLoop2": {
          "type": "byte",
          "value": 1
        },
        "Tile_AnimLoop3": {
          "type": "byte",
          "value": 1
        },
        "Tile_Height": {
          "type": "int",
          "value": 0
        },
        "Tile_ID": {
          "type": "int",
          "value": 119
        },
        "Tile_MainLight1": {
          "type": "byte",
          "value": 0
        },
        "Tile_MainLight2": {
          "type": "byte",
          "value": 0
        },
        "Tile_Orientation": {
          "type": "int",
          "value": 3
        },
        "Tile_SrcLight1": {
          "type": "byte",
          "value": 0
        },
        "Tile_SrcLight2": {
          "type": "byte",
          "value": 0
        }
      },
      {
        "__struct_id": 1,
        "Tile_AnimLoop1": {
          "type": "byte",
          "value": 1
        },
        "Tile_AnimLoop2": {
          "type": "byte",
          "value": 1
        },
        "Tile_AnimLoop3": {
          "type": "byte",
          "value": 1
        },
        "Tile_Height": {
          "type": "int",
          "value": 0
        },
        "Tile_ID": {
          "type": "int",
          "value": 117
        },
        "Tile_MainLight1": {
          "type": "byte",
          "value": 0
        },
        "Tile_MainLight2": {
          "type": "byte",
          "value": 0
        },
        "Tile_Orientation": {
          "type": "int",
          "value": 1
        },
        "Tile_SrcLight1": {
          "type": "byte",
          "value": 0
        },
        "Tile_SrcLight2": {
          "type": "byte",
          "value": 0
        }
      },
      {
        "__struct_id": 1,
        "Tile_AnimLoop1": {
          "type": "byte",
          "value": 1
        },
        "Tile_AnimLoop2": {
          "type": "byte",
          "value": 1
        },
        "Tile_AnimLoop3": {
          "type": "byte",
          "value": 1
        },
        "Tile_Height": {
          "type": "int",
          "value": 0
        },
        "Tile_ID": {
          "type": "int",
          "value": 899
        },
        "Tile_MainLight1": {
          "type": "byte",
          "value": 0
        },
        "Tile_MainLight2": {
          "type": "byte",
          "value": 0
        },
        "Tile_Orientation": {
          "type": "int",
          "value": 0
        },
        "Tile_SrcLight1": {
          "type": "byte",
          "value": 0
        },
        "Tile_SrcLight2": {
          "type": "byte",
          "value": 0
        }
      },
      {
        "__struct_id": 1,
        "Tile_AnimLoop1": {
          "type": "byte",
          "value": 1
        },
        "Tile_AnimLoop2": {
          "type": "byte",
          "value": 1
        },
        "Tile_AnimLoop3": {
          "type": "byte",
          "value": 1
        },
        "Tile_Height": {
          "type": "int",
          "value": 0
        },
        "Tile_ID": {
          "type": "int",
          "value": 1013
        },
        "Tile_MainLight1": {
          "type": "byte",
          "value": 0
        },
        "Tile_MainLight2": {
          "type": "byte",
          "value": 0
        },
        "Tile_Orientation": {
          "type": "int",
          "value": 0
        },
        "Tile_SrcLight1": {
          "type": "byte",
          "value": 0
        },
        "Tile_SrcLight2": {
          "type": "byte",
          "value": 0
        }
      },
      {
        "__struct_id": 1,
        "Tile_AnimLoop1": {
          "type": "byte",
          "value": 1
        },
        "Tile_AnimLoop2": {
          "type": "byte",
          "value": 1
        },
        "Tile_AnimLoop3": {
          "type": "byte",
          "value": 1
        },
        "Tile_Height": {
          "type": "int",
          "value": 0
        },
        "Tile_ID": {
          "type": "int",
          "value": 347
        },
        "Tile_MainLight1": {
          "type": "byte",
          "value": 0
        },
        "Tile_MainLight2": {
          "type": "byte",
          "value": 0
        },
        "Tile_Orientation": {
          "type": "int",
          "value": 2
        },
        "Tile_SrcLight1": {
          "type": "byte",
          "value": 0
        },
        "Tile_SrcLight2": {
          "type": "byte",
          "value": 0
        }
      },
      {
        "__struct_id": 1,
        "Tile_AnimLoop1": {
          "type": "byte",
          "value": 1
        },
        "Tile_AnimLoop2": {
          "type": "byte",
          "value": 1
        },
        "Tile_AnimLoop3": {
          "type": "byte",
          "value": 1
        },
        "Tile_Height": {
          "type": "int",
          "value": 0
        },
        "Tile_ID": {
          "type": "int",
          "value": 28
        },
        "Tile_MainLight1": {
          "type": "byte",
          "value": 0
        },
        "Tile_MainLight2": {
          "type": "byte",
          "value": 0
        },
        "Tile_Orientation": {
          "type": "int",
          "value": 2
        },
        "Tile_SrcLight1": {
          "type": "byte",
          "value": 0
        },
        "Tile_SrcLight2": {
          "type": "byte",
          "value": 0
        }
      },
      {
        "__struct_id": 1,
        "Tile_AnimLoop1": {
          "type": "byte",
          "value": 1
        },
        "Tile_AnimLoop2": {
          "type": "byte",
          "value": 1
        },
        "Tile_AnimLoop3": {
          "type": "byte",
          "value": 1
        },
        "Tile_Height": {
          "type": "int",
          "value": 0
        },
        "Tile_ID": {
          "type": "int",
          "value": 22
        },
        "Tile_MainLight1": {
          "type": "byte",
          "value": 0
        },
        "Tile_MainLight2": {
          "type": "byte",
          "value": 0
        },
        "Tile_Orientation": {
          "type": "int",
          "value": 3
        },
        "Tile_SrcLight1": {
          "type": "byte",
          "value": 0
        },
        "Tile_SrcLight2": {
          "type": "byte",
          "value": 0
        }
      },
      {
        "__struct_id": 1,
        "Tile_AnimLoop1": {
          "type": "byte",
          "value": 1
        },
        "Tile_AnimLoop2": {
          "type": "byte",
          "value": 1
        },
        "Tile_AnimLoop3": {
          "type": "byte",
          "value": 1
        },
        "Tile_Height": {
          "type": "int",
          "value": 0
        },
        "Tile_ID": {
          "type": "int",
          "value": 52
        },
        "Tile_MainLight1": {
          "type": "byte",
          "value": 0
        },
        "Tile_MainLight2": {
          "type": "byte",
          "value": 0
        },
        "Tile_Orientation": {
          "type": "int",
          "value": 1
        },
        "Tile_SrcLight1": {
          "type": "byte",
          "value": 0
        },
        "Tile_SrcLight2": {
          "type": "byte",
          "value": 0
        }
      },
      {
        "__struct_id": 1,
        "Tile_AnimLoop1": {
          "type": "byte",
          "value": 1
        },
        "Tile_AnimLoop2": {
          "type": "byte",
          "value": 1
        },
        "Tile_AnimLoop3": {
          "type": "byte",
          "value": 1
        },
        "Tile_Height": {
          "type": "int",
          "value": 0
        },
        "Tile_ID": {
          "type": "int",
          "value": 53
        },
        "Tile_MainLight1": {
          "type": "byte",
          "value": 0
        },
        "Tile_MainLight2": {
          "type": "byte",
          "value": 0
        },
        "Tile_Orientation": {
          "type": "int",
          "value": 3
        },
        "Tile_SrcLight1": {
          "type": "byte",
          "value": 0
        },
        "Tile_SrcLight2": {
          "type": "byte",
          "value": 0
        }
      },
      {
        "__struct_id": 1,
        "Tile_AnimLoop1": {
          "type": "byte",
          "value": 1
        },
        "Tile_AnimLoop2": {
          "type": "byte",
          "value": 1
        },
        "Tile_AnimLoop3": {
          "type": "byte",
          "value": 1
        },
        "Tile_Height": {
          "type": "int",
          "value": 0
        },
        "Tile_ID": {
          "type": "int",
          "value": 1008
        },
        "Tile_MainLight1": {
          "type": "byte",
          "value": 0
        },
        "Tile_MainLight2": {
          "type": "byte",
          "value": 0
        },
        "Tile_Orientation": {
          "type": "int",
          "value": 2
        },
        "Tile_SrcLight1": {
          "type": "byte",
          "value": 0
        },
        "Tile_SrcLight2": {
          "type": "byte",
          "value": 0
        }
      },
      {
        "__struct_id": 1,
        "Tile_AnimLoop1": {
          "type": "byte",
          "value": 1
        },
        "Tile_AnimLoop2": {
          "type": "byte",
          "value": 1
        },
        "Tile_AnimLoop3": {
          "type": "byte",
          "value": 1
        },
        "Tile_Height": {
          "type": "int",
          "value": 0
        },
        "Tile_ID": {
          "type": "int",
          "value": 1011
        },
        "Tile_MainLight1": {
          "type": "byte",
          "value": 0
        },
        "Tile_MainLight2": {
          "type": "byte",
          "value": 0
        },
        "Tile_Orientation": {
          "type": "int",
          "value": 1
        },
        "Tile_SrcLight1": {
          "type": "byte",
          "value": 0
        },
        "Tile_SrcLight2": {
          "type": "byte",
          "value": 0
        }
      },
      {
        "__struct_id": 1,
        "Tile_AnimLoop1": {
          "type": "byte",
          "value": 1
        },
        "Tile_AnimLoop2": {
          "type": "byte",
          "value": 1
        },
        "Tile_AnimLoop3": {
          "type": "byte",
          "value": 1
        },
        "Tile_Height": {
          "type": "int",
          "value": 0
        },
        "Tile_ID": {
          "type": "int",
          "value": 1017
        },
        "Tile_MainLight1": {
          "type": "byte",
          "value": 0
        },
        "Tile_MainLight2": {
          "type": "byte",
          "value": 0
        },
        "Tile_Orientation": {
          "type": "int",
          "value": 1
        },
        "Tile_SrcLight1": {
          "type": "byte",
          "value": 0
        },
        "Tile_SrcLight2": {
          "type": "byte",
          "value": 0
        }
      },
      {
        "__struct_id": 1,
        "Tile_AnimLoop1": {
          "type": "byte",
          "value": 1
        },
        "Tile_AnimLoop2": {
          "type": "byte",
          "value": 1
        },
        "Tile_AnimLoop3": {
          "type": "byte",
          "value": 1
        },
        "Tile_Height": {
          "type": "int",
          "value": 0
        },
        "Tile_ID": {
          "type": "int",
          "value": 1008
        },
        "Tile_MainLight1": {
          "type": "byte",
          "value": 0
        },
        "Tile_MainLight2": {
          "type": "byte",
          "value": 0
        },
        "Tile_Orientation": {
          "type": "int",
          "value": 3
        },
        "Tile_SrcLight1": {
          "type": "byte",
          "value": 0
        },
        "Tile_SrcLight2": {
          "type": "byte",
          "value": 0
        }
      },
      {
        "__struct_id": 1,
        "Tile_AnimLoop1": {
          "type": "byte",
          "value": 1
        },
        "Tile_AnimLoop2": {
          "type": "byte",
          "value": 1
        },
        "Tile_AnimLoop3": {
          "type": "byte",
          "value": 1
        },
        "Tile_Height": {
          "type": "int",
          "value": 0
        },
        "Tile_ID": {
          "type": "int",
          "value": 911
        },
        "Tile_MainLight1": {
          "type": "byte",
          "value": 0
        },
        "Tile_MainLight2": {
          "type": "byte",
          "value": 0
        },
        "Tile_Orientation": {
          "type": "int",
          "value": 3
        },
        "Tile_SrcLight1": {
          "type": "byte",
          "value": 0
        },
        "Tile_SrcLight2": {
          "type": "byte",
          "value": 0
        }
      },
      {
        "__struct_id": 1,
        "Tile_AnimLoop1": {
          "type": "byte",
          "value": 1
        },
        "Tile_AnimLoop2": {
          "type": "byte",
          "value": 1
        },
        "Tile_AnimLoop3": {
          "type": "byte",
          "value": 1
        },
        "Tile_Height": {
          "type": "int",
          "value": 0
        },
        "Tile_ID": {
          "type": "int",
          "value": 23
        },
        "Tile_MainLight1": {
          "type": "byte",
          "value": 0
        },
        "Tile_MainLight2": {
          "type": "byte",
          "value": 0
        },
        "Tile_Orientation": {
          "type": "int",
          "value": 0
        },
        "Tile_SrcLight1": {
          "type": "byte",
          "value": 0
        },
        "Tile_SrcLight2": {
          "type": "byte",
          "value": 0
        }
      },
      {
        "__struct_id": 1,
        "Tile_AnimLoop1": {
          "type": "byte",
          "value": 1
        },
        "Tile_AnimLoop2": {
          "type": "byte",
          "value": 1
        },
        "Tile_AnimLoop3": {
          "type": "byte",
          "value": 1
        },
        "Tile_Height": {
          "type": "int",
          "value": 0
        },
        "Tile_ID": {
          "type": "int",
          "value": 11
        },
        "Tile_MainLight1": {
          "type": "byte",
          "value": 0
        },
        "Tile_MainLight2": {
          "type": "byte",
          "value": 0
        },
        "Tile_Orientation": {
          "type": "int",
          "value": 0
        },
        "Tile_SrcLight1": {
          "type": "byte",
          "value": 0
        },
        "Tile_SrcLight2": {
          "type": "byte",
          "value": 0
        }
      },
      {
        "__struct_id": 1,
        "Tile_AnimLoop1": {
          "type": "byte",
          "value": 1
        },
        "Tile_AnimLoop2": {
          "type": "byte",
          "value": 1
        },
        "Tile_AnimLoop3": {
          "type": "byte",
          "value": 1
        },
        "Tile_Height": {
          "type": "int",
          "value": 0
        },
        "Tile_ID": {
          "type": "int",
          "value": 57
        },
        "Tile_MainLight1": {
          "type": "byte",
          "value": 0
        },
        "Tile_MainLight2": {
          "type": "byte",
          "value": 0
        },
        "Tile_Orientation": {
          "type": "int",
          "value": 0
        },
        "Tile_SrcLight1": {
          "type": "byte",
          "value": 0
        },
        "Tile_SrcLight2": {
          "type": "byte",
          "value": 0
        }
      },
      {
        "__struct_id": 1,
        "Tile_AnimLoop1": {
          "type": "byte",
          "value": 1
        },
        "Tile_AnimLoop2": {
          "type": "byte",
          "value": 1
        },
        "Tile_AnimLoop3": {
          "type": "byte",
          "value": 1
        },
        "Tile_Height": {
          "type": "int",
          "value": 0
        },
        "Tile_ID": {
          "type": "int",
          "value": 1014
        },
        "Tile_MainLight1": {
          "type": "byte",
          "value": 0
        },
        "Tile_MainLight2": {
          "type": "byte",
          "value": 0
        },
        "Tile_Orientation": {
          "type": "int",
          "value": 0
        },
        "Tile_SrcLight1": {
          "type": "byte",
          "value": 0
        },
        "Tile_SrcLight2": {
          "type": "byte",
          "value": 0
        }
      },
      {
        "__struct_id": 1,
        "Tile_AnimLoop1": {
          "type": "byte",
          "value": 1
        },
        "Tile_AnimLoop2": {
          "type": "byte",
          "value": 1
        },
        "Tile_AnimLoop3": {
          "type": "byte",
          "value": 1
        },
        "Tile_Height": {
          "type": "int",
          "value": 0
        },
        "Tile_ID": {
          "type": "int",
          "value": 1372
        },
        "Tile_MainLight1": {
          "type": "byte",
          "value": 0
        },
        "Tile_MainLight2": {
          "type": "byte",
          "value": 0
        },
        "Tile_Orientation": {
          "type": "int",
          "value": 3
        },
        "Tile_SrcLight1": {
          "type": "byte",
          "value": 0
        },
        "Tile_SrcLight2": {
          "type": "byte",
          "value": 0
        }
      },
      {
        "__struct_id": 1,
        "Tile_AnimLoop1": {
          "type": "byte",
          "value": 1
        },
        "Tile_AnimLoop2": {
          "type": "byte",
          "value": 1
        },
        "Tile_AnimLoop3": {
          "type": "byte",
          "value": 1
        },
        "Tile_Height": {
          "type": "int",
          "value": 0
        },
        "Tile_ID": {
          "type": "int",
          "value": 1373
        },
        "Tile_MainLight1": {
          "type": "byte",
          "value": 0
        },
        "Tile_MainLight2": {
          "type": "byte",
          "value": 0
        },
        "Tile_Orientation": {
          "type": "int",
          "value": 3
        },
        "Tile_SrcLight1": {
          "type": "byte",
          "value": 0
        },
        "Tile_SrcLight2": {
          "type": "byte",
          "value": 0
        }
      },
      {
        "__struct_id": 1,
        "Tile_AnimLoop1": {
          "type": "byte",
          "value": 1
        },
        "Tile_AnimLoop2": {
          "type": "byte",
          "value": 1
        },
        "Tile_AnimLoop3": {
          "type": "byte",
          "value": 1
        },
        "Tile_Height": {
          "type": "int",
          "value": 0
        },
        "Tile_ID": {
          "type": "int",
          "value": 1012
        },
        "Tile_MainLight1": {
          "type": "byte",
          "value": 0
        },
        "Tile_MainLight2": {
          "type": "byte",
          "value": 0
        },
        "Tile_Orientation": {
          "type": "int",
          "value": 2
        },
        "Tile_SrcLight1": {
          "type": "byte",
          "value": 0
        },
        "Tile_SrcLight2": {
          "type": "byte",
          "value": 0
        }
      },
      {
        "__struct_id": 1,
        "Tile_AnimLoop1": {
          "type": "byte",
          "value": 1
        },
        "Tile_AnimLoop2": {
          "type": "byte",
          "value": 1
        },
        "Tile_AnimLoop3": {
          "type": "byte",
          "value": 1
        },
        "Tile_Height": {
          "type": "int",
          "value": 0
        },
        "Tile_ID": {
          "type": "int",
          "value": 910
        },
        "Tile_MainLight1": {
          "type": "byte",
          "value": 0
        },
        "Tile_MainLight2": {
          "type": "byte",
          "value": 0
        },
        "Tile_Orientation": {
          "type": "int",
          "value": 3
        },
        "Tile_SrcLight1": {
          "type": "byte",
          "value": 0
        },
        "Tile_SrcLight2": {
          "type": "byte",
          "value": 0
        }
      },
      {
        "__struct_id": 1,
        "Tile_AnimLoop1": {
          "type": "byte",
          "value": 1
        },
        "Tile_AnimLoop2": {
          "type": "byte",
          "value": 1
        },
        "Tile_AnimLoop3": {
          "type": "byte",
          "value": 1
        },
        "Tile_Height": {
          "type": "int",
          "value": 0
        },
        "Tile_ID": {
          "type": "int",
          "value": 24
        },
        "Tile_MainLight1": {
          "type": "byte",
          "value": 0
        },
        "Tile_MainLight2": {
          "type": "byte",
          "value": 0
        },
        "Tile_Orientation": {
          "type": "int",
          "value": 0
        },
        "Tile_SrcLight1": {
          "type": "byte",
          "value": 0
        },
        "Tile_SrcLight2": {
          "type": "byte",
          "value": 0
        }
      },
      {
        "__struct_id": 1,
        "Tile_AnimLoop1": {
          "type": "byte",
          "value": 1
        },
        "Tile_AnimLoop2": {
          "type": "byte",
          "value": 1
        },
        "Tile_AnimLoop3": {
          "type": "byte",
          "value": 1
        },
        "Tile_Height": {
          "type": "int",
          "value": 0
        },
        "Tile_ID": {
          "type": "int",
          "value": 34
        },
        "Tile_MainLight1": {
          "type": "byte",
          "value": 0
        },
        "Tile_MainLight2": {
          "type": "byte",
          "value": 0
        },
        "Tile_Orientation": {
          "type": "int",
          "value": 3
        },
        "Tile_SrcLight1": {
          "type": "byte",
          "value": 0
        },
        "Tile_SrcLight2": {
          "type": "byte",
          "value": 0
        }
      },
      {
        "__struct_id": 1,
        "Tile_AnimLoop1": {
          "type": "byte",
          "value": 1
        },
        "Tile_AnimLoop2": {
          "type": "byte",
          "value": 1
        },
        "Tile_AnimLoop3": {
          "type": "byte",
          "value": 1
        },
        "Tile_Height": {
          "type": "int",
          "value": 0
        },
        "Tile_ID": {
          "type": "int",
          "value": 1469
        },
        "Tile_MainLight1": {
          "type": "byte",
          "value": 0
        },
        "Tile_MainLight2": {
          "type": "byte",
          "value": 0
        },
        "Tile_Orientation": {
          "type": "int",
          "value": 0
        },
        "Tile_SrcLight1": {
          "type": "byte",
          "value": 0
        },
        "Tile_SrcLight2": {
          "type": "byte",
          "value": 0
        }
      },
      {
        "__struct_id": 1,
        "Tile_AnimLoop1": {
          "type": "byte",
          "value": 1
        },
        "Tile_AnimLoop2": {
          "type": "byte",
          "value": 1
        },
        "Tile_AnimLoop3": {
          "type": "byte",
          "value": 1
        },
        "Tile_Height": {
          "type": "int",
          "value": 0
        },
        "Tile_ID": {
          "type": "int",
          "value": 1471
        },
        "Tile_MainLight1": {
          "type": "byte",
          "value": 0
        },
        "Tile_MainLight2": {
          "type": "byte",
          "value": 0
        },
        "Tile_Orientation": {
          "type": "int",
          "value": 0
        },
        "Tile_SrcLight1": {
          "type": "byte",
          "value": 0
        },
        "Tile_SrcLight2": {
          "type": "byte",
          "value": 0
        }
      },
      {
        "__struct_id": 1,
        "Tile_AnimLoop1": {
          "type": "byte",
          "value": 1
        },
        "Tile_AnimLoop2": {
          "type": "byte",
          "value": 1
        },
        "Tile_AnimLoop3": {
          "type": "byte",
          "value": 1
        },
        "Tile_Height": {
          "type": "int",
          "value": 0
        },
        "Tile_ID": {
          "type": "int",
          "value": 377
        },
        "Tile_MainLight1": {
          "type": "byte",
          "value": 0
        },
        "Tile_MainLight2": {
          "type": "byte",
          "value": 0
        },
        "Tile_Orientation": {
          "type": "int",
          "value": 0
        },
        "Tile_SrcLight1": {
          "type": "byte",
          "value": 0
        },
        "Tile_SrcLight2": {
          "type": "byte",
          "value": 0
        }
      },
      {
        "__struct_id": 1,
        "Tile_AnimLoop1": {
          "type": "byte",
          "value": 1
        },
        "Tile_AnimLoop2": {
          "type": "byte",
          "value": 1
        },
        "Tile_AnimLoop3": {
          "type": "byte",
          "value": 1
        },
        "Tile_Height": {
          "type": "int",
          "value": 0
        },
        "Tile_ID": {
          "type": "int",
          "value": 1007
        },
        "Tile_MainLight1": {
          "type": "byte",
          "value": 0
        },
        "Tile_MainLight2": {
          "type": "byte",
          "value": 0
        },
        "Tile_Orientation": {
          "type": "int",
          "value": 2
        },
        "Tile_SrcLight1": {
          "type": "byte",
          "value": 0
        },
        "Tile_SrcLight2": {
          "type": "byte",
          "value": 0
        }
      },
      {
        "__struct_id": 1,
        "Tile_AnimLoop1": {
          "type": "byte",
          "value": 1
        },
        "Tile_AnimLoop2": {
          "type": "byte",
          "value": 1
        },
        "Tile_AnimLoop3": {
          "type": "byte",
          "value": 1
        },
        "Tile_Height": {
          "type": "int",
          "value": 0
        },
        "Tile_ID": {
          "type": "int",
          "value": 1010
        },
        "Tile_MainLight1": {
          "type": "byte",
          "value": 0
        },
        "Tile_MainLight2": {
          "type": "byte",
          "value": 0
        },
        "Tile_Orientation": {
          "type": "int",
          "value": 0
        },
        "Tile_SrcLight1": {
          "type": "byte",
          "value": 0
        },
        "Tile_SrcLight2": {
          "type": "byte",
          "value": 0
        }
      },
      {
        "__struct_id": 1,
        "Tile_AnimLoop1": {
          "type": "byte",
          "value": 1
        },
        "Tile_AnimLoop2": {
          "type": "byte",
          "value": 1
        },
        "Tile_AnimLoop3": {
          "type": "byte",
          "value": 1
        },
        "Tile_Height": {
          "type": "int",
          "value": 0
        },
        "Tile_ID": {
          "type": "int",
          "value": 11
        },
        "Tile_MainLight1": {
          "type": "byte",
          "value": 0
        },
        "Tile_MainLight2": {
          "type": "byte",
          "value": 0
        },
        "Tile_Orientation": {
          "type": "int",
          "value": 1
        },
        "Tile_SrcLight1": {
          "type": "byte",
          "value": 0
        },
        "Tile_SrcLight2": {
          "type": "byte",
          "value": 0
        }
      },
      {
        "__struct_id": 1,
        "Tile_AnimLoop1": {
          "type": "byte",
          "value": 1
        },
        "Tile_AnimLoop2": {
          "type": "byte",
          "value": 1
        },
        "Tile_AnimLoop3": {
          "type": "byte",
          "value": 1
        },
        "Tile_Height": {
          "type": "int",
          "value": 0
        },
        "Tile_ID": {
          "type": "int",
          "value": 23
        },
        "Tile_MainLight1": {
          "type": "byte",
          "value": 0
        },
        "Tile_MainLight2": {
          "type": "byte",
          "value": 0
        },
        "Tile_Orientation": {
          "type": "int",
          "value": 0
        },
        "Tile_SrcLight1": {
          "type": "byte",
          "value": 0
        },
        "Tile_SrcLight2": {
          "type": "byte",
          "value": 0
        }
      },
      {
        "__struct_id": 1,
        "Tile_AnimLoop1": {
          "type": "byte",
          "value": 1
        },
        "Tile_AnimLoop2": {
          "type": "byte",
          "value": 1
        },
        "Tile_AnimLoop3": {
          "type": "byte",
          "value": 1
        },
        "Tile_Height": {
          "type": "int",
          "value": 0
        },
        "Tile_ID": {
          "type": "int",
          "value": 381
        },
        "Tile_MainLight1": {
          "type": "byte",
          "value": 0
        },
        "Tile_MainLight2": {
          "type": "byte",
          "value": 0
        },
        "Tile_Orientation": {
          "type": "int",
          "value": 0
        },
        "Tile_SrcLight1": {
          "type": "byte",
          "value": 0
        },
        "Tile_SrcLight2": {
          "type": "byte",
          "value": 0
        }
      },
      {
        "__struct_id": 1,
        "Tile_AnimLoop1": {
          "type": "byte",
          "value": 1
        },
        "Tile_AnimLoop2": {
          "type": "byte",
          "value": 1
        },
        "Tile_AnimLoop3": {
          "type": "byte",
          "value": 1
        },
        "Tile_Height": {
          "type": "int",
          "value": 0
        },
        "Tile_ID": {
          "type": "int",
          "value": 1470
        },
        "Tile_MainLight1": {
          "type": "byte",
          "value": 0
        },
        "Tile_MainLight2": {
          "type": "byte",
          "value": 0
        },
        "Tile_Orientation": {
          "type": "int",
          "value": 0
        },
        "Tile_SrcLight1": {
          "type": "byte",
          "value": 0
        },
        "Tile_SrcLight2": {
          "type": "byte",
          "value": 0
        }
      },
      {
        "__struct_id": 1,
        "Tile_AnimLoop1": {
          "type": "byte",
          "value": 1
        },
        "Tile_AnimLoop2": {
          "type": "byte",
          "value": 1
        },
        "Tile_AnimLoop3": {
          "type": "byte",
          "value": 1
        },
        "Tile_Height": {
          "type": "int",
          "value": 0
        },
        "Tile_ID": {
          "type": "int",
          "value": 1472
        },
        "Tile_MainLight1": {
          "type": "byte",
          "value": 0
        },
        "Tile_MainLight2": {
          "type": "byte",
          "value": 0
        },
        "Tile_Orientation": {
          "type": "int",
          "value": 0
        },
        "Tile_SrcLight1": {
          "type": "byte",
          "value": 0
        },
        "Tile_SrcLight2": {
          "type": "byte",
          "value": 0
        }
      },
      {
        "__struct_id": 1,
        "Tile_AnimLoop1": {
          "type": "byte",
          "value": 1
        },
        "Tile_AnimLoop2": {
          "type": "byte",
          "value": 1
        },
        "Tile_AnimLoop3": {
          "type": "byte",
          "value": 1
        },
        "Tile_Height": {
          "type": "int",
          "value": 0
        },
        "Tile_ID": {
          "type": "int",
          "value": 404
        },
        "Tile_MainLight1": {
          "type": "byte",
          "value": 0
        },
        "Tile_MainLight2": {
          "type": "byte",
          "value": 0
        },
        "Tile_Orientation": {
          "type": "int",
          "value": 2
        },
        "Tile_SrcLight1": {
          "type": "byte",
          "value": 0
        },
        "Tile_SrcLight2": {
          "type": "byte",
          "value": 0
        }
      },
      {
        "__struct_id": 1,
        "Tile_AnimLoop1": {
          "type": "byte",
          "value": 1
        },
        "Tile_AnimLoop2": {
          "type": "byte",
          "value": 1
        },
        "Tile_AnimLoop3": {
          "type": "byte",
          "value": 1
        },
        "Tile_Height": {
          "type": "int",
          "value": 0
        },
        "Tile_ID": {
          "type": "int",
          "value": 1016
        },
        "Tile_MainLight1": {
          "type": "byte",
          "value": 0
        },
        "Tile_MainLight2": {
          "type": "byte",
          "value": 0
        },
        "Tile_Orientation": {
          "type": "int",
          "value": 2
        },
        "Tile_SrcLight1": {
          "type": "byte",
          "value": 0
        },
        "Tile_SrcLight2": {
          "type": "byte",
          "value": 0
        }
      },
      {
        "__struct_id": 1,
        "Tile_AnimLoop1": {
          "type": "byte",
          "value": 1
        },
        "Tile_AnimLoop2": {
          "type": "byte",
          "value": 1
        },
        "Tile_AnimLoop3": {
          "type": "byte",
          "value": 1
        },
        "Tile_Height": {
          "type": "int",
          "value": 0
        },
        "Tile_ID": {
          "type": "int",
          "value": 1215
        },
        "Tile_MainLight1": {
          "type": "byte",
          "value": 0
        },
        "Tile_MainLight2": {
          "type": "byte",
          "value": 0
        },
        "Tile_Orientation": {
          "type": "int",
          "value": 2
        },
        "Tile_SrcLight1": {
          "type": "byte",
          "value": 0
        },
        "Tile_SrcLight2": {
          "type": "byte",
          "value": 0
        }
      },
      {
        "__struct_id": 1,
        "Tile_AnimLoop1": {
          "type": "byte",
          "value": 1
        },
        "Tile_AnimLoop2": {
          "type": "byte",
          "value": 1
        },
        "Tile_AnimLoop3": {
          "type": "byte",
          "value": 1
        },
        "Tile_Height": {
          "type": "int",
          "value": 0
        },
        "Tile_ID": {
          "type": "int",
          "value": 116
        },
        "Tile_MainLight1": {
          "type": "byte",
          "value": 0
        },
        "Tile_MainLight2": {
          "type": "byte",
          "value": 0
        },
        "Tile_Orientation": {
          "type": "int",
          "value": 3
        },
        "Tile_SrcLight1": {
          "type": "byte",
          "value": 0
        },
        "Tile_SrcLight2": {
          "type": "byte",
          "value": 0
        }
      },
      {
        "__struct_id": 1,
        "Tile_AnimLoop1": {
          "type": "byte",
          "value": 1
        },
        "Tile_AnimLoop2": {
          "type": "byte",
          "value": 1
        },
        "Tile_AnimLoop3": {
          "type": "byte",
          "value": 1
        },
        "Tile_Height": {
          "type": "int",
          "value": 0
        },
        "Tile_ID": {
          "type": "int",
          "value": 143
        },
        "Tile_MainLight1": {
          "type": "byte",
          "value": 0
        },
        "Tile_MainLight2": {
          "type": "byte",
          "value": 0
        },
        "Tile_Orientation": {
          "type": "int",
          "value": 3
        },
        "Tile_SrcLight1": {
          "type": "byte",
          "value": 0
        },
        "Tile_SrcLight2": {
          "type": "byte",
          "value": 0
        }
      },
      {
        "__struct_id": 1,
        "Tile_AnimLoop1": {
          "type": "byte",
          "value": 1
        },
        "Tile_AnimLoop2": {
          "type": "byte",
          "value": 1
        },
        "Tile_AnimLoop3": {
          "type": "byte",
          "value": 1
        },
        "Tile_Height": {
          "type": "int",
          "value": 0
        },
        "Tile_ID": {
          "type": "int",
          "value": 526
        },
        "Tile_MainLight1": {
          "type": "byte",
          "value": 0
        },
        "Tile_MainLight2": {
          "type": "byte",
          "value": 0
        },
        "Tile_Orientation": {
          "type": "int",
          "value": 2
        },
        "Tile_SrcLight1": {
          "type": "byte",
          "value": 0
        },
        "Tile_SrcLight2": {
          "type": "byte",
          "value": 0
        }
      },
      {
        "__struct_id": 1,
        "Tile_AnimLoop1": {
          "type": "byte",
          "value": 1
        },
        "Tile_AnimLoop2": {
          "type": "byte",
          "value": 1
        },
        "Tile_AnimLoop3": {
          "type": "byte",
          "value": 1
        },
        "Tile_Height": {
          "type": "int",
          "value": 0
        },
        "Tile_ID": {
          "type": "int",
          "value": 1174
        },
        "Tile_MainLight1": {
          "type": "byte",
          "value": 0
        },
        "Tile_MainLight2": {
          "type": "byte",
          "value": 0
        },
        "Tile_Orientation": {
          "type": "int",
          "value": 3
        },
        "Tile_SrcLight1": {
          "type": "byte",
          "value": 0
        },
        "Tile_SrcLight2": {
          "type": "byte",
          "value": 0
        }
      },
      {
        "__struct_id": 1,
        "Tile_AnimLoop1": {
          "type": "byte",
          "value": 1
        },
        "Tile_AnimLoop2": {
          "type": "byte",
          "value": 1
        },
        "Tile_AnimLoop3": {
          "type": "byte",
          "value": 1
        },
        "Tile_Height": {
          "type": "int",
          "value": 0
        },
        "Tile_ID": {
          "type": "int",
          "value": 547
        },
        "Tile_MainLight1": {
          "type": "byte",
          "value": 0
        },
        "Tile_MainLight2": {
          "type": "byte",
          "value": 0
        },
        "Tile_Orientation": {
          "type": "int",
          "value": 3
        },
        "Tile_SrcLight1": {
          "type": "byte",
          "value": 0
        },
        "Tile_SrcLight2": {
          "type": "byte",
          "value": 0
        }
      },
      {
        "__struct_id": 1,
        "Tile_AnimLoop1": {
          "type": "byte",
          "value": 1
        },
        "Tile_AnimLoop2": {
          "type": "byte",
          "value": 1
        },
        "Tile_AnimLoop3": {
          "type": "byte",
          "value": 1
        },
        "Tile_Height": {
          "type": "int",
          "value": 0
        },
        "Tile_ID": {
          "type": "int",
          "value": 382
        },
        "Tile_MainLight1": {
          "type": "byte",
          "value": 0
        },
        "Tile_MainLight2": {
          "type": "byte",
          "value": 0
        },
        "Tile_Orientation": {
          "type": "int",
          "value": 3
        },
        "Tile_SrcLight1": {
          "type": "byte",
          "value": 0
        },
        "Tile_SrcLight2": {
          "type": "byte",
          "value": 0
        }
      },
      {
        "__struct_id": 1,
        "Tile_AnimLoop1": {
          "type": "byte",
          "value": 1
        },
        "Tile_AnimLoop2": {
          "type": "byte",
          "value": 1
        },
        "Tile_AnimLoop3": {
          "type": "byte",
          "value": 1
        },
        "Tile_Height": {
          "type": "int",
          "value": 0
        },
        "Tile_ID": {
          "type": "int",
          "value": 1011
        },
        "Tile_MainLight1": {
          "type": "byte",
          "value": 0
        },
        "Tile_MainLight2": {
          "type": "byte",
          "value": 0
        },
        "Tile_Orientation": {
          "type": "int",
          "value": 2
        },
        "Tile_SrcLight1": {
          "type": "byte",
          "value": 0
        },
        "Tile_SrcLight2": {
          "type": "byte",
          "value": 0
        }
      },
      {
        "__struct_id": 1,
        "Tile_AnimLoop1": {
          "type": "byte",
          "value": 1
        },
        "Tile_AnimLoop2": {
          "type": "byte",
          "value": 1
        },
        "Tile_AnimLoop3": {
          "type": "byte",
          "value": 1
        },
        "Tile_Height": {
          "type": "int",
          "value": 0
        },
        "Tile_ID": {
          "type": "int",
          "value": 116
        },
        "Tile_MainLight1": {
          "type": "byte",
          "value": 0
        },
        "Tile_MainLight2": {
          "type": "byte",
          "value": 0
        },
        "Tile_Orientation": {
          "type": "int",
          "value": 3
        },
        "Tile_SrcLight1": {
          "type": "byte",
          "value": 0
        },
        "Tile_SrcLight2": {
          "type": "byte",
          "value": 0
        }
      },
      {
        "__struct_id": 1,
        "Tile_AnimLoop1": {
          "type": "byte",
          "value": 1
        },
        "Tile_AnimLoop2": {
          "type": "byte",
          "value": 1
        },
        "Tile_AnimLoop3": {
          "type": "byte",
          "value": 1
        },
        "Tile_Height": {
          "type": "int",
          "value": 0
        },
        "Tile_ID": {
          "type": "int",
          "value": 108
        },
        "Tile_MainLight1": {
          "type": "byte",
          "value": 0
        },
        "Tile_MainLight2": {
          "type": "byte",
          "value": 0
        },
        "Tile_Orientation": {
          "type": "int",
          "value": 0
        },
        "Tile_SrcLight1": {
          "type": "byte",
          "value": 0
        },
        "Tile_SrcLight2": {
          "type": "byte",
          "value": 0
        }
      },
      {
        "__struct_id": 1,
        "Tile_AnimLoop1": {
          "type": "byte",
          "value": 1
        },
        "Tile_AnimLoop2": {
          "type": "byte",
          "value": 1
        },
        "Tile_AnimLoop3": {
          "type": "byte",
          "value": 1
        },
        "Tile_Height": {
          "type": "int",
          "value": 1
        },
        "Tile_ID": {
          "type": "int",
          "value": 14
        },
        "Tile_MainLight1": {
          "type": "byte",
          "value": 0
        },
        "Tile_MainLight2": {
          "type": "byte",
          "value": 0
        },
        "Tile_Orientation": {
          "type": "int",
          "value": 0
        },
        "Tile_SrcLight1": {
          "type": "byte",
          "value": 0
        },
        "Tile_SrcLight2": {
          "type": "byte",
          "value": 0
        }
      },
      {
        "__struct_id": 1,
        "Tile_AnimLoop1": {
          "type": "byte",
          "value": 1
        },
        "Tile_AnimLoop2": {
          "type": "byte",
          "value": 1
        },
        "Tile_AnimLoop3": {
          "type": "byte",
          "value": 1
        },
        "Tile_Height": {
          "type": "int",
          "value": 0
        },
        "Tile_ID": {
          "type": "int",
          "value": 2
        },
        "Tile_MainLight1": {
          "type": "byte",
          "value": 0
        },
        "Tile_MainLight2": {
          "type": "byte",
          "value": 0
        },
        "Tile_Orientation": {
          "type": "int",
          "value": 2
        },
        "Tile_SrcLight1": {
          "type": "byte",
          "value": 0
        },
        "Tile_SrcLight2": {
          "type": "byte",
          "value": 0
        }
      },
      {
        "__struct_id": 1,
        "Tile_AnimLoop1": {
          "type": "byte",
          "value": 1
        },
        "Tile_AnimLoop2": {
          "type": "byte",
          "value": 1
        },
        "Tile_AnimLoop3": {
          "type": "byte",
          "value": 1
        },
        "Tile_Height": {
          "type": "int",
          "value": 0
        },
        "Tile_ID": {
          "type": "int",
          "value": 4
        },
        "Tile_MainLight1": {
          "type": "byte",
          "value": 0
        },
        "Tile_MainLight2": {
          "type": "byte",
          "value": 0
        },
        "Tile_Orientation": {
          "type": "int",
          "value": 1
        },
        "Tile_SrcLight1": {
          "type": "byte",
          "value": 0
        },
        "Tile_SrcLight2": {
          "type": "byte",
          "value": 0
        }
      },
      {
        "__struct_id": 1,
        "Tile_AnimLoop1": {
          "type": "byte",
          "value": 1
        },
        "Tile_AnimLoop2": {
          "type": "byte",
          "value": 1
        },
        "Tile_AnimLoop3": {
          "type": "byte",
          "value": 1
        },
        "Tile_Height": {
          "type": "int",
          "value": 0
        },
        "Tile_ID": {
          "type": "int",
          "value": 2
        },
        "Tile_MainLight1": {
          "type": "byte",
          "value": 0
        },
        "Tile_MainLight2": {
          "type": "byte",
          "value": 0
        },
        "Tile_Orientation": {
          "type": "int",
          "value": 1
        },
        "Tile_SrcLight1": {
          "type": "byte",
          "value": 0
        },
        "Tile_SrcLight2": {
          "type": "byte",
          "value": 0
        }
      },
      {
        "__struct_id": 1,
        "Tile_AnimLoop1": {
          "type": "byte",
          "value": 1
        },
        "Tile_AnimLoop2": {
          "type": "byte",
          "value": 1
        },
        "Tile_AnimLoop3": {
          "type": "byte",
          "value": 1
        },
        "Tile_Height": {
          "type": "int",
          "value": 0
        },
        "Tile_ID": {
          "type": "int",
          "value": 38
        },
        "Tile_MainLight1": {
          "type": "byte",
          "value": 0
        },
        "Tile_MainLight2": {
          "type": "byte",
          "value": 0
        },
        "Tile_Orientation": {
          "type": "int",
          "value": 0
        },
        "Tile_SrcLight1": {
          "type": "byte",
          "value": 0
        },
        "Tile_SrcLight2": {
          "type": "byte",
          "value": 0
        }
      },
      {
        "__struct_id": 1,
        "Tile_AnimLoop1": {
          "type": "byte",
          "value": 1
        },
        "Tile_AnimLoop2": {
          "type": "byte",
          "value": 1
        },
        "Tile_AnimLoop3": {
          "type": "byte",
          "value": 1
        },
        "Tile_Height": {
          "type": "int",
          "value": 0
        },
        "Tile_ID": {
          "type": "int",
          "value": 1012
        },
        "Tile_MainLight1": {
          "type": "byte",
          "value": 0
        },
        "Tile_MainLight2": {
          "type": "byte",
          "value": 0
        },
        "Tile_Orientation": {
          "type": "int",
          "value": 0
        },
        "Tile_SrcLight1": {
          "type": "byte",
          "value": 0
        },
        "Tile_SrcLight2": {
          "type": "byte",
          "value": 0
        }
      },
      {
        "__struct_id": 1,
        "Tile_AnimLoop1": {
          "type": "byte",
          "value": 1
        },
        "Tile_AnimLoop2": {
          "type": "byte",
          "value": 1
        },
        "Tile_AnimLoop3": {
          "type": "byte",
          "value": 1
        },
        "Tile_Height": {
          "type": "int",
          "value": 0
        },
        "Tile_ID": {
          "type": "int",
          "value": 112
        },
        "Tile_MainLight1": {
          "type": "byte",
          "value": 0
        },
        "Tile_MainLight2": {
          "type": "byte",
          "value": 0
        },
        "Tile_Orientation": {
          "type": "int",
          "value": 0
        },
        "Tile_SrcLight1": {
          "type": "byte",
          "value": 0
        },
        "Tile_SrcLight2": {
          "type": "byte",
          "value": 0
        }
      },
      {
        "__struct_id": 1,
        "Tile_AnimLoop1": {
          "type": "byte",
          "value": 1
        },
        "Tile_AnimLoop2": {
          "type": "byte",
          "value": 1
        },
        "Tile_AnimLoop3": {
          "type": "byte",
          "value": 1
        },
        "Tile_Height": {
          "type": "int",
          "value": 1
        },
        "Tile_ID": {
          "type": "int",
          "value": 352
        },
        "Tile_MainLight1": {
          "type": "byte",
          "value": 0
        },
        "Tile_MainLight2": {
          "type": "byte",
          "value": 0
        },
        "Tile_Orientation": {
          "type": "int",
          "value": 0
        },
        "Tile_SrcLight1": {
          "type": "byte",
          "value": 0
        },
        "Tile_SrcLight2": {
          "type": "byte",
          "value": 0
        }
      },
      {
        "__struct_id": 1,
        "Tile_AnimLoop1": {
          "type": "byte",
          "value": 1
        },
        "Tile_AnimLoop2": {
          "type": "byte",
          "value": 1
        },
        "Tile_AnimLoop3": {
          "type": "byte",
          "value": 1
        },
        "Tile_Height": {
          "type": "int",
          "value": 1
        },
        "Tile_ID": {
          "type": "int",
          "value": 878
        },
        "Tile_MainLight1": {
          "type": "byte",
          "value": 0
        },
        "Tile_MainLight2": {
          "type": "byte",
          "value": 0
        },
        "Tile_Orientation": {
          "type": "int",
          "value": 2
        },
        "Tile_SrcLight1": {
          "type": "byte",
          "value": 0
        },
        "Tile_SrcLight2": {
          "type": "byte",
          "value": 0
        }
      }
    ]
  },
  "Tileset": {
    "type": "resref",
    "value": "trm02"
  },
  "Width": {
    "type": "int",
    "value": 8
  },
  "WindPower": {
    "type": "int",
    "value": 0
  }
}
