{
  "__data_type": "UTC ",
  "Appearance_Type": {
    "type": "word",
    "value": 124
  },
  "BodyBag": {
    "type": "byte",
    "value": 0
  },
  "Cha": {
    "type": "byte",
    "value": 15
  },
  "ChallengeRating": {
    "type": "float",
    "value": 14.0
  },
  "ClassList": {
    "type": "list",
    "value": [
      {
        "__struct_id": 2,
        "Class": {
          "type": "int",
          "value": 19
        },
        "ClassLevel": {
          "type": "short",
          "value": 6
        }
      },
      {
        "__struct_id": 2,
        "Class": {
          "type": "int",
          "value": 2
        },
        "ClassLevel": {
          "type": "short",
          "value": 10
        },
        "MemorizedList0": {
          "type": "list",
          "value": [
            {
              "__struct_id": 3,
              "Spell": {
                "type": "word",
                "value": 431
              },
              "SpellFlags": {
                "type": "byte",
                "value": 1
              },
              "SpellMetaMagic": {
                "type": "byte",
                "value": 0
              }
            },
            {
              "__struct_id": 3,
              "Spell": {
                "type": "word",
                "value": 100
              },
              "SpellFlags": {
                "type": "byte",
                "value": 1
              },
              "SpellMetaMagic": {
                "type": "byte",
                "value": 0
              }
            },
            {
              "__struct_id": 3,
              "Spell": {
                "type": "word",
                "value": 100
              },
              "SpellFlags": {
                "type": "byte",
                "value": 1
              },
              "SpellMetaMagic": {
                "type": "byte",
                "value": 0
              }
            },
            {
              "__struct_id": 3,
              "Spell": {
                "type": "word",
                "value": 100
              },
              "SpellFlags": {
                "type": "byte",
                "value": 1
              },
              "SpellMetaMagic": {
                "type": "byte",
                "value": 0
              }
            },
            {
              "__struct_id": 3,
              "Spell": {
                "type": "word",
                "value": 151
              },
              "SpellFlags": {
                "type": "byte",
                "value": 1
              },
              "SpellMetaMagic": {
                "type": "byte",
                "value": 0
              }
            },
            {
              "__struct_id": 3,
              "Spell": {
                "type": "word",
                "value": 189
              },
              "SpellFlags": {
                "type": "byte",
                "value": 1
              },
              "SpellMetaMagic": {
                "type": "byte",
                "value": 0
              }
            }
          ]
        },
        "MemorizedList1": {
          "type": "list",
          "value": [
            {
              "__struct_id": 3,
              "Spell": {
                "type": "word",
                "value": 6
              },
              "SpellFlags": {
                "type": "byte",
                "value": 1
              },
              "SpellMetaMagic": {
                "type": "byte",
                "value": 0
              }
            },
            {
              "__struct_id": 3,
              "Spell": {
                "type": "word",
                "value": 46
              },
              "SpellFlags": {
                "type": "byte",
                "value": 1
              },
              "SpellMetaMagic": {
                "type": "byte",
                "value": 0
              }
            },
            {
              "__struct_id": 3,
              "Spell": {
                "type": "word",
                "value": 432
              },
              "SpellFlags": {
                "type": "byte",
                "value": 1
              },
              "SpellMetaMagic": {
                "type": "byte",
                "value": 0
              }
            }
          ]
        },
        "MemorizedList2": {
          "type": "list",
          "value": [
            {
              "__struct_id": 3,
              "Spell": {
                "type": "word",
                "value": 1
              },
              "SpellFlags": {
                "type": "byte",
                "value": 1
              },
              "SpellMetaMagic": {
                "type": "byte",
                "value": 0
              }
            },
            {
              "__struct_id": 3,
              "Spell": {
                "type": "word",
                "value": 83
              },
              "SpellFlags": {
                "type": "byte",
                "value": 1
              },
              "SpellMetaMagic": {
                "type": "byte",
                "value": 0
              }
            },
            {
              "__struct_id": 3,
              "Spell": {
                "type": "word",
                "value": 433
              },
              "SpellFlags": {
                "type": "byte",
                "value": 1
              },
              "SpellMetaMagic": {
                "type": "byte",
                "value": 0
              }
            },
            {
              "__struct_id": 3,
              "Spell": {
                "type": "word",
                "value": 163
              },
              "SpellFlags": {
                "type": "byte",
                "value": 1
              },
              "SpellMetaMagic": {
                "type": "byte",
                "value": 0
              }
            }
          ]
        },
        "MemorizedList3": {
          "type": "list",
          "value": [
            {
              "__struct_id": 3,
              "Spell": {
                "type": "word",
                "value": 21
              },
              "SpellFlags": {
                "type": "byte",
                "value": 1
              },
              "SpellMetaMagic": {
                "type": "byte",
                "value": 0
              }
            },
            {
              "__struct_id": 3,
              "Spell": {
                "type": "word",
                "value": 21
              },
              "SpellFlags": {
                "type": "byte",
                "value": 1
              },
              "SpellMetaMagic": {
                "type": "byte",
                "value": 0
              }
            },
            {
              "__struct_id": 3,
              "Spell": {
                "type": "word",
                "value": 41
              },
              "SpellFlags": {
                "type": "byte",
                "value": 1
              },
              "SpellMetaMagic": {
                "type": "byte",
                "value": 0
              }
            },
            {
              "__struct_id": 3,
              "Spell": {
                "type": "word",
                "value": 434
              },
              "SpellFlags": {
                "type": "byte",
                "value": 1
              },
              "SpellMetaMagic": {
                "type": "byte",
                "value": 0
              }
            }
          ]
        },
        "MemorizedList4": {
          "type": "list",
          "value": [
            {
              "__struct_id": 3,
              "Spell": {
                "type": "word",
                "value": 42
              },
              "SpellFlags": {
                "type": "byte",
                "value": 1
              },
              "SpellMetaMagic": {
                "type": "byte",
                "value": 0
              }
            },
            {
              "__struct_id": 3,
              "Spell": {
                "type": "word",
                "value": 62
              },
              "SpellFlags": {
                "type": "byte",
                "value": 1
              },
              "SpellMetaMagic": {
                "type": "byte",
                "value": 0
              }
            },
            {
              "__struct_id": 3,
              "Spell": {
                "type": "word",
                "value": 435
              },
              "SpellFlags": {
                "type": "byte",
                "value": 1
              },
              "SpellMetaMagic": {
                "type": "byte",
                "value": 0
              }
            },
            {
              "__struct_id": 3,
              "Spell": {
                "type": "word",
                "value": 126
              },
              "SpellFlags": {
                "type": "byte",
                "value": 1
              },
              "SpellMetaMagic": {
                "type": "byte",
                "value": 0
              }
            }
          ]
        },
        "MemorizedList5": {
          "type": "list",
          "value": [
            {
              "__struct_id": 3,
              "Spell": {
                "type": "word",
                "value": 61
              },
              "SpellFlags": {
                "type": "byte",
                "value": 1
              },
              "SpellMetaMagic": {
                "type": "byte",
                "value": 0
              }
            },
            {
              "__struct_id": 3,
              "Spell": {
                "type": "word",
                "value": 186
              },
              "SpellFlags": {
                "type": "byte",
                "value": 1
              },
              "SpellMetaMagic": {
                "type": "byte",
                "value": 0
              }
            }
          ]
        }
      }
    ]
  },
  "Comment": {
    "type": "cexostring",
    "value": ""
  },
  "Con": {
    "type": "byte",
    "value": 10
  },
  "Conversation": {
    "type": "resref",
    "value": ""
  },
  "CRAdjust": {
    "type": "int",
    "value": 0
  },
  "CurrentHitPoints": {
    "type": "short",
    "value": 84
  },
  "DecayTime": {
    "type": "dword",
    "value": 5000
  },
  "Deity": {
    "type": "cexostring",
    "value": ""
  },
  "Description": {
    "type": "cexolocstring",
    "value": {}
  },
  "Dex": {
    "type": "byte",
    "value": 12
  },
  "Disarmable": {
    "type": "byte",
    "value": 0
  },
  "Equip_ItemList": {
    "type": "list",
    "value": [
      {
        "__struct_id": 65536,
        "EquippedRes": {
          "type": "resref",
          "value": "nw_it_crewpb008"
        }
      },
      {
        "__struct_id": 131072,
        "EquippedRes": {
          "type": "resref",
          "value": "nw_it_creitemun3"
        }
      }
    ]
  },
  "FactionID": {
    "type": "word",
    "value": 2
  },
  "FeatList": {
    "type": "list",
    "value": [
      {
        "__struct_id": 1,
        "Feat": {
          "type": "word",
          "value": 2
        }
      },
      {
        "__struct_id": 1,
        "Feat": {
          "type": "word",
          "value": 3
        }
      },
      {
        "__struct_id": 1,
        "Feat": {
          "type": "word",
          "value": 4
        }
      },
      {
        "__struct_id": 1,
        "Feat": {
          "type": "word",
          "value": 6
        }
      },
      {
        "__struct_id": 1,
        "Feat": {
          "type": "word",
          "value": 7
        }
      },
      {
        "__struct_id": 1,
        "Feat": {
          "type": "word",
          "value": 228
        }
      },
      {
        "__struct_id": 1,
        "Feat": {
          "type": "word",
          "value": 9
        }
      },
      {
        "__struct_id": 1,
        "Feat": {
          "type": "word",
          "value": 292
        }
      },
      {
        "__struct_id": 1,
        "Feat": {
          "type": "word",
          "value": 23
        }
      },
      {
        "__struct_id": 1,
        "Feat": {
          "type": "word",
          "value": 28
        }
      },
      {
        "__struct_id": 1,
        "Feat": {
          "type": "word",
          "value": 32
        }
      },
      {
        "__struct_id": 1,
        "Feat": {
          "type": "word",
          "value": 36
        }
      },
      {
        "__struct_id": 1,
        "Feat": {
          "type": "word",
          "value": 40
        }
      },
      {
        "__struct_id": 1,
        "Feat": {
          "type": "word",
          "value": 294
        }
      },
      {
        "__struct_id": 1,
        "Feat": {
          "type": "word",
          "value": 291
        }
      },
      {
        "__struct_id": 1,
        "Feat": {
          "type": "word",
          "value": 289
        }
      },
      {
        "__struct_id": 1,
        "Feat": {
          "type": "word",
          "value": 46
        }
      },
      {
        "__struct_id": 1,
        "Feat": {
          "type": "word",
          "value": 290
        }
      }
    ]
  },
  "FirstName": {
    "id": 12756,
    "type": "cexolocstring",
    "value": {}
  },
  "fortbonus": {
    "type": "short",
    "value": 0
  },
  "Gender": {
    "type": "byte",
    "value": 0
  },
  "GoodEvil": {
    "type": "byte",
    "value": 0
  },
  "HitPoints": {
    "type": "short",
    "value": 84
  },
  "Int": {
    "type": "byte",
    "value": 10
  },
  "Interruptable": {
    "type": "byte",
    "value": 1
  },
  "IsImmortal": {
    "type": "byte",
    "value": 0
  },
  "IsPC": {
    "type": "byte",
    "value": 0
  },
  "LastName": {
    "type": "cexolocstring",
    "value": {}
  },
  "LawfulChaotic": {
    "type": "byte",
    "value": 0
  },
  "Lootable": {
    "type": "byte",
    "value": 0
  },
  "MaxHitPoints": {
    "type": "short",
    "value": 100
  },
  "NaturalAC": {
    "type": "byte",
    "value": 10
  },
  "NoPermDeath": {
    "type": "byte",
    "value": 0
  },
  "PaletteID": {
    "type": "byte",
    "value": 4
  },
  "PerceptionRange": {
    "type": "byte",
    "value": 11
  },
  "Phenotype": {
    "type": "int",
    "value": 0
  },
  "Plot": {
    "type": "byte",
    "value": 0
  },
  "PortraitId": {
    "type": "word",
    "value": 563
  },
  "Race": {
    "type": "byte",
    "value": 24
  },
  "refbonus": {
    "type": "short",
    "value": 0
  },
  "ScriptAttacked": {
    "type": "resref",
    "value": "evn_creattacked"
  },
  "ScriptDamaged": {
    "type": "resref",
    "value": "evn_credamage"
  },
  "ScriptDeath": {
    "type": "resref",
    "value": "evn_credeath"
  },
  "ScriptDialogue": {
    "type": "resref",
    "value": "evn_creconvo"
  },
  "ScriptDisturbed": {
    "type": "resref",
    "value": "evn_credisturbed"
  },
  "ScriptEndRound": {
    "type": "resref",
    "value": "evn_creroundend"
  },
  "ScriptHeartbeat": {
    "type": "resref",
    "value": "evn_crehb"
  },
  "ScriptOnBlocked": {
    "type": "resref",
    "value": "evn_creblocked"
  },
  "ScriptOnNotice": {
    "type": "resref",
    "value": "evn_crepercept"
  },
  "ScriptRested": {
    "type": "resref",
    "value": "evn_crerested"
  },
  "ScriptSpawn": {
    "type": "resref",
    "value": "evn_crespawn"
  },
  "ScriptSpellAt": {
    "type": "resref",
    "value": "evn_crecastat"
  },
  "ScriptUserDefine": {
    "type": "resref",
    "value": "evn_creuserdef"
  },
  "SkillList": {
    "type": "list",
    "value": [
      {
        "__struct_id": 0,
        "Rank": {
          "type": "byte",
          "value": 0
        }
      },
      {
        "__struct_id": 0,
        "Rank": {
          "type": "byte",
          "value": 10
        }
      },
      {
        "__struct_id": 0,
        "Rank": {
          "type": "byte",
          "value": 0
        }
      },
      {
        "__struct_id": 0,
        "Rank": {
          "type": "byte",
          "value": 0
        }
      },
      {
        "__struct_id": 0,
        "Rank": {
          "type": "byte",
          "value": 5
        }
      },
      {
        "__struct_id": 0,
        "Rank": {
          "type": "byte",
          "value": 0
        }
      },
      {
        "__struct_id": 0,
        "Rank": {
          "type": "byte",
          "value": 0
        }
      },
      {
        "__struct_id": 0,
        "Rank": {
          "type": "byte",
          "value": 0
        }
      },
      {
        "__struct_id": 0,
        "Rank": {
          "type": "byte",
          "value": 0
        }
      },
      {
        "__struct_id": 0,
        "Rank": {
          "type": "byte",
          "value": 0
        }
      },
      {
        "__struct_id": 0,
        "Rank": {
          "type": "byte",
          "value": 0
        }
      },
      {
        "__struct_id": 0,
        "Rank": {
          "type": "byte",
          "value": 0
        }
      },
      {
        "__struct_id": 0,
        "Rank": {
          "type": "byte",
          "value": 0
        }
      },
      {
        "__struct_id": 0,
        "Rank": {
          "type": "byte",
          "value": 0
        }
      },
      {
        "__struct_id": 0,
        "Rank": {
          "type": "byte",
          "value": 0
        }
      },
      {
        "__struct_id": 0,
        "Rank": {
          "type": "byte",
          "value": 0
        }
      },
      {
        "__struct_id": 0,
        "Rank": {
          "type": "byte",
          "value": 5
        }
      },
      {
        "__struct_id": 0,
        "Rank": {
          "type": "byte",
          "value": 0
        }
      },
      {
        "__struct_id": 0,
        "Rank": {
          "type": "byte",
          "value": 0
        }
      },
      {
        "__struct_id": 0,
        "Rank": {
          "type": "byte",
          "value": 0
        }
      },
      {
        "__struct_id": 0,
        "Rank": {
          "type": "byte",
          "value": 0
        }
      },
      {
        "__struct_id": 0,
        "Rank": {
          "type": "byte",
          "value": 0
        }
      },
      {
        "__struct_id": 0,
        "Rank": {
          "type": "byte",
          "value": 0
        }
      },
      {
        "__struct_id": 0,
        "Rank": {
          "type": "byte",
          "value": 0
        }
      },
      {
        "__struct_id": 0,
        "Rank": {
          "type": "byte",
          "value": 0
        }
      },
      {
        "__struct_id": 0,
        "Rank": {
          "type": "byte",
          "value": 0
        }
      },
      {
        "__struct_id": 0,
        "Rank": {
          "type": "byte",
          "value": 0
        }
      },
      {
        "__struct_id": 0,
        "Rank": {
          "type": "byte",
          "value": 0
        }
      }
    ]
  },
  "SoundSetFile": {
    "type": "word",
    "value": 69
  },
  "SpecAbilityList": {
    "type": "list",
    "value": []
  },
  "StartingPackage": {
    "type": "byte",
    "value": 2
  },
  "Str": {
    "type": "byte",
    "value": 21
  },
  "Subrace": {
    "type": "cexostring",
    "value": ""
  },
  "Tag": {
    "type": "cexostring",
    "value": "NW_S_MUMCLERIC"
  },
  "Tail_New": {
    "type": "dword",
    "value": 0
  },
  "TemplateList": {
    "type": "list",
    "value": []
  },
  "TemplateResRef": {
    "type": "resref",
    "value": "nw_s_mumcleric"
  },
  "VarTable": {
    "type": "list",
    "value": [
      {
        "__struct_id": 0,
        "Name": {
          "type": "cexostring",
          "value": "StandardSummon"
        },
        "Type": {
          "type": "dword",
          "value": 1
        },
        "Value": {
          "type": "int",
          "value": 1
        }
      },
      {
        "__struct_id": 0,
        "Name": {
          "type": "cexostring",
          "value": "OnSpawn"
        },
        "Type": {
          "type": "dword",
          "value": 3
        },
        "Value": {
          "type": "cexostring",
          "value": "nw_ch_summon_9"
        }
      }
    ]
  },
  "WalkRate": {
    "type": "int",
    "value": 7
  },
  "willbonus": {
    "type": "short",
    "value": 0
  },
  "Wings_New": {
    "type": "dword",
    "value": 0
  },
  "Wis": {
    "type": "byte",
    "value": 16
  }
}
