{
  "__data_type": "UTC ",
  "Appearance_Type": {
    "type": "word",
    "value": 147
  },
  "BodyBag": {
    "type": "byte",
    "value": 0
  },
  "Cha": {
    "type": "byte",
    "value": 12
  },
  "ChallengeRating": {
    "type": "float",
    "value": 3.0
  },
  "ClassList": {
    "type": "list",
    "value": [
      {
        "__struct_id": 2,
        "Class": {
          "type": "int",
          "value": 4
        },
        "ClassLevel": {
          "type": "short",
          "value": 1
        }
      }
    ]
  },
  "Comment": {
    "type": "cexostring",
    "value": ""
  },
  "Con": {
    "type": "byte",
    "value": 10
  },
  "Conversation": {
    "type": "resref",
    "value": ""
  },
  "CRAdjust": {
    "type": "int",
    "value": 0
  },
  "CurrentHitPoints": {
    "type": "short",
    "value": 10
  },
  "DecayTime": {
    "type": "dword",
    "value": 5000
  },
  "Deity": {
    "type": "cexostring",
    "value": ""
  },
  "Description": {
    "id": 90412,
    "type": "cexolocstring",
    "value": {}
  },
  "Dex": {
    "type": "byte",
    "value": 18
  },
  "Disarmable": {
    "type": "byte",
    "value": 0
  },
  "Equip_ItemList": {
    "type": "list",
    "value": [
      {
        "__struct_id": 16384,
        "EquippedRes": {
          "type": "resref",
          "value": "nw_it_crewpsp010"
        }
      },
      {
        "__struct_id": 32768,
        "EquippedRes": {
          "type": "resref",
          "value": "nw_it_crewpsp010"
        }
      },
      {
        "__struct_id": 65536,
        "EquippedRes": {
          "type": "resref",
          "value": "nw_it_crewps015"
        }
      },
      {
        "__struct_id": 131072,
        "EquippedRes": {
          "type": "resref",
          "value": "x1_it_creitemun1"
        }
      }
    ]
  },
  "FactionID": {
    "type": "word",
    "value": 2
  },
  "FeatList": {
    "type": "list",
    "value": [
      {
        "__struct_id": 1,
        "Feat": {
          "type": "word",
          "value": 6
        }
      },
      {
        "__struct_id": 1,
        "Feat": {
          "type": "word",
          "value": 228
        }
      },
      {
        "__struct_id": 1,
        "Feat": {
          "type": "word",
          "value": 292
        }
      },
      {
        "__struct_id": 1,
        "Feat": {
          "type": "word",
          "value": 28
        }
      },
      {
        "__struct_id": 1,
        "Feat": {
          "type": "word",
          "value": 289
        }
      },
      {
        "__struct_id": 1,
        "Feat": {
          "type": "word",
          "value": 290
        }
      }
    ]
  },
  "FirstName": {
    "id": 90411,
    "type": "cexolocstring",
    "value": {}
  },
  "fortbonus": {
    "type": "short",
    "value": 0
  },
  "Gender": {
    "type": "byte",
    "value": 0
  },
  "GoodEvil": {
    "type": "byte",
    "value": 0
  },
  "HitPoints": {
    "type": "short",
    "value": 10
  },
  "Int": {
    "type": "byte",
    "value": 16
  },
  "Interruptable": {
    "type": "byte",
    "value": 1
  },
  "IsImmortal": {
    "type": "byte",
    "value": 0
  },
  "IsPC": {
    "type": "byte",
    "value": 0
  },
  "LastName": {
    "type": "cexolocstring",
    "value": {}
  },
  "LawfulChaotic": {
    "type": "byte",
    "value": 0
  },
  "Lootable": {
    "type": "byte",
    "value": 0
  },
  "MaxHitPoints": {
    "type": "short",
    "value": 10
  },
  "NaturalAC": {
    "type": "byte",
    "value": 8
  },
  "NoPermDeath": {
    "type": "byte",
    "value": 0
  },
  "PaletteID": {
    "type": "byte",
    "value": 4
  },
  "PerceptionRange": {
    "type": "byte",
    "value": 11
  },
  "Phenotype": {
    "type": "int",
    "value": 0
  },
  "Plot": {
    "type": "byte",
    "value": 0
  },
  "PortraitId": {
    "type": "word",
    "value": 284
  },
  "Race": {
    "type": "byte",
    "value": 24
  },
  "refbonus": {
    "type": "short",
    "value": 0
  },
  "ScriptAttacked": {
    "type": "resref",
    "value": "evn_creattacked"
  },
  "ScriptDamaged": {
    "type": "resref",
    "value": "evn_credamage"
  },
  "ScriptDeath": {
    "type": "resref",
    "value": "evn_credeath"
  },
  "ScriptDialogue": {
    "type": "resref",
    "value": "evn_creconvo"
  },
  "ScriptDisturbed": {
    "type": "resref",
    "value": "evn_credisturbed"
  },
  "ScriptEndRound": {
    "type": "resref",
    "value": "evn_creroundend"
  },
  "ScriptHeartbeat": {
    "type": "resref",
    "value": "evn_crehb"
  },
  "ScriptOnBlocked": {
    "type": "resref",
    "value": "evn_creblocked"
  },
  "ScriptOnNotice": {
    "type": "resref",
    "value": "evn_crepercept"
  },
  "ScriptRested": {
    "type": "resref",
    "value": "evn_crerested"
  },
  "ScriptSpawn": {
    "type": "resref",
    "value": "evn_crespawn"
  },
  "ScriptSpellAt": {
    "type": "resref",
    "value": "evn_crecastat"
  },
  "ScriptUserDefine": {
    "type": "resref",
    "value": "evn_creuserdef"
  },
  "SkillList": {
    "type": "list",
    "value": [
      {
        "__struct_id": 0,
        "Rank": {
          "type": "byte",
          "value": 0
        }
      },
      {
        "__struct_id": 0,
        "Rank": {
          "type": "byte",
          "value": 0
        }
      },
      {
        "__struct_id": 0,
        "Rank": {
          "type": "byte",
          "value": 0
        }
      },
      {
        "__struct_id": 0,
        "Rank": {
          "type": "byte",
          "value": 0
        }
      },
      {
        "__struct_id": 0,
        "Rank": {
          "type": "byte",
          "value": 0
        }
      },
      {
        "__struct_id": 0,
        "Rank": {
          "type": "byte",
          "value": 1
        }
      },
      {
        "__struct_id": 0,
        "Rank": {
          "type": "byte",
          "value": 1
        }
      },
      {
        "__struct_id": 0,
        "Rank": {
          "type": "byte",
          "value": 0
        }
      },
      {
        "__struct_id": 0,
        "Rank": {
          "type": "byte",
          "value": 0
        }
      },
      {
        "__struct_id": 0,
        "Rank": {
          "type": "byte",
          "value": 0
        }
      },
      {
        "__struct_id": 0,
        "Rank": {
          "type": "byte",
          "value": 0
        }
      },
      {
        "__struct_id": 0,
        "Rank": {
          "type": "byte",
          "value": 0
        }
      },
      {
        "__struct_id": 0,
        "Rank": {
          "type": "byte",
          "value": 0
        }
      },
      {
        "__struct_id": 0,
        "Rank": {
          "type": "byte",
          "value": 0
        }
      },
      {
        "__struct_id": 0,
        "Rank": {
          "type": "byte",
          "value": 0
        }
      },
      {
        "__struct_id": 0,
        "Rank": {
          "type": "byte",
          "value": 0
        }
      },
      {
        "__struct_id": 0,
        "Rank": {
          "type": "byte",
          "value": 0
        }
      },
      {
        "__struct_id": 0,
        "Rank": {
          "type": "byte",
          "value": 0
        }
      },
      {
        "__struct_id": 0,
        "Rank": {
          "type": "byte",
          "value": 0
        }
      },
      {
        "__struct_id": 0,
        "Rank": {
          "type": "byte",
          "value": 0
        }
      },
      {
        "__struct_id": 0,
        "Rank": {
          "type": "byte",
          "value": 0
        }
      },
      {
        "__struct_id": 0,
        "Rank": {
          "type": "byte",
          "value": 0
        }
      },
      {
        "__struct_id": 0,
        "Rank": {
          "type": "byte",
          "value": 0
        }
      },
      {
        "__struct_id": 0,
        "Rank": {
          "type": "byte",
          "value": 0
        }
      },
      {
        "__struct_id": 0,
        "Rank": {
          "type": "byte",
          "value": 0
        }
      },
      {
        "__struct_id": 0,
        "Rank": {
          "type": "byte",
          "value": 0
        }
      },
      {
        "__struct_id": 0,
        "Rank": {
          "type": "byte",
          "value": 0
        }
      },
      {
        "__struct_id": 0,
        "Rank": {
          "type": "byte",
          "value": 0
        }
      }
    ]
  },
  "SoundSetFile": {
    "type": "word",
    "value": 78
  },
  "SpecAbilityList": {
    "type": "list",
    "value": [
      {
        "__struct_id": 4,
        "Spell": {
          "type": "word",
          "value": 36
        },
        "SpellCasterLevel": {
          "type": "byte",
          "value": 10
        },
        "SpellFlags": {
          "type": "byte",
          "value": 1
        }
      }
    ]
  },
  "StartingPackage": {
    "type": "byte",
    "value": 4
  },
  "Str": {
    "type": "byte",
    "value": 16
  },
  "Subrace": {
    "type": "cexostring",
    "value": ""
  },
  "Tag": {
    "type": "cexostring",
    "value": "X2_S_ESHADLORD"
  },
  "Tail_New": {
    "type": "dword",
    "value": 0
  },
  "TemplateList": {
    "type": "list",
    "value": []
  },
  "TemplateResRef": {
    "type": "resref",
    "value": "x2_s_eshadlord"
  },
  "VarTable": {
    "type": "list",
    "value": [
      {
        "__struct_id": 0,
        "Name": {
          "type": "cexostring",
          "value": "X2_L_IS_INCORPOREAL"
        },
        "Type": {
          "type": "dword",
          "value": 1
        },
        "Value": {
          "type": "int",
          "value": 1
        }
      },
      {
        "__struct_id": 0,
        "Name": {
          "type": "cexostring",
          "value": "X2_SPECIAL_COMBAT_AI_SCRIPT"
        },
        "Type": {
          "type": "dword",
          "value": 3
        },
        "Value": {
          "type": "cexostring",
          "value": "x2_ai_shadow"
        }
      },
      {
        "__struct_id": 0,
        "Name": {
          "type": "cexostring",
          "value": "OnSpawn"
        },
        "Type": {
          "type": "dword",
          "value": 3
        },
        "Value": {
          "type": "cexostring",
          "value": "x2_ch_summon_sld"
        }
      },
      {
        "__struct_id": 0,
        "Name": {
          "type": "cexostring",
          "value": "StandardSummon"
        },
        "Type": {
          "type": "dword",
          "value": 1
        },
        "Value": {
          "type": "int",
          "value": 1
        }
      }
    ]
  },
  "WalkRate": {
    "type": "int",
    "value": 7
  },
  "willbonus": {
    "type": "short",
    "value": 0
  },
  "Wings_New": {
    "type": "dword",
    "value": 0
  },
  "Wis": {
    "type": "byte",
    "value": 14
  }
}
