{
  "__data_type": "UTI ",
  "AddCost": {
    "type": "dword",
    "value": 700
  },
  "ArmorPart_Belt": {
    "type": "byte",
    "value": 63
  },
  "ArmorPart_LBicep": {
    "type": "byte",
    "value": 3
  },
  "ArmorPart_LFArm": {
    "type": "byte",
    "value": 3
  },
  "ArmorPart_LFoot": {
    "type": "byte",
    "value": 11
  },
  "ArmorPart_LHand": {
    "type": "byte",
    "value": 3
  },
  "ArmorPart_LShin": {
    "type": "byte",
    "value": 15
  },
  "ArmorPart_LShoul": {
    "type": "byte",
    "value": 23
  },
  "ArmorPart_LThigh": {
    "type": "byte",
    "value": 15
  },
  "ArmorPart_Neck": {
    "type": "byte",
    "value": 1
  },
  "ArmorPart_Pelvis": {
    "type": "byte",
    "value": 18
  },
  "ArmorPart_RBicep": {
    "type": "byte",
    "value": 3
  },
  "ArmorPart_RFArm": {
    "type": "byte",
    "value": 3
  },
  "ArmorPart_RFoot": {
    "type": "byte",
    "value": 11
  },
  "ArmorPart_RHand": {
    "type": "byte",
    "value": 3
  },
  "ArmorPart_Robe": {
    "type": "byte",
    "value": 0
  },
  "ArmorPart_RShin": {
    "type": "byte",
    "value": 15
  },
  "ArmorPart_RShoul": {
    "type": "byte",
    "value": 23
  },
  "ArmorPart_RThigh": {
    "type": "byte",
    "value": 15
  },
  "ArmorPart_Torso": {
    "type": "byte",
    "value": 29
  },
  "BaseItem": {
    "type": "int",
    "value": 16
  },
  "Charges": {
    "type": "byte",
    "value": 0
  },
  "Cloth1Color": {
    "type": "byte",
    "value": 125
  },
  "Cloth2Color": {
    "type": "byte",
    "value": 143
  },
  "Comment": {
    "type": "cexostring",
    "value": "1"
  },
  "Cost": {
    "type": "dword",
    "value": 1031
  },
  "Cursed": {
    "type": "byte",
    "value": 0
  },
  "DescIdentified": {
    "type": "cexolocstring",
    "value": {}
  },
  "Description": {
    "type": "cexolocstring",
    "value": {}
  },
  "Identified": {
    "type": "byte",
    "value": 0
  },
  "Leather1Color": {
    "type": "byte",
    "value": 143
  },
  "Leather2Color": {
    "type": "byte",
    "value": 125
  },
  "LocalizedName": {
    "id": 12840,
    "type": "cexolocstring",
    "value": {
      "0": "Sturdy Hide Armor",
      "10": "Twarda Skórzana Zbroja"
    }
  },
  "Metal1Color": {
    "type": "byte",
    "value": 0
  },
  "Metal2Color": {
    "type": "byte",
    "value": 0
  },
  "PaletteID": {
    "type": "byte",
    "value": 6
  },
  "Plot": {
    "type": "byte",
    "value": 0
  },
  "PropertiesList": {
    "type": "list",
    "value": [
      {
        "__struct_id": 0,
        "ChanceAppear": {
          "type": "byte",
          "value": 100
        },
        "CostTable": {
          "type": "byte",
          "value": 7
        },
        "CostValue": {
          "type": "word",
          "value": 1
        },
        "Param1": {
          "type": "byte",
          "value": 255
        },
        "Param1Value": {
          "type": "byte",
          "value": 0
        },
        "PropertyName": {
          "type": "word",
          "value": 23
        },
        "Subtype": {
          "type": "word",
          "value": 6
        }
      },
      {
        "__struct_id": 0,
        "ChanceAppear": {
          "type": "byte",
          "value": 100
        },
        "CostTable": {
          "type": "byte",
          "value": 7
        },
        "CostValue": {
          "type": "word",
          "value": 1
        },
        "Param1": {
          "type": "byte",
          "value": 255
        },
        "Param1Value": {
          "type": "byte",
          "value": 0
        },
        "PropertyName": {
          "type": "word",
          "value": 23
        },
        "Subtype": {
          "type": "word",
          "value": 7
        }
      }
    ]
  },
  "StackSize": {
    "type": "word",
    "value": 1
  },
  "Stolen": {
    "type": "byte",
    "value": 0
  },
  "Tag": {
    "type": "cexostring",
    "value": "it_armor04_02a"
  },
  "TemplateResRef": {
    "type": "resref",
    "value": "it_armor04_02a"
  }
}
