{
  "__data_type": "UTI ",
  "AddCost": {
    "type": "dword",
    "value": 300
  },
  "BaseItem": {
    "type": "int",
    "value": 26
  },
  "Charges": {
    "type": "byte",
    "value": 0
  },
  "Comment": {
    "type": "cexostring",
    "value": ""
  },
  "Cost": {
    "type": "dword",
    "value": 1016
  },
  "Cursed": {
    "type": "byte",
    "value": 0
  },
  "DescIdentified": {
    "type": "cexolocstring",
    "value": {}
  },
  "Description": {
    "type": "cexolocstring",
    "value": {}
  },
  "Identified": {
    "type": "byte",
    "value": 0
  },
  "LocalizedName": {
    "type": "cexolocstring",
    "value": {
      "0": "Boots of Reflex +2",
      "10": "Buty Refleksu +2"
    }
  },
  "ModelPart1": {
    "type": "byte",
    "value": 31
  },
  "ModelPart2": {
    "type": "byte",
    "value": 41
  },
  "ModelPart3": {
    "type": "byte",
    "value": 21
  },
  "PaletteID": {
    "type": "byte",
    "value": 15
  },
  "Plot": {
    "type": "byte",
    "value": 0
  },
  "PropertiesList": {
    "type": "list",
    "value": [
      {
        "__struct_id": 0,
        "ChanceAppear": {
          "type": "byte",
          "value": 100
        },
        "CostTable": {
          "type": "byte",
          "value": 31
        },
        "CostValue": {
          "type": "word",
          "value": 20
        },
        "Param1": {
          "type": "byte",
          "value": 255
        },
        "Param1Value": {
          "type": "byte",
          "value": 0
        },
        "PropertyName": {
          "type": "word",
          "value": 88
        },
        "Subtype": {
          "type": "word",
          "value": 0
        }
      },
      {
        "__struct_id": 0,
        "ChanceAppear": {
          "type": "byte",
          "value": 100
        },
        "CostTable": {
          "type": "byte",
          "value": 2
        },
        "CostValue": {
          "type": "word",
          "value": 2
        },
        "Param1": {
          "type": "byte",
          "value": 255
        },
        "Param1Value": {
          "type": "byte",
          "value": 0
        },
        "PropertyName": {
          "type": "word",
          "value": 41
        },
        "Subtype": {
          "type": "word",
          "value": 3
        }
      }
    ]
  },
  "StackSize": {
    "type": "word",
    "value": 1
  },
  "Stolen": {
    "type": "byte",
    "value": 0
  },
  "Tag": {
    "type": "cexostring",
    "value": "it_boots02a"
  },
  "TemplateResRef": {
    "type": "resref",
    "value": "it_boots02a"
  }
}
