{
  "__data_type": "UTI ",
  "AddCost": {
    "type": "dword",
    "value": 995
  },
  "BaseItem": {
    "type": "int",
    "value": 47
  },
  "Charges": {
    "type": "byte",
    "value": 0
  },
  "Comment": {
    "type": "cexostring",
    "value": "1"
  },
  "Cost": {
    "type": "dword",
    "value": 995
  },
  "Cursed": {
    "type": "byte",
    "value": 0
  },
  "DescIdentified": {
    "type": "cexolocstring",
    "value": {}
  },
  "Description": {
    "type": "cexolocstring",
    "value": {}
  },
  "Identified": {
    "type": "byte",
    "value": 0
  },
  "LocalizedName": {
    "id": 1541,
    "type": "cexolocstring",
    "value": {
      "0": "Slime Squasher",
      "10": "Szlamowy Mia¿d¿yciel",
      "256": "Morningstar"
    }
  },
  "ModelPart1": {
    "type": "byte",
    "value": 22
  },
  "ModelPart2": {
    "type": "byte",
    "value": 42
  },
  "ModelPart3": {
    "type": "byte",
    "value": 42
  },
  "PaletteID": {
    "type": "byte",
    "value": 61
  },
  "Plot": {
    "type": "byte",
    "value": 0
  },
  "PropertiesList": {
    "type": "list",
    "value": [
      {
        "__struct_id": 0,
        "ChanceAppear": {
          "type": "byte",
          "value": 100
        },
        "CostTable": {
          "type": "byte",
          "value": 31
        },
        "CostValue": {
          "type": "word",
          "value": 21
        },
        "Param1": {
          "type": "byte",
          "value": 255
        },
        "Param1Value": {
          "type": "byte",
          "value": 0
        },
        "PropertyName": {
          "type": "word",
          "value": 88
        },
        "Subtype": {
          "type": "word",
          "value": 0
        }
      },
      {
        "__struct_id": 0,
        "ChanceAppear": {
          "type": "byte",
          "value": 100
        },
        "CostTable": {
          "type": "byte",
          "value": 2
        },
        "CostValue": {
          "type": "word",
          "value": 2
        },
        "Param1": {
          "type": "byte",
          "value": 255
        },
        "Param1Value": {
          "type": "byte",
          "value": 0
        },
        "PropertyName": {
          "type": "word",
          "value": 8
        },
        "Subtype": {
          "type": "word",
          "value": 29
        }
      }
    ]
  },
  "StackSize": {
    "type": "word",
    "value": 1
  },
  "Stolen": {
    "type": "byte",
    "value": 0
  },
  "Tag": {
    "type": "cexostring",
    "value": "it_mornstar02a"
  },
  "TemplateResRef": {
    "type": "resref",
    "value": "it_mornstar02a"
  }
}
