{
  "__data_type": "UTI ",
  "AddCost": {
    "type": "dword",
    "value": 8
  },
  "BaseItem": {
    "type": "int",
    "value": 59
  },
  "Charges": {
    "type": "byte",
    "value": 0
  },
  "Comment": {
    "type": "cexostring",
    "value": "1"
  },
  "Cost": {
    "type": "dword",
    "value": 400
  },
  "Cursed": {
    "type": "byte",
    "value": 0
  },
  "DescIdentified": {
    "type": "cexolocstring",
    "value": {}
  },
  "Description": {
    "type": "cexolocstring",
    "value": {}
  },
  "Identified": {
    "type": "byte",
    "value": 0
  },
  "LocalizedName": {
    "id": 1553,
    "type": "cexolocstring",
    "value": {
      "0": "Assassin's Star",
      "10": "Gwiazda Zabójcy"
    }
  },
  "ModelPart1": {
    "type": "byte",
    "value": 13
  },
  "PaletteID": {
    "type": "byte",
    "value": 52
  },
  "Plot": {
    "type": "byte",
    "value": 0
  },
  "PropertiesList": {
    "type": "list",
    "value": [
      {
        "__struct_id": 0,
        "ChanceAppear": {
          "type": "byte",
          "value": 100
        },
        "CostTable": {
          "type": "byte",
          "value": 31
        },
        "CostValue": {
          "type": "word",
          "value": 21
        },
        "Param1": {
          "type": "byte",
          "value": 255
        },
        "Param1Value": {
          "type": "byte",
          "value": 0
        },
        "PropertyName": {
          "type": "word",
          "value": 88
        },
        "Subtype": {
          "type": "word",
          "value": 0
        }
      },
      {
        "__struct_id": 0,
        "ChanceAppear": {
          "type": "byte",
          "value": 100
        },
        "CostTable": {
          "type": "byte",
          "value": 4
        },
        "CostValue": {
          "type": "word",
          "value": 1
        },
        "Param1": {
          "type": "byte",
          "value": 255
        },
        "Param1Value": {
          "type": "byte",
          "value": 0
        },
        "PropertyName": {
          "type": "word",
          "value": 16
        },
        "Subtype": {
          "type": "word",
          "value": 6
        }
      },
      {
        "__struct_id": 0,
        "ChanceAppear": {
          "type": "byte",
          "value": 100
        },
        "CostTable": {
          "type": "byte",
          "value": 2
        },
        "CostValue": {
          "type": "word",
          "value": 1
        },
        "Param1": {
          "type": "byte",
          "value": 255
        },
        "Param1Value": {
          "type": "byte",
          "value": 0
        },
        "PropertyName": {
          "type": "word",
          "value": 6
        },
        "Subtype": {
          "type": "word",
          "value": 0
        }
      }
    ]
  },
  "StackSize": {
    "type": "word",
    "value": 50
  },
  "Stolen": {
    "type": "byte",
    "value": 0
  },
  "Tag": {
    "type": "cexostring",
    "value": "it_shuriken02a"
  },
  "TemplateResRef": {
    "type": "resref",
    "value": "it_shuriken02a"
  }
}
