{
  "__data_type": "UTI ",
  "AddCost": {
    "type": "dword",
    "value": 25
  },
  "BaseItem": {
    "type": "int",
    "value": 113
  },
  "Charges": {
    "type": "byte",
    "value": 0
  },
  "Comment": {
    "type": "cexostring",
    "value": ""
  },
  "Cost": {
    "type": "dword",
    "value": 25
  },
  "Cursed": {
    "type": "byte",
    "value": 0
  },
  "DescIdentified": {
    "type": "cexolocstring",
    "value": {
      "0": "Like their more common and less valuable counterparts, mana crystals hold magical energy within them that makes them great components in crafting of magical wands, powerful traps and rare enchanted items, as well as scribing scrolls.",
      "10": "Kryszta³y many, tak jak ich czêœciej spotykane i mniej cenne zamienniki, zawieraj¹ w sobie mistyczn¹ energiê, która czyni z nich œwietne sk³adniki w wytwarzaniu magicznych ró¿d¿ek, potê¿nych pu³apek i rzadkich zaczarowanych przedmiotów, a tak¿e w pisaniu zwojów."
    }
  },
  "Description": {
    "type": "cexolocstring",
    "value": {}
  },
  "Identified": {
    "type": "byte",
    "value": 1
  },
  "LocalizedName": {
    "type": "cexolocstring",
    "value": {
      "0": "Mana crystal",
      "10": "Kryszta³ many"
    }
  },
  "ModelPart1": {
    "type": "byte",
    "value": 49
  },
  "PaletteID": {
    "type": "byte",
    "value": 64
  },
  "Plot": {
    "type": "byte",
    "value": 0
  },
  "PropertiesList": {
    "type": "list",
    "value": []
  },
  "StackSize": {
    "type": "word",
    "value": 1
  },
  "Stolen": {
    "type": "byte",
    "value": 0
  },
  "Tag": {
    "type": "cexostring",
    "value": "it_crystal2"
  },
  "TemplateResRef": {
    "type": "resref",
    "value": "it_crystal2"
  }
}
