{
  "__data_type": "GIC ",
  "Creature List": {
    "type": "list",
    "value": []
  },
  "Door List": {
    "type": "list",
    "value": []
  },
  "Encounter List": {
    "type": "list",
    "value": []
  },
  "List": {
    "type": "list",
    "value": []
  },
  "Placeable List": {
    "type": "list",
    "value": []
  },
  "SoundList": {
    "type": "list",
    "value": []
  },
  "StoreList": {
    "type": "list",
    "value": []
  },
  "TriggerList": {
    "type": "list",
    "value": [
      {
        "__struct_id": 1,
        "Comment": {
          "type": "cexostring",
          "value": ""
        }
      },
      {
        "__struct_id": 1,
        "Comment": {
          "type": "cexostring",
          "value": ""
        }
      },
      {
        "__struct_id": 1,
        "Comment": {
          "type": "cexostring",
          "value": ""
        }
      }
    ]
  },
  "WaypointList": {
    "type": "list",
    "value": [
      {
        "__struct_id": 5,
        "Comment": {
          "type": "cexostring",
          "value": ""
        }
      },
      {
        "__struct_id": 5,
        "Comment": {
          "type": "cexostring",
          "value": ""
        }
      },
      {
        "__struct_id": 5,
        "Comment": {
          "type": "cexostring",
          "value": ""
        }
      },
      {
        "__struct_id": 5,
        "Comment": {
          "type": "cexostring",
          "value": ""
        }
      },
      {
        "__struct_id": 5,
        "Comment": {
          "type": "cexostring",
          "value": ""
        }
      },
      {
        "__struct_id": 5,
        "Comment": {
          "type": "cexostring",
          "value": ""
        }
      },
      {
        "__struct_id": 5,
        "Comment": {
          "type": "cexostring",
          "value": ""
        }
      },
      {
        "__struct_id": 5,
        "Comment": {
          "type": "cexostring",
          "value": ""
        }
      },
      {
        "__struct_id": 5,
        "Comment": {
          "type": "cexostring",
          "value": ""
        }
      },
      {
        "__struct_id": 5,
        "Comment": {
          "type": "cexostring",
          "value": ""
        }
      },
      {
        "__struct_id": 5,
        "Comment": {
          "type": "cexostring",
          "value": ""
        }
      },
      {
        "__struct_id": 5,
        "Comment": {
          "type": "cexostring",
          "value": ""
        }
      },
      {
        "__struct_id": 5,
        "Comment": {
          "type": "cexostring",
          "value": ""
        }
      },
      {
        "__struct_id": 5,
        "Comment": {
          "type": "cexostring",
          "value": ""
        }
      },
      {
        "__struct_id": 5,
        "Comment": {
          "type": "cexostring",
          "value": ""
        }
      },
      {
        "__struct_id": 5,
        "Comment": {
          "type": "cexostring",
          "value": ""
        }
      },
      {
        "__struct_id": 5,
        "Comment": {
          "type": "cexostring",
          "value": ""
        }
      },
      {
        "__struct_id": 5,
        "Comment": {
          "type": "cexostring",
          "value": ""
        }
      },
      {
        "__struct_id": 5,
        "Comment": {
          "type": "cexostring",
          "value": ""
        }
      },
      {
        "__struct_id": 5,
        "Comment": {
          "type": "cexostring",
          "value": ""
        }
      }
    ]
  }
}
