{
  "__data_type": "UTI ",
  "AddCost": {
    "type": "dword",
    "value": 0
  },
  "BaseItem": {
    "type": "int",
    "value": 42
  },
  "Charges": {
    "type": "byte",
    "value": 0
  },
  "Comment": {
    "type": "cexostring",
    "value": "1"
  },
  "Cost": {
    "type": "dword",
    "value": 16
  },
  "Cursed": {
    "type": "byte",
    "value": 0
  },
  "DescIdentified": {
    "type": "cexolocstring",
    "value": {}
  },
  "Description": {
    "type": "cexolocstring",
    "value": {}
  },
  "Identified": {
    "type": "byte",
    "value": 1
  },
  "LocalizedName": {
    "id": 1536,
    "type": "cexolocstring",
    "value": {}
  },
  "ModelPart1": {
    "type": "byte",
    "value": 11
  },
  "ModelPart2": {
    "type": "byte",
    "value": 11
  },
  "ModelPart3": {
    "type": "byte",
    "value": 11
  },
  "PaletteID": {
    "type": "byte",
    "value": 47
  },
  "Plot": {
    "type": "byte",
    "value": 0
  },
  "PropertiesList": {
    "type": "list",
    "value": []
  },
  "StackSize": {
    "type": "word",
    "value": 1
  },
  "Stolen": {
    "type": "byte",
    "value": 0
  },
  "Tag": {
    "type": "cexostring",
    "value": "it_kukri00a"
  },
  "TemplateResRef": {
    "type": "resref",
    "value": "it_kukri00a"
  }
}
