{
  "__data_type": "UTI ",
  "AddCost": {
    "type": "dword",
    "value": 400
  },
  "ArmorPart_Belt": {
    "type": "byte",
    "value": 5
  },
  "ArmorPart_LBicep": {
    "type": "byte",
    "value": 6
  },
  "ArmorPart_LFArm": {
    "type": "byte",
    "value": 1
  },
  "ArmorPart_LFoot": {
    "type": "byte",
    "value": 5
  },
  "ArmorPart_LHand": {
    "type": "byte",
    "value": 4
  },
  "ArmorPart_LShin": {
    "type": "byte",
    "value": 17
  },
  "ArmorPart_LShoul": {
    "type": "byte",
    "value": 19
  },
  "ArmorPart_LThigh": {
    "type": "byte",
    "value": 5
  },
  "ArmorPart_Neck": {
    "type": "byte",
    "value": 1
  },
  "ArmorPart_Pelvis": {
    "type": "byte",
    "value": 6
  },
  "ArmorPart_RBicep": {
    "type": "byte",
    "value": 6
  },
  "ArmorPart_RFArm": {
    "type": "byte",
    "value": 1
  },
  "ArmorPart_RFoot": {
    "type": "byte",
    "value": 5
  },
  "ArmorPart_RHand": {
    "type": "byte",
    "value": 4
  },
  "ArmorPart_Robe": {
    "type": "byte",
    "value": 0
  },
  "ArmorPart_RShin": {
    "type": "byte",
    "value": 17
  },
  "ArmorPart_RShoul": {
    "type": "byte",
    "value": 19
  },
  "ArmorPart_RThigh": {
    "type": "byte",
    "value": 5
  },
  "ArmorPart_Torso": {
    "type": "byte",
    "value": 52
  },
  "BaseItem": {
    "type": "int",
    "value": 16
  },
  "Charges": {
    "type": "byte",
    "value": 0
  },
  "Cloth1Color": {
    "type": "byte",
    "value": 24
  },
  "Cloth2Color": {
    "type": "byte",
    "value": 25
  },
  "Comment": {
    "type": "cexostring",
    "value": "1"
  },
  "Cost": {
    "type": "dword",
    "value": 1140
  },
  "Cursed": {
    "type": "byte",
    "value": 0
  },
  "DescIdentified": {
    "type": "cexolocstring",
    "value": {}
  },
  "Description": {
    "type": "cexolocstring",
    "value": {}
  },
  "Identified": {
    "type": "byte",
    "value": 0
  },
  "Leather1Color": {
    "type": "byte",
    "value": 24
  },
  "Leather2Color": {
    "type": "byte",
    "value": 25
  },
  "LocalizedName": {
    "id": 12839,
    "type": "cexolocstring",
    "value": {
      "0": "Cold Half Plate",
      "10": "Zbroja Pó³p³ytowa Ch³odu"
    }
  },
  "Metal1Color": {
    "type": "byte",
    "value": 0
  },
  "Metal2Color": {
    "type": "byte",
    "value": 37
  },
  "PaletteID": {
    "type": "byte",
    "value": 8
  },
  "Plot": {
    "type": "byte",
    "value": 0
  },
  "PropertiesList": {
    "type": "list",
    "value": [
      {
        "__struct_id": 0,
        "ChanceAppear": {
          "type": "byte",
          "value": 100
        },
        "CostTable": {
          "type": "byte",
          "value": 7
        },
        "CostValue": {
          "type": "word",
          "value": 1
        },
        "Param1": {
          "type": "byte",
          "value": 255
        },
        "Param1Value": {
          "type": "byte",
          "value": 0
        },
        "PropertyName": {
          "type": "word",
          "value": 23
        },
        "Subtype": {
          "type": "word",
          "value": 10
        }
      }
    ]
  },
  "StackSize": {
    "type": "word",
    "value": 1
  },
  "Stolen": {
    "type": "byte",
    "value": 0
  },
  "Tag": {
    "type": "cexostring",
    "value": "it_armor11_03a"
  },
  "TemplateResRef": {
    "type": "resref",
    "value": "it_armor11_03a"
  }
}
