{
  "__data_type": "UTI ",
  "AddCost": {
    "type": "dword",
    "value": 300
  },
  "BaseItem": {
    "type": "int",
    "value": 80
  },
  "Charges": {
    "type": "byte",
    "value": 0
  },
  "Cloth1Color": {
    "type": "byte",
    "value": 23
  },
  "Cloth2Color": {
    "type": "byte",
    "value": 14
  },
  "Comment": {
    "type": "cexostring",
    "value": ""
  },
  "Cost": {
    "type": "dword",
    "value": 1566
  },
  "Cursed": {
    "type": "byte",
    "value": 0
  },
  "DescIdentified": {
    "type": "cexolocstring",
    "value": {}
  },
  "Description": {
    "type": "cexolocstring",
    "value": {}
  },
  "Identified": {
    "type": "byte",
    "value": 0
  },
  "Leather1Color": {
    "type": "byte",
    "value": 2
  },
  "Leather2Color": {
    "type": "byte",
    "value": 23
  },
  "LocalizedName": {
    "type": "cexolocstring",
    "value": {
      "0": "Cloak of Heroes +1",
      "10": "P³aszcz Bohaterów +1"
    }
  },
  "Metal1Color": {
    "type": "byte",
    "value": 19
  },
  "Metal2Color": {
    "type": "byte",
    "value": 17
  },
  "ModelPart1": {
    "type": "byte",
    "value": 5
  },
  "PaletteID": {
    "type": "byte",
    "value": 18
  },
  "Plot": {
    "type": "byte",
    "value": 0
  },
  "PropertiesList": {
    "type": "list",
    "value": [
      {
        "__struct_id": 0,
        "ChanceAppear": {
          "type": "byte",
          "value": 100
        },
        "CostTable": {
          "type": "byte",
          "value": 2
        },
        "CostValue": {
          "type": "word",
          "value": 1
        },
        "Param1": {
          "type": "byte",
          "value": 255
        },
        "Param1Value": {
          "type": "byte",
          "value": 0
        },
        "PropertyName": {
          "type": "word",
          "value": 40
        },
        "Subtype": {
          "type": "word",
          "value": 0
        }
      }
    ]
  },
  "StackSize": {
    "type": "word",
    "value": 1
  },
  "Stolen": {
    "type": "byte",
    "value": 0
  },
  "Tag": {
    "type": "cexostring",
    "value": "it_cloak03a"
  },
  "TemplateResRef": {
    "type": "resref",
    "value": "it_cloak03a"
  }
}
