{
  "__data_type": "UTC ",
  "Appearance_Head": {
    "type": "byte",
    "value": 1
  },
  "Appearance_Type": {
    "type": "word",
    "value": 6
  },
  "ArmorPart_RFoot": {
    "type": "byte",
    "value": 1
  },
  "BodyBag": {
    "type": "byte",
    "value": 0
  },
  "BodyPart_Belt": {
    "type": "byte",
    "value": 0
  },
  "BodyPart_LBicep": {
    "type": "byte",
    "value": 1
  },
  "BodyPart_LFArm": {
    "type": "byte",
    "value": 1
  },
  "BodyPart_LFoot": {
    "type": "byte",
    "value": 1
  },
  "BodyPart_LHand": {
    "type": "byte",
    "value": 1
  },
  "BodyPart_LShin": {
    "type": "byte",
    "value": 1
  },
  "BodyPart_LShoul": {
    "type": "byte",
    "value": 0
  },
  "BodyPart_LThigh": {
    "type": "byte",
    "value": 1
  },
  "BodyPart_Neck": {
    "type": "byte",
    "value": 1
  },
  "BodyPart_Pelvis": {
    "type": "byte",
    "value": 1
  },
  "BodyPart_RBicep": {
    "type": "byte",
    "value": 1
  },
  "BodyPart_RFArm": {
    "type": "byte",
    "value": 1
  },
  "BodyPart_RHand": {
    "type": "byte",
    "value": 1
  },
  "BodyPart_RShin": {
    "type": "byte",
    "value": 1
  },
  "BodyPart_RShoul": {
    "type": "byte",
    "value": 0
  },
  "BodyPart_RThigh": {
    "type": "byte",
    "value": 1
  },
  "BodyPart_Torso": {
    "type": "byte",
    "value": 1
  },
  "Cha": {
    "type": "byte",
    "value": 10
  },
  "ChallengeRating": {
    "type": "float",
    "value": 0.25
  },
  "ClassList": {
    "type": "list",
    "value": [
      {
        "__struct_id": 2,
        "Class": {
          "type": "int",
          "value": 20
        },
        "ClassLevel": {
          "type": "short",
          "value": 1
        }
      }
    ]
  },
  "Color_Hair": {
    "type": "byte",
    "value": 1
  },
  "Color_Skin": {
    "type": "byte",
    "value": 1
  },
  "Color_Tattoo1": {
    "type": "byte",
    "value": 1
  },
  "Color_Tattoo2": {
    "type": "byte",
    "value": 1
  },
  "Comment": {
    "type": "cexostring",
    "value": ""
  },
  "Con": {
    "type": "byte",
    "value": 12
  },
  "Conversation": {
    "type": "resref",
    "value": ""
  },
  "CRAdjust": {
    "type": "int",
    "value": 0
  },
  "CurrentHitPoints": {
    "type": "short",
    "value": 2
  },
  "DecayTime": {
    "type": "dword",
    "value": 5000
  },
  "Deity": {
    "type": "cexostring",
    "value": ""
  },
  "Description": {
    "type": "cexolocstring",
    "value": {
      "0": "A human commoner dealing with everyday troubles.",
      "10": "Zwyk³y cz³owiek zmagaj¹cy siê z problemami codziennego ¿ycia."
    }
  },
  "Dex": {
    "type": "byte",
    "value": 10
  },
  "Disarmable": {
    "type": "byte",
    "value": 0
  },
  "Equip_ItemList": {
    "type": "list",
    "value": []
  },
  "FactionID": {
    "type": "word",
    "value": 2
  },
  "FeatList": {
    "type": "list",
    "value": [
      {
        "__struct_id": 1,
        "Feat": {
          "type": "word",
          "value": 258
        }
      }
    ]
  },
  "FirstName": {
    "type": "cexolocstring",
    "value": {
      "0": "npc_hu_m"
    }
  },
  "fortbonus": {
    "type": "short",
    "value": 0
  },
  "Gender": {
    "type": "byte",
    "value": 0
  },
  "GoodEvil": {
    "type": "byte",
    "value": 50
  },
  "HitPoints": {
    "type": "short",
    "value": 2
  },
  "Int": {
    "type": "byte",
    "value": 10
  },
  "Interruptable": {
    "type": "byte",
    "value": 0
  },
  "IsImmortal": {
    "type": "byte",
    "value": 0
  },
  "IsPC": {
    "type": "byte",
    "value": 0
  },
  "LastName": {
    "type": "cexolocstring",
    "value": {
      "0": ""
    }
  },
  "LawfulChaotic": {
    "type": "byte",
    "value": 50
  },
  "Lootable": {
    "type": "byte",
    "value": 0
  },
  "MaxHitPoints": {
    "type": "short",
    "value": 3
  },
  "NaturalAC": {
    "type": "byte",
    "value": 0
  },
  "NoPermDeath": {
    "type": "byte",
    "value": 0
  },
  "PaletteID": {
    "type": "byte",
    "value": 44
  },
  "PerceptionRange": {
    "type": "byte",
    "value": 11
  },
  "Phenotype": {
    "type": "int",
    "value": 0
  },
  "Plot": {
    "type": "byte",
    "value": 0
  },
  "PortraitId": {
    "type": "word",
    "value": 129
  },
  "Race": {
    "type": "byte",
    "value": 6
  },
  "refbonus": {
    "type": "short",
    "value": 0
  },
  "ScriptAttacked": {
    "type": "resref",
    "value": "x2_def_attacked"
  },
  "ScriptDamaged": {
    "type": "resref",
    "value": "x2_def_ondamage"
  },
  "ScriptDeath": {
    "type": "resref",
    "value": "x2_def_ondeath"
  },
  "ScriptDialogue": {
    "type": "resref",
    "value": "x2_def_onconv"
  },
  "ScriptDisturbed": {
    "type": "resref",
    "value": "x2_def_ondisturb"
  },
  "ScriptEndRound": {
    "type": "resref",
    "value": "x2_def_endcombat"
  },
  "ScriptHeartbeat": {
    "type": "resref",
    "value": "x2_def_heartbeat"
  },
  "ScriptOnBlocked": {
    "type": "resref",
    "value": "x2_def_onblocked"
  },
  "ScriptOnNotice": {
    "type": "resref",
    "value": "x2_def_percept"
  },
  "ScriptRested": {
    "type": "resref",
    "value": "x2_def_rested"
  },
  "ScriptSpawn": {
    "type": "resref",
    "value": "cre_randspawn"
  },
  "ScriptSpellAt": {
    "type": "resref",
    "value": "x2_def_spellcast"
  },
  "ScriptUserDefine": {
    "type": "resref",
    "value": "x2_def_userdef"
  },
  "SkillList": {
    "type": "list",
    "value": [
      {
        "__struct_id": 0,
        "Rank": {
          "type": "byte",
          "value": 0
        }
      },
      {
        "__struct_id": 0,
        "Rank": {
          "type": "byte",
          "value": 0
        }
      },
      {
        "__struct_id": 0,
        "Rank": {
          "type": "byte",
          "value": 0
        }
      },
      {
        "__struct_id": 0,
        "Rank": {
          "type": "byte",
          "value": 0
        }
      },
      {
        "__struct_id": 0,
        "Rank": {
          "type": "byte",
          "value": 0
        }
      },
      {
        "__struct_id": 0,
        "Rank": {
          "type": "byte",
          "value": 0
        }
      },
      {
        "__struct_id": 0,
        "Rank": {
          "type": "byte",
          "value": 0
        }
      },
      {
        "__struct_id": 0,
        "Rank": {
          "type": "byte",
          "value": 0
        }
      },
      {
        "__struct_id": 0,
        "Rank": {
          "type": "byte",
          "value": 0
        }
      },
      {
        "__struct_id": 0,
        "Rank": {
          "type": "byte",
          "value": 0
        }
      },
      {
        "__struct_id": 0,
        "Rank": {
          "type": "byte",
          "value": 4
        }
      },
      {
        "__struct_id": 0,
        "Rank": {
          "type": "byte",
          "value": 0
        }
      },
      {
        "__struct_id": 0,
        "Rank": {
          "type": "byte",
          "value": 0
        }
      },
      {
        "__struct_id": 0,
        "Rank": {
          "type": "byte",
          "value": 0
        }
      },
      {
        "__struct_id": 0,
        "Rank": {
          "type": "byte",
          "value": 0
        }
      },
      {
        "__struct_id": 0,
        "Rank": {
          "type": "byte",
          "value": 0
        }
      },
      {
        "__struct_id": 0,
        "Rank": {
          "type": "byte",
          "value": 0
        }
      },
      {
        "__struct_id": 0,
        "Rank": {
          "type": "byte",
          "value": 0
        }
      },
      {
        "__struct_id": 0,
        "Rank": {
          "type": "byte",
          "value": 0
        }
      },
      {
        "__struct_id": 0,
        "Rank": {
          "type": "byte",
          "value": 0
        }
      },
      {
        "__struct_id": 0,
        "Rank": {
          "type": "byte",
          "value": 0
        }
      },
      {
        "__struct_id": 0,
        "Rank": {
          "type": "byte",
          "value": 0
        }
      },
      {
        "__struct_id": 0,
        "Rank": {
          "type": "byte",
          "value": 0
        }
      },
      {
        "__struct_id": 0,
        "Rank": {
          "type": "byte",
          "value": 0
        }
      },
      {
        "__struct_id": 0,
        "Rank": {
          "type": "byte",
          "value": 0
        }
      },
      {
        "__struct_id": 0,
        "Rank": {
          "type": "byte",
          "value": 0
        }
      },
      {
        "__struct_id": 0,
        "Rank": {
          "type": "byte",
          "value": 0
        }
      },
      {
        "__struct_id": 0,
        "Rank": {
          "type": "byte",
          "value": 0
        }
      }
    ]
  },
  "SoundSetFile": {
    "type": "word",
    "value": 193
  },
  "SpecAbilityList": {
    "type": "list",
    "value": []
  },
  "StartingPackage": {
    "type": "byte",
    "value": 82
  },
  "Str": {
    "type": "byte",
    "value": 10
  },
  "Subrace": {
    "type": "cexostring",
    "value": ""
  },
  "Tag": {
    "type": "cexostring",
    "value": "npc_hu_m"
  },
  "Tail_New": {
    "type": "dword",
    "value": 0
  },
  "TemplateList": {
    "type": "list",
    "value": []
  },
  "TemplateResRef": {
    "type": "resref",
    "value": "npc_hu_m"
  },
  "WalkRate": {
    "type": "int",
    "value": 4
  },
  "willbonus": {
    "type": "short",
    "value": 0
  },
  "Wings_New": {
    "type": "dword",
    "value": 0
  },
  "Wis": {
    "type": "byte",
    "value": 10
  }
}
